digraph "muq::Utilities::OTF2TracerBase"
{
 // LATEX_PDF_SIZE
  edge [fontname="FreeSans.ttf",fontsize="10",labelfontname="FreeSans.ttf",labelfontsize="10"];
  node [fontname="FreeSans.ttf",fontsize="10",shape=record];
  Node1 [label="muq::Utilities::OTF2TracerBase",height=0.2,width=0.4,color="black", fillcolor="grey75", style="filled", fontcolor="black",tooltip="Base interface for OTF2 tracer implemetations."];
  Node1 -> Node2 [dir="back",color="midnightblue",fontsize="10",style="solid",fontname="FreeSans.ttf"];
  Node2 [label="muq::Utilities::OTF2Tracer",height=0.2,width=0.4,color="black", fillcolor="white", style="filled",URL="$classmuq_1_1Utilities_1_1OTF2Tracer.html",tooltip="Tracer implementation writing to OTF2 via libotf2 The result can be viewed by several programs,..."];
  Node1 -> Node3 [dir="back",color="midnightblue",fontsize="10",style="solid",fontname="FreeSans.ttf"];
  Node3 [label="muq::Utilities::OTF2Tracer\lDummy",height=0.2,width=0.4,color="black", fillcolor="white", style="filled",URL="$classmuq_1_1Utilities_1_1OTF2TracerDummy.html",tooltip="Fallback dummy implementation not doing anything; Does not require libotf2."];
}
