digraph "muq::Utilities::LinearOperatorTypeException"
{
 // LATEX_PDF_SIZE
  edge [fontname="FreeSans.ttf",fontsize="10",labelfontname="FreeSans.ttf",labelfontsize="10"];
  node [fontname="FreeSans.ttf",fontsize="10",shape=record];
  Node1 [label="muq::Utilities::LinearOperator\lTypeException",height=0.2,width=0.4,color="black", fillcolor="grey75", style="filled", fontcolor="black",tooltip=" "];
  Node2 -> Node1 [dir="back",color="midnightblue",fontsize="10",style="solid",fontname="FreeSans.ttf"];
  Node2 [label="std::exception",height=0.2,width=0.4,color="grey75", fillcolor="white", style="filled",tooltip=" "];
}
