digraph "muq::Modeling::UMBridgeModPieceWrapper"
{
 // LATEX_PDF_SIZE
  edge [fontname="FreeSans.ttf",fontsize="10",labelfontname="FreeSans.ttf",labelfontsize="10"];
  node [fontname="FreeSans.ttf",fontsize="10",shape=record];
  Node1 [label="muq::Modeling::UMBridgeMod\lPieceWrapper",height=0.2,width=0.4,color="black", fillcolor="grey75", style="filled", fontcolor="black",tooltip="Wrap a ModPiece in an UM-Bridge Model."];
  Node2 -> Node1 [dir="back",color="midnightblue",fontsize="10",style="solid",fontname="FreeSans.ttf"];
  Node2 [label="umbridge::Model",height=0.2,width=0.4,color="black", fillcolor="white", style="filled",URL="$classumbridge_1_1Model.html",tooltip=" "];
}
