digraph "muq::SamplingAlgorithms::MCMCProposal"
{
 // LATEX_PDF_SIZE
  edge [fontname="FreeSans.ttf",fontsize="10",labelfontname="FreeSans.ttf",labelfontsize="10"];
  node [fontname="FreeSans.ttf",fontsize="10",shape=record];
  rankdir="LR";
  Node1 [label="muq::SamplingAlgorithms\l::MCMCProposal",height=0.2,width=0.4,color="black", fillcolor="grey75", style="filled", fontcolor="black",tooltip=" "];
  Node2 -> Node1 [dir="back",color="midnightblue",fontsize="10",style="solid",fontname="FreeSans.ttf"];
  Node2 [label="std::enable_shared\l_from_this\< MCMCProposal \>",height=0.2,width=0.4,color="grey75", fillcolor="white", style="filled",tooltip=" "];
  Node1 -> Node3 [dir="back",color="midnightblue",fontsize="10",style="solid",fontname="FreeSans.ttf"];
  Node3 [label="muq::SamplingAlgorithms\l::AMProposal",height=0.2,width=0.4,color="black", fillcolor="white", style="filled",URL="$classmuq_1_1SamplingAlgorithms_1_1AMProposal.html",tooltip="An implemental of the Adaptive Metropolis algorithm."];
  Node3 -> Node4 [dir="back",color="midnightblue",fontsize="10",style="solid",fontname="FreeSans.ttf"];
  Node4 [label="muq::SamplingAlgorithms\l::ParallelAMProposal",height=0.2,width=0.4,color="black", fillcolor="white", style="filled",URL="$classmuq_1_1SamplingAlgorithms_1_1ParallelAMProposal.html",tooltip=" "];
  Node1 -> Node5 [dir="back",color="midnightblue",fontsize="10",style="solid",fontname="FreeSans.ttf"];
  Node5 [label="muq::SamplingAlgorithms\l::CrankNicolsonProposal",height=0.2,width=0.4,color="black", fillcolor="white", style="filled",URL="$classmuq_1_1SamplingAlgorithms_1_1CrankNicolsonProposal.html",tooltip="An implement of the dimension-independent pCN proposal."];
  Node1 -> Node6 [dir="back",color="midnightblue",fontsize="10",style="solid",fontname="FreeSans.ttf"];
  Node6 [label="muq::SamplingAlgorithms\l::IndependenceProposal",height=0.2,width=0.4,color="black", fillcolor="white", style="filled",URL="$classmuq_1_1SamplingAlgorithms_1_1IndependenceProposal.html",tooltip="Implementation of an independence proposal with arbitrary distribution."];
  Node1 -> Node7 [dir="back",color="midnightblue",fontsize="10",style="solid",fontname="FreeSans.ttf"];
  Node7 [label="muq::SamplingAlgorithms\l::InfMALAProposal",height=0.2,width=0.4,color="black", fillcolor="white", style="filled",URL="$classmuq_1_1SamplingAlgorithms_1_1InfMALAProposal.html",tooltip="An implement of the dimension-independent MALA (or Inf-MALA) proposal."];
  Node1 -> Node8 [dir="back",color="midnightblue",fontsize="10",style="solid",fontname="FreeSans.ttf"];
  Node8 [label="muq::SamplingAlgorithms\l::InverseGammaProposal",height=0.2,width=0.4,color="black", fillcolor="white", style="filled",URL="$classmuq_1_1SamplingAlgorithms_1_1InverseGammaProposal.html",tooltip="Defines a proposal using the analytic conditional Inverse Gamma distribution for the variance of a Ga..."];
  Node1 -> Node9 [dir="back",color="midnightblue",fontsize="10",style="solid",fontname="FreeSans.ttf"];
  Node9 [label="muq::SamplingAlgorithms\l::MALAProposal",height=0.2,width=0.4,color="black", fillcolor="white", style="filled",URL="$classmuq_1_1SamplingAlgorithms_1_1MALAProposal.html",tooltip="Implementation preconditioned Langevin proposal used in the MALA algorithm."];
  Node1 -> Node10 [dir="back",color="midnightblue",fontsize="10",style="solid",fontname="FreeSans.ttf"];
  Node10 [label="muq::SamplingAlgorithms\l::MHProposal",height=0.2,width=0.4,color="black", fillcolor="white", style="filled",URL="$classmuq_1_1SamplingAlgorithms_1_1MHProposal.html",tooltip="Implementation of the classic Random Walk Metropolis proposal."];
  Node1 -> Node11 [dir="back",color="midnightblue",fontsize="10",style="solid",fontname="FreeSans.ttf"];
  Node11 [label="muq::SamplingAlgorithms\l::MixtureProposal",height=0.2,width=0.4,color="black", fillcolor="white", style="filled",URL="$classmuq_1_1SamplingAlgorithms_1_1MixtureProposal.html",tooltip="This class implements a weighted mixture of other proposals."];
  Node1 -> Node12 [dir="back",color="midnightblue",fontsize="10",style="solid",fontname="FreeSans.ttf"];
  Node12 [label="muq::SamplingAlgorithms\l::RemoteMIProposal",height=0.2,width=0.4,color="black", fillcolor="white", style="filled",URL="$classmuq_1_1SamplingAlgorithms_1_1RemoteMIProposal.html",tooltip="Proposal retrieving samples from other ranks."];
  Node1 -> Node13 [dir="back",color="midnightblue",fontsize="10",style="solid",fontname="FreeSans.ttf"];
  Node13 [label="muq::SamplingAlgorithms\l::SMMALAProposal",height=0.2,width=0.4,color="black", fillcolor="white", style="filled",URL="$classmuq_1_1SamplingAlgorithms_1_1SMMALAProposal.html",tooltip=" "];
  Node1 -> Node14 [dir="back",color="midnightblue",fontsize="10",style="solid",fontname="FreeSans.ttf"];
  Node14 [label="muq::SamplingAlgorithms\l::SubsamplingMIProposal",height=0.2,width=0.4,color="black", fillcolor="white", style="filled",URL="$classmuq_1_1SamplingAlgorithms_1_1SubsamplingMIProposal.html",tooltip="Subsampling Multiindex proposal."];
}
