digraph "muq::SamplingAlgorithms::MIDummyKernel"
{
 // LATEX_PDF_SIZE
  edge [fontname="FreeSans.ttf",fontsize="10",labelfontname="FreeSans.ttf",labelfontsize="10"];
  node [fontname="FreeSans.ttf",fontsize="10",shape=record];
  Node1 [label="muq::SamplingAlgorithms\l::MIDummyKernel",height=0.2,width=0.4,color="black", fillcolor="grey75", style="filled", fontcolor="black",tooltip="Dummy kernel for Multiindex MC methods."];
  Node2 -> Node1 [dir="back",color="midnightblue",fontsize="10",style="solid",fontname="FreeSans.ttf"];
  Node2 [label="muq::SamplingAlgorithms\l::TransitionKernel",height=0.2,width=0.4,color="black", fillcolor="white", style="filled",URL="$classmuq_1_1SamplingAlgorithms_1_1TransitionKernel.html",tooltip="Defines the transition kernel used by an MCMC algorithm."];
}
