digraph "nlohmann::detail::output_vector_adapter&lt; CharType &gt;"
{
 // LATEX_PDF_SIZE
  edge [fontname="FreeSans.ttf",fontsize="10",labelfontname="FreeSans.ttf",labelfontsize="10"];
  node [fontname="FreeSans.ttf",fontsize="10",shape=record];
  Node1 [label="nlohmann::detail::output\l_vector_adapter\< CharType \>",height=0.2,width=0.4,color="black", fillcolor="grey75", style="filled", fontcolor="black",tooltip="output adapter for byte vectors"];
  Node2 -> Node1 [dir="back",color="midnightblue",fontsize="10",style="solid",fontname="FreeSans.ttf"];
  Node2 [label="nlohmann::detail::output\l_adapter_protocol\< CharType \>",height=0.2,width=0.4,color="black", fillcolor="white", style="filled",URL="$structnlohmann_1_1detail_1_1output__adapter__protocol.html",tooltip="abstract output adapter interface"];
}
