digraph "nlohmann::detail::iterator_traits&lt; T, enable_if_t&lt; !std::is_pointer&lt; T &gt;::value &gt; &gt;"
{
 // LATEX_PDF_SIZE
  edge [fontname="FreeSans.ttf",fontsize="10",labelfontname="FreeSans.ttf",labelfontsize="10"];
  node [fontname="FreeSans.ttf",fontsize="10",shape=record];
  Node1 [label="nlohmann::detail::iterator\l_traits\< T, enable_if_t\l\< !std::is_pointer\< T \>::\lvalue \> \>",height=0.2,width=0.4,color="black", fillcolor="grey75", style="filled", fontcolor="black",tooltip=" "];
  Node2 -> Node1 [dir="back",color="midnightblue",fontsize="10",style="solid",fontname="FreeSans.ttf"];
  Node2 [label="nlohmann::detail::iterator\l_types\< T \>",height=0.2,width=0.4,color="black", fillcolor="white", style="filled",URL="$structnlohmann_1_1detail_1_1iterator__types.html",tooltip=" "];
}
