digraph "muq::Modeling::GeneralizedEigenSolver"
{
 // LATEX_PDF_SIZE
  edge [fontname="FreeSans.ttf",fontsize="10",labelfontname="FreeSans.ttf",labelfontsize="10"];
  node [fontname="FreeSans.ttf",fontsize="10",shape=record];
  Node1 [label="muq::Modeling::Generalized\lEigenSolver",height=0.2,width=0.4,color="black", fillcolor="grey75", style="filled", fontcolor="black",tooltip="Abstract base class for operator based generalized eigenvalue solvers."];
  Node1 -> Node2 [dir="back",color="midnightblue",fontsize="10",style="solid",fontname="FreeSans.ttf"];
  Node2 [label="muq::Modeling::LOBPCG",height=0.2,width=0.4,color="black", fillcolor="white", style="filled",URL="$classmuq_1_1Modeling_1_1LOBPCG.html",tooltip="The Locally Optimal Block Preconditioned Conjugate Gradient Method (LOBPCG) method for matrix-free co..."];
  Node1 -> Node3 [dir="back",color="midnightblue",fontsize="10",style="solid",fontname="FreeSans.ttf"];
  Node3 [label="muq::Modeling::Stochastic\lEigenSolver",height=0.2,width=0.4,color="black", fillcolor="white", style="filled",URL="$classmuq_1_1Modeling_1_1StochasticEigenSolver.html",tooltip="Two-pass stochastic algorithm for computing generalized eigenvalues from matrix products."];
}
