digraph "nlohmann::detail::lexer&lt; BasicJsonType, InputAdapterType &gt;"
{
 // LATEX_PDF_SIZE
  edge [fontname="FreeSans.ttf",fontsize="10",labelfontname="FreeSans.ttf",labelfontsize="10"];
  node [fontname="FreeSans.ttf",fontsize="10",shape=record];
  Node1 [label="nlohmann::detail::lexer\l\< BasicJsonType, InputAdapter\lType \>",height=0.2,width=0.4,color="black", fillcolor="grey75", style="filled", fontcolor="black",tooltip="lexical analysis"];
  Node2 -> Node1 [dir="back",color="midnightblue",fontsize="10",style="solid",fontname="FreeSans.ttf"];
  Node2 [label="nlohmann::detail::lexer\l_base\< BasicJsonType \>",height=0.2,width=0.4,color="black", fillcolor="white", style="filled",URL="$classnlohmann_1_1detail_1_1lexer__base.html",tooltip=" "];
}
