digraph "muq::Modeling::RootfindingIVP"
{
 // LATEX_PDF_SIZE
  edge [fontname="FreeSans.ttf",fontsize="10",labelfontname="FreeSans.ttf",labelfontsize="10"];
  node [fontname="FreeSans.ttf",fontsize="10",shape=record];
  Node1 [label="muq::Modeling::RootfindingIVP",height=0.2,width=0.4,color="black", fillcolor="grey75", style="filled", fontcolor="black",tooltip="A rootfinding initial value problem — find the root of a function along an orbit of an ODE."];
  Node2 -> Node1 [dir="back",color="midnightblue",fontsize="10",style="solid",fontname="FreeSans.ttf"];
  Node2 [label="ODEBase",height=0.2,width=0.4,color="grey75", fillcolor="white", style="filled",tooltip=" "];
}
