digraph "nlohmann::detail::invalid_iterator"
{
 // LATEX_PDF_SIZE
  edge [fontname="FreeSans.ttf",fontsize="10",labelfontname="FreeSans.ttf",labelfontsize="10"];
  node [fontname="FreeSans.ttf",fontsize="10",shape=record];
  Node1 [label="nlohmann::detail::invalid\l_iterator",height=0.2,width=0.4,color="black", fillcolor="grey75", style="filled", fontcolor="black",tooltip="exception indicating errors with iterators"];
  Node2 -> Node1 [dir="back",color="midnightblue",fontsize="10",style="solid",fontname="FreeSans.ttf"];
  Node2 [label="nlohmann::detail::exception",height=0.2,width=0.4,color="black", fillcolor="white", style="filled",URL="$classnlohmann_1_1detail_1_1exception.html",tooltip="general exception of the basic_json class"];
  Node3 -> Node2 [dir="back",color="midnightblue",fontsize="10",style="solid",fontname="FreeSans.ttf"];
  Node3 [label="std::exception",height=0.2,width=0.4,color="grey75", fillcolor="white", style="filled",tooltip=" "];
}
