digraph "nlohmann::detail::make_index_sequence&lt; N &gt;"
{
 // LATEX_PDF_SIZE
  edge [fontname="FreeSans.ttf",fontsize="10",labelfontname="FreeSans.ttf",labelfontsize="10"];
  node [fontname="FreeSans.ttf",fontsize="10",shape=record];
  rankdir="LR";
  Node1 [label="nlohmann::detail::make\l_index_sequence\< N \>",height=0.2,width=0.4,color="black", fillcolor="grey75", style="filled", fontcolor="black",tooltip=" "];
  Node2 -> Node1 [dir="back",color="midnightblue",fontsize="10",style="solid",fontname="FreeSans.ttf"];
  Node2 [label="nlohmann::detail::merge\l_and_renumber\< make_index\l_sequence\< N/2 \>::type, make\l_index_sequence\< N - N/2 \>::type \>",height=0.2,width=0.4,color="black", fillcolor="white", style="filled",URL="$structnlohmann_1_1detail_1_1merge__and__renumber.html",tooltip=" "];
}
