digraph "nlohmann::detail::is_compatible_object_type&lt; BasicJsonType, CompatibleObjectType &gt;"
{
 // LATEX_PDF_SIZE
  edge [fontname="FreeSans.ttf",fontsize="10",labelfontname="FreeSans.ttf",labelfontsize="10"];
  node [fontname="FreeSans.ttf",fontsize="10",shape=record];
  rankdir="LR";
  Node1 [label="nlohmann::detail::is\l_compatible_object_type\l\< BasicJsonType, CompatibleObject\lType \>",height=0.2,width=0.4,color="black", fillcolor="grey75", style="filled", fontcolor="black",tooltip=" "];
  Node2 -> Node1 [dir="back",color="midnightblue",fontsize="10",style="solid",fontname="FreeSans.ttf"];
  Node2 [label="nlohmann::detail::is\l_compatible_object_type\l_impl\< BasicJsonType, Compatible\lObjectType, typename \>",height=0.2,width=0.4,color="black", fillcolor="white", style="filled",URL="$structnlohmann_1_1detail_1_1is__compatible__object__type__impl.html",tooltip=" "];
  Node3 -> Node2 [dir="back",color="midnightblue",fontsize="10",style="solid",fontname="FreeSans.ttf"];
  Node3 [label="std::false_type",height=0.2,width=0.4,color="grey75", fillcolor="white", style="filled",tooltip=" "];
}
