digraph "nlohmann::detail::merge_and_renumber&lt; index_sequence&lt; I1... &gt;, index_sequence&lt; I2... &gt; &gt;"
{
 // LATEX_PDF_SIZE
  edge [fontname="FreeSans.ttf",fontsize="10",labelfontname="FreeSans.ttf",labelfontsize="10"];
  node [fontname="FreeSans.ttf",fontsize="10",shape=record];
  Node1 [label="nlohmann::detail::merge\l_and_renumber\< index_sequence\l\< I1... \>, index_sequence\<\l I2... \> \>",height=0.2,width=0.4,color="black", fillcolor="grey75", style="filled", fontcolor="black",tooltip=" "];
  Node2 -> Node1 [dir="back",color="midnightblue",fontsize="10",style="solid",fontname="FreeSans.ttf"];
  Node2 [label="nlohmann::detail::index\l_sequence\< I1...,(sizeof...\l(I1)+I2)... \>",height=0.2,width=0.4,color="black", fillcolor="white", style="filled",URL="$structnlohmann_1_1detail_1_1index__sequence.html",tooltip=" "];
}
