<?xml version="1.0" encoding="UTF-8" standalone="no"?>
<!DOCTYPE svg PUBLIC "-//W3C//DTD SVG 1.1//EN"
 "http://www.w3.org/Graphics/SVG/1.1/DTD/svg11.dtd">
<!-- Generated by graphviz version 2.40.1 (20161225.0304)
 -->
<!-- Title: muq::Modeling::DiagonalOperator Pages: 1 -->
<svg width="174pt" height="192pt"
 viewBox="0.00 0.00 174.08 192.00" xmlns="http://www.w3.org/2000/svg" xmlns:xlink="http://www.w3.org/1999/xlink">
<g id="graph0" class="graph" transform="scale(1 1) rotate(0) translate(4 188)">
<title>muq::Modeling::DiagonalOperator</title>
<polygon fill="#ffffff" stroke="transparent" points="-4,4 -4,-188 170.083,-188 170.083,4 -4,4"/>
<!-- Node0 -->
<g id="node1" class="node">
<title>Node0</title>
<polygon fill="#bfbfbf" stroke="#000000" points="0,-.5 0,-18.5 166.083,-18.5 166.083,-.5 0,-.5"/>
<text text-anchor="middle" x="83.0415" y="-6.5" font-family="FreeSans.ttf" font-size="10.00" fill="#000000">muq::Modeling::DiagonalOperator</text>
</g>
<!-- Node1 -->
<g id="node2" class="node">
<title>Node1</title>
<g id="a_node2"><a xlink:href="classmuq_1_1Modeling_1_1LinearOperator.html" target="_top" xlink:title="Generic linear operator base class. ">
<polygon fill="#ffffff" stroke="#000000" points="5.8374,-55.5 5.8374,-73.5 160.2456,-73.5 160.2456,-55.5 5.8374,-55.5"/>
<text text-anchor="middle" x="83.0415" y="-61.5" font-family="FreeSans.ttf" font-size="10.00" fill="#000000">muq::Modeling::LinearOperator</text>
</a>
</g>
</g>
<!-- Node1&#45;&gt;Node0 -->
<g id="edge1" class="edge">
<title>Node1&#45;&gt;Node0</title>
<path fill="none" stroke="#191970" d="M83.0415,-45.383C83.0415,-36.3738 83.0415,-26.0373 83.0415,-18.7795"/>
<polygon fill="#191970" stroke="#191970" points="79.5416,-45.4178 83.0415,-55.4179 86.5416,-45.4179 79.5416,-45.4178"/>
</g>
<!-- Node2 -->
<g id="node3" class="node">
<title>Node2</title>
<g id="a_node3"><a xlink:href="classmuq_1_1Modeling_1_1ModPiece.html" target="_top" xlink:title="Provides an abstract interface for defining vector&#45;valued model components. ">
<polygon fill="#ffffff" stroke="#000000" points="17.2339,-110.5 17.2339,-128.5 148.8491,-128.5 148.8491,-110.5 17.2339,-110.5"/>
<text text-anchor="middle" x="83.0415" y="-116.5" font-family="FreeSans.ttf" font-size="10.00" fill="#000000">muq::Modeling::ModPiece</text>
</a>
</g>
</g>
<!-- Node2&#45;&gt;Node1 -->
<g id="edge2" class="edge">
<title>Node2&#45;&gt;Node1</title>
<path fill="none" stroke="#191970" d="M83.0415,-100.383C83.0415,-91.3738 83.0415,-81.0373 83.0415,-73.7795"/>
<polygon fill="#191970" stroke="#191970" points="79.5416,-100.4178 83.0415,-110.4179 86.5416,-100.4179 79.5416,-100.4178"/>
</g>
<!-- Node3 -->
<g id="node4" class="node">
<title>Node3</title>
<g id="a_node4"><a xlink:href="classmuq_1_1Modeling_1_1WorkPiece.html" target="_top" xlink:title="Base class for MUQ&#39;s modelling envronment. ">
<polygon fill="#ffffff" stroke="#000000" points="15.3833,-165.5 15.3833,-183.5 150.6997,-183.5 150.6997,-165.5 15.3833,-165.5"/>
<text text-anchor="middle" x="83.0415" y="-171.5" font-family="FreeSans.ttf" font-size="10.00" fill="#000000">muq::Modeling::WorkPiece</text>
</a>
</g>
</g>
<!-- Node3&#45;&gt;Node2 -->
<g id="edge3" class="edge">
<title>Node3&#45;&gt;Node2</title>
<path fill="none" stroke="#191970" d="M83.0415,-155.383C83.0415,-146.3738 83.0415,-136.0373 83.0415,-128.7795"/>
<polygon fill="#191970" stroke="#191970" points="79.5416,-155.4178 83.0415,-165.4179 86.5416,-155.4179 79.5416,-155.4178"/>
</g>
</g>
</svg>
