<?xml version="1.0" encoding="UTF-8" standalone="no"?>
<!DOCTYPE svg PUBLIC "-//W3C//DTD SVG 1.1//EN"
 "http://www.w3.org/Graphics/SVG/1.1/DTD/svg11.dtd">
<!-- Generated by graphviz version 2.40.1 (20161225.0304)
 -->
<!-- Title: muq::Approximation::AdaptiveSmolyakQuadrature Pages: 1 -->
<svg width="157pt" height="112pt"
 viewBox="0.00 0.00 157.40 112.00" xmlns="http://www.w3.org/2000/svg" xmlns:xlink="http://www.w3.org/1999/xlink">
<g id="graph0" class="graph" transform="scale(1 1) rotate(0) translate(4 108)">
<title>muq::Approximation::AdaptiveSmolyakQuadrature</title>
<polygon fill="#ffffff" stroke="transparent" points="-4,4 -4,-108 153.4033,-108 153.4033,4 -4,4"/>
<!-- Node0 -->
<g id="node1" class="node">
<title>Node0</title>
<polygon fill="#bfbfbf" stroke="#000000" points="0,-.5 0,-28.5 149.4033,-28.5 149.4033,-.5 0,-.5"/>
<text text-anchor="start" x="8" y="-16.5" font-family="FreeSans.ttf" font-size="10.00" fill="#000000">muq::Approximation</text>
<text text-anchor="middle" x="74.7017" y="-6.5" font-family="FreeSans.ttf" font-size="10.00" fill="#000000">::AdaptiveSmolyakQuadrature</text>
</g>
<!-- Node1 -->
<g id="node2" class="node">
<title>Node1</title>
<polygon fill="#ffffff" stroke="#bfbfbf" points="20.7153,-65.5 20.7153,-103.5 128.688,-103.5 128.688,-65.5 20.7153,-65.5"/>
<text text-anchor="start" x="28.7153" y="-91.5" font-family="FreeSans.ttf" font-size="10.00" fill="#000000">muq::Approximation</text>
<text text-anchor="start" x="28.7153" y="-81.5" font-family="FreeSans.ttf" font-size="10.00" fill="#000000">::SmolyakEstimator&lt;</text>
<text text-anchor="middle" x="74.7017" y="-71.5" font-family="FreeSans.ttf" font-size="10.00" fill="#000000"> Eigen::VectorXd &gt;</text>
</g>
<!-- Node1&#45;&gt;Node0 -->
<g id="edge1" class="edge">
<title>Node1&#45;&gt;Node0</title>
<path fill="none" stroke="#191970" d="M74.7017,-55.1346C74.7017,-46.0837 74.7017,-36.5165 74.7017,-28.9404"/>
<polygon fill="#191970" stroke="#191970" points="71.2018,-55.3722 74.7017,-65.3722 78.2018,-55.3722 71.2018,-55.3722"/>
</g>
</g>
</svg>
