<?xml version="1.0" encoding="UTF-8" standalone="no"?>
<!DOCTYPE svg PUBLIC "-//W3C//DTD SVG 1.1//EN"
 "http://www.w3.org/Graphics/SVG/1.1/DTD/svg11.dtd">
<!-- Generated by graphviz version 2.40.1 (20161225.0304)
 -->
<!-- Title: muq::Approximation::SumKernel Pages: 1 -->
<svg width="168pt" height="177pt"
 viewBox="0.00 0.00 168.23 177.00" xmlns="http://www.w3.org/2000/svg" xmlns:xlink="http://www.w3.org/1999/xlink">
<g id="graph0" class="graph" transform="scale(1 1) rotate(0) translate(4 173)">
<title>muq::Approximation::SumKernel</title>
<polygon fill="#ffffff" stroke="transparent" points="-4,4 -4,-173 164.2334,-173 164.2334,4 -4,4"/>
<!-- Node0 -->
<g id="node1" class="node">
<title>Node0</title>
<polygon fill="#bfbfbf" stroke="#000000" points="27.6514,-.5 27.6514,-28.5 132.582,-28.5 132.582,-.5 27.6514,-.5"/>
<text text-anchor="start" x="35.6514" y="-16.5" font-family="FreeSans.ttf" font-size="10.00" fill="#000000">muq::Approximation</text>
<text text-anchor="middle" x="80.1167" y="-6.5" font-family="FreeSans.ttf" font-size="10.00" fill="#000000">::SumKernel</text>
</g>
<!-- Node1 -->
<g id="node2" class="node">
<title>Node1</title>
<g id="a_node2"><a xlink:href="classmuq_1_1Approximation_1_1KernelBase.html" target="_top" xlink:title="Base class for all covariance kernels. ">
<polygon fill="#ffffff" stroke="#000000" points="27.6514,-65.5 27.6514,-93.5 132.582,-93.5 132.582,-65.5 27.6514,-65.5"/>
<text text-anchor="start" x="35.6514" y="-81.5" font-family="FreeSans.ttf" font-size="10.00" fill="#000000">muq::Approximation</text>
<text text-anchor="middle" x="80.1167" y="-71.5" font-family="FreeSans.ttf" font-size="10.00" fill="#000000">::KernelBase</text>
</a>
</g>
</g>
<!-- Node1&#45;&gt;Node0 -->
<g id="edge1" class="edge">
<title>Node1&#45;&gt;Node0</title>
<path fill="none" stroke="#191970" d="M80.1167,-55.1081C80.1167,-46.1539 80.1167,-36.3227 80.1167,-28.5765"/>
<polygon fill="#191970" stroke="#191970" points="76.6168,-55.3959 80.1167,-65.396 83.6168,-55.396 76.6168,-55.3959"/>
</g>
<!-- Node2 -->
<g id="node3" class="node">
<title>Node2</title>
<polygon fill="#ffffff" stroke="#bfbfbf" points="0,-130.5 0,-168.5 160.2334,-168.5 160.2334,-130.5 0,-130.5"/>
<text text-anchor="start" x="8" y="-156.5" font-family="FreeSans.ttf" font-size="10.00" fill="#000000">std::enable_shared</text>
<text text-anchor="start" x="8" y="-146.5" font-family="FreeSans.ttf" font-size="10.00" fill="#000000">_from_this&lt; muq::Approximation</text>
<text text-anchor="middle" x="80.1167" y="-136.5" font-family="FreeSans.ttf" font-size="10.00" fill="#000000">::KernelBase &gt;</text>
</g>
<!-- Node2&#45;&gt;Node1 -->
<g id="edge2" class="edge">
<title>Node2&#45;&gt;Node1</title>
<path fill="none" stroke="#191970" d="M80.1167,-120.1346C80.1167,-111.0837 80.1167,-101.5165 80.1167,-93.9404"/>
<polygon fill="#191970" stroke="#191970" points="76.6168,-120.3722 80.1167,-130.3722 83.6168,-120.3722 76.6168,-120.3722"/>
</g>
</g>
</svg>
