<?xml version="1.0" encoding="UTF-8" standalone="no"?>
<!DOCTYPE svg PUBLIC "-//W3C//DTD SVG 1.1//EN"
 "http://www.w3.org/Graphics/SVG/1.1/DTD/svg11.dtd">
<!-- Generated by graphviz version 2.40.1 (20161225.0304)
 -->
<!-- Title: muq::Modeling::UniformBox Pages: 1 -->
<svg width="147pt" height="147pt"
 viewBox="0.00 0.00 147.38 147.00" xmlns="http://www.w3.org/2000/svg" xmlns:xlink="http://www.w3.org/1999/xlink">
<g id="graph0" class="graph" transform="scale(1 1) rotate(0) translate(4 143)">
<title>muq::Modeling::UniformBox</title>
<polygon fill="#ffffff" stroke="transparent" points="-4,4 -4,-143 143.3838,-143 143.3838,4 -4,4"/>
<!-- Node3 -->
<g id="node1" class="node">
<title>Node3</title>
<polygon fill="#bfbfbf" stroke="#000000" points="0,-.5 0,-18.5 139.3838,-18.5 139.3838,-.5 0,-.5"/>
<text text-anchor="middle" x="69.6919" y="-6.5" font-family="FreeSans.ttf" font-size="10.00" fill="#000000">muq::Modeling::UniformBox</text>
</g>
<!-- Node4 -->
<g id="node2" class="node">
<title>Node4</title>
<g id="a_node2"><a xlink:href="classmuq_1_1Modeling_1_1Distribution.html" target="_top" xlink:title="muq::Modeling::Distribution">
<polygon fill="#ffffff" stroke="#000000" points="1.1084,-55.5 1.1084,-73.5 138.2754,-73.5 138.2754,-55.5 1.1084,-55.5"/>
<text text-anchor="middle" x="69.6919" y="-61.5" font-family="FreeSans.ttf" font-size="10.00" fill="#000000">muq::Modeling::Distribution</text>
</a>
</g>
</g>
<!-- Node4&#45;&gt;Node3 -->
<g id="edge1" class="edge">
<title>Node4&#45;&gt;Node3</title>
<path fill="none" stroke="#191970" d="M69.6919,-45.383C69.6919,-36.3738 69.6919,-26.0373 69.6919,-18.7795"/>
<polygon fill="#191970" stroke="#191970" points="66.192,-45.4178 69.6919,-55.4179 73.192,-45.4179 66.192,-45.4178"/>
</g>
<!-- Node5 -->
<g id="node3" class="node">
<title>Node5</title>
<polygon fill="#ffffff" stroke="#bfbfbf" points="4.7217,-110.5 4.7217,-138.5 134.6621,-138.5 134.6621,-110.5 4.7217,-110.5"/>
<text text-anchor="start" x="12.7217" y="-126.5" font-family="FreeSans.ttf" font-size="10.00" fill="#000000">std::enable_shared</text>
<text text-anchor="middle" x="69.6919" y="-116.5" font-family="FreeSans.ttf" font-size="10.00" fill="#000000">_from_this&lt; Distribution &gt;</text>
</g>
<!-- Node5&#45;&gt;Node4 -->
<g id="edge2" class="edge">
<title>Node5&#45;&gt;Node4</title>
<path fill="none" stroke="#191970" d="M69.6919,-100.2151C69.6919,-90.8253 69.6919,-80.6598 69.6919,-73.5842"/>
<polygon fill="#191970" stroke="#191970" points="66.192,-100.2808 69.6919,-110.2808 73.192,-100.2809 66.192,-100.2808"/>
</g>
</g>
</svg>
