<?xml version="1.0" encoding="UTF-8" standalone="no"?>
<!DOCTYPE svg PUBLIC "-//W3C//DTD SVG 1.1//EN"
 "http://www.w3.org/Graphics/SVG/1.1/DTD/svg11.dtd">
<!-- Generated by graphviz version 2.40.1 (20161225.0304)
 -->
<!-- Title: muq::Modeling::ProductOperator Pages: 1 -->
<svg width="169pt" height="192pt"
 viewBox="0.00 0.00 169.07 192.00" xmlns="http://www.w3.org/2000/svg" xmlns:xlink="http://www.w3.org/1999/xlink">
<g id="graph0" class="graph" transform="scale(1 1) rotate(0) translate(4 188)">
<title>muq::Modeling::ProductOperator</title>
<polygon fill="#ffffff" stroke="transparent" points="-4,4 -4,-188 165.0732,-188 165.0732,4 -4,4"/>
<!-- Node0 -->
<g id="node1" class="node">
<title>Node0</title>
<polygon fill="#bfbfbf" stroke="#000000" points="0,-.5 0,-18.5 161.0732,-18.5 161.0732,-.5 0,-.5"/>
<text text-anchor="middle" x="80.5366" y="-6.5" font-family="FreeSans.ttf" font-size="10.00" fill="#000000">muq::Modeling::ProductOperator</text>
</g>
<!-- Node1 -->
<g id="node2" class="node">
<title>Node1</title>
<g id="a_node2"><a xlink:href="classmuq_1_1Modeling_1_1LinearOperator.html" target="_top" xlink:title="Generic linear operator base class. ">
<polygon fill="#ffffff" stroke="#000000" points="3.3325,-55.5 3.3325,-73.5 157.7407,-73.5 157.7407,-55.5 3.3325,-55.5"/>
<text text-anchor="middle" x="80.5366" y="-61.5" font-family="FreeSans.ttf" font-size="10.00" fill="#000000">muq::Modeling::LinearOperator</text>
</a>
</g>
</g>
<!-- Node1&#45;&gt;Node0 -->
<g id="edge1" class="edge">
<title>Node1&#45;&gt;Node0</title>
<path fill="none" stroke="#191970" d="M80.5366,-45.383C80.5366,-36.3738 80.5366,-26.0373 80.5366,-18.7795"/>
<polygon fill="#191970" stroke="#191970" points="77.0367,-45.4178 80.5366,-55.4179 84.0367,-45.4179 77.0367,-45.4178"/>
</g>
<!-- Node2 -->
<g id="node3" class="node">
<title>Node2</title>
<g id="a_node3"><a xlink:href="classmuq_1_1Modeling_1_1ModPiece.html" target="_top" xlink:title="Provides an abstract interface for defining vector&#45;valued model components. ">
<polygon fill="#ffffff" stroke="#000000" points="14.729,-110.5 14.729,-128.5 146.3442,-128.5 146.3442,-110.5 14.729,-110.5"/>
<text text-anchor="middle" x="80.5366" y="-116.5" font-family="FreeSans.ttf" font-size="10.00" fill="#000000">muq::Modeling::ModPiece</text>
</a>
</g>
</g>
<!-- Node2&#45;&gt;Node1 -->
<g id="edge2" class="edge">
<title>Node2&#45;&gt;Node1</title>
<path fill="none" stroke="#191970" d="M80.5366,-100.383C80.5366,-91.3738 80.5366,-81.0373 80.5366,-73.7795"/>
<polygon fill="#191970" stroke="#191970" points="77.0367,-100.4178 80.5366,-110.4179 84.0367,-100.4179 77.0367,-100.4178"/>
</g>
<!-- Node3 -->
<g id="node4" class="node">
<title>Node3</title>
<g id="a_node4"><a xlink:href="classmuq_1_1Modeling_1_1WorkPiece.html" target="_top" xlink:title="Base class for MUQ&#39;s modelling envronment. ">
<polygon fill="#ffffff" stroke="#000000" points="12.8784,-165.5 12.8784,-183.5 148.1948,-183.5 148.1948,-165.5 12.8784,-165.5"/>
<text text-anchor="middle" x="80.5366" y="-171.5" font-family="FreeSans.ttf" font-size="10.00" fill="#000000">muq::Modeling::WorkPiece</text>
</a>
</g>
</g>
<!-- Node3&#45;&gt;Node2 -->
<g id="edge3" class="edge">
<title>Node3&#45;&gt;Node2</title>
<path fill="none" stroke="#191970" d="M80.5366,-155.383C80.5366,-146.3738 80.5366,-136.0373 80.5366,-128.7795"/>
<polygon fill="#191970" stroke="#191970" points="77.0367,-155.4178 80.5366,-165.4179 84.0367,-155.4179 77.0367,-155.4178"/>
</g>
</g>
</svg>
