<?xml version="1.0" encoding="UTF-8" standalone="no"?>
<!DOCTYPE svg PUBLIC "-//W3C//DTD SVG 1.1//EN"
 "http://www.w3.org/Graphics/SVG/1.1/DTD/svg11.dtd">
<!-- Generated by graphviz version 2.40.1 (20161225.0304)
 -->
<!-- Title: muq::SamplingAlgorithms::CSProjector Pages: 1 -->
<svg width="162pt" height="202pt"
 viewBox="0.00 0.00 162.41 202.00" xmlns="http://www.w3.org/2000/svg" xmlns:xlink="http://www.w3.org/1999/xlink">
<g id="graph0" class="graph" transform="scale(1 1) rotate(0) translate(4 198)">
<title>muq::SamplingAlgorithms::CSProjector</title>
<polygon fill="#ffffff" stroke="transparent" points="-4,4 -4,-198 158.4082,-198 158.4082,4 -4,4"/>
<!-- Node0 -->
<g id="node1" class="node">
<title>Node0</title>
<polygon fill="#bfbfbf" stroke="#000000" points="12.2363,-.5 12.2363,-28.5 142.1719,-28.5 142.1719,-.5 12.2363,-.5"/>
<text text-anchor="start" x="20.2363" y="-16.5" font-family="FreeSans.ttf" font-size="10.00" fill="#000000">muq::SamplingAlgorithms</text>
<text text-anchor="middle" x="77.2041" y="-6.5" font-family="FreeSans.ttf" font-size="10.00" fill="#000000">::CSProjector</text>
</g>
<!-- Node1 -->
<g id="node2" class="node">
<title>Node1</title>
<g id="a_node2"><a xlink:href="classmuq_1_1Modeling_1_1LinearOperator.html" target="_top" xlink:title="Generic linear operator base class. ">
<polygon fill="#ffffff" stroke="#000000" points="0,-65.5 0,-83.5 154.4082,-83.5 154.4082,-65.5 0,-65.5"/>
<text text-anchor="middle" x="77.2041" y="-71.5" font-family="FreeSans.ttf" font-size="10.00" fill="#000000">muq::Modeling::LinearOperator</text>
</a>
</g>
</g>
<!-- Node1&#45;&gt;Node0 -->
<g id="edge1" class="edge">
<title>Node1&#45;&gt;Node0</title>
<path fill="none" stroke="#191970" d="M77.2041,-55.1865C77.2041,-46.6283 77.2041,-36.7354 77.2041,-28.8477"/>
<polygon fill="#191970" stroke="#191970" points="73.7042,-55.3873 77.2041,-65.3873 80.7042,-55.3873 73.7042,-55.3873"/>
</g>
<!-- Node2 -->
<g id="node3" class="node">
<title>Node2</title>
<g id="a_node3"><a xlink:href="classmuq_1_1Modeling_1_1ModPiece.html" target="_top" xlink:title="Provides an abstract interface for defining vector&#45;valued model components. ">
<polygon fill="#ffffff" stroke="#000000" points="11.3965,-120.5 11.3965,-138.5 143.0117,-138.5 143.0117,-120.5 11.3965,-120.5"/>
<text text-anchor="middle" x="77.2041" y="-126.5" font-family="FreeSans.ttf" font-size="10.00" fill="#000000">muq::Modeling::ModPiece</text>
</a>
</g>
</g>
<!-- Node2&#45;&gt;Node1 -->
<g id="edge2" class="edge">
<title>Node2&#45;&gt;Node1</title>
<path fill="none" stroke="#191970" d="M77.2041,-110.383C77.2041,-101.3738 77.2041,-91.0373 77.2041,-83.7795"/>
<polygon fill="#191970" stroke="#191970" points="73.7042,-110.4178 77.2041,-120.4179 80.7042,-110.4179 73.7042,-110.4178"/>
</g>
<!-- Node3 -->
<g id="node4" class="node">
<title>Node3</title>
<g id="a_node4"><a xlink:href="classmuq_1_1Modeling_1_1WorkPiece.html" target="_top" xlink:title="Base class for MUQ&#39;s modelling envronment. ">
<polygon fill="#ffffff" stroke="#000000" points="9.5459,-175.5 9.5459,-193.5 144.8623,-193.5 144.8623,-175.5 9.5459,-175.5"/>
<text text-anchor="middle" x="77.2041" y="-181.5" font-family="FreeSans.ttf" font-size="10.00" fill="#000000">muq::Modeling::WorkPiece</text>
</a>
</g>
</g>
<!-- Node3&#45;&gt;Node2 -->
<g id="edge3" class="edge">
<title>Node3&#45;&gt;Node2</title>
<path fill="none" stroke="#191970" d="M77.2041,-165.383C77.2041,-156.3738 77.2041,-146.0373 77.2041,-138.7795"/>
<polygon fill="#191970" stroke="#191970" points="73.7042,-165.4178 77.2041,-175.4179 80.7042,-165.4179 73.7042,-165.4178"/>
</g>
</g>
</svg>
