<?xml version="1.0" encoding="UTF-8" standalone="no"?>
<!DOCTYPE svg PUBLIC "-//W3C//DTD SVG 1.1//EN"
 "http://www.w3.org/Graphics/SVG/1.1/DTD/svg11.dtd">
<!-- Generated by graphviz version 2.40.1 (20161225.0304)
 -->
<!-- Title: muq::Approximation::PhysicistHermite Pages: 1 -->
<svg width="1056pt" height="178pt"
 viewBox="0.00 0.00 1055.76 178.00" xmlns="http://www.w3.org/2000/svg" xmlns:xlink="http://www.w3.org/1999/xlink">
<g id="graph0" class="graph" transform="scale(1 1) rotate(0) translate(4 174)">
<title>muq::Approximation::PhysicistHermite</title>
<polygon fill="#ffffff" stroke="transparent" points="-4,4 -4,-174 1051.7568,-174 1051.7568,4 -4,4"/>
<!-- Node4 -->
<g id="node1" class="node">
<title>Node4</title>
<polygon fill="#bfbfbf" stroke="#000000" points="942.8262,-80.5 942.8262,-108.5 1047.7568,-108.5 1047.7568,-80.5 942.8262,-80.5"/>
<text text-anchor="start" x="950.8262" y="-96.5" font-family="FreeSans.ttf" font-size="10.00" fill="#000000">muq::Approximation</text>
<text text-anchor="middle" x="995.2915" y="-86.5" font-family="FreeSans.ttf" font-size="10.00" fill="#000000">::PhysicistHermite</text>
</g>
<!-- Node5 -->
<g id="node2" class="node">
<title>Node5</title>
<g id="a_node2"><a xlink:href="classmuq_1_1Approximation_1_1OrthogonalPolynomial.html" target="_top" xlink:title="A 1D orthogonal polynomial. ">
<polygon fill="#ffffff" stroke="#000000" points="785.8809,-80.5 785.8809,-108.5 905.8262,-108.5 905.8262,-80.5 785.8809,-80.5"/>
<text text-anchor="start" x="793.8809" y="-96.5" font-family="FreeSans.ttf" font-size="10.00" fill="#000000">muq::Approximation</text>
<text text-anchor="middle" x="845.8535" y="-86.5" font-family="FreeSans.ttf" font-size="10.00" fill="#000000">::OrthogonalPolynomial</text>
</a>
</g>
</g>
<!-- Node5&#45;&gt;Node4 -->
<g id="edge1" class="edge">
<title>Node5&#45;&gt;Node4</title>
<path fill="none" stroke="#191970" d="M916.4132,-94.5C925.1637,-94.5 933.9904,-94.5 942.4114,-94.5"/>
<polygon fill="#191970" stroke="#191970" points="916.205,-91.0001 906.2049,-94.5 916.2049,-98.0001 916.205,-91.0001"/>
</g>
<!-- Node6 -->
<g id="node3" class="node">
<title>Node6</title>
<g id="a_node3"><a xlink:href="classmuq_1_1Approximation_1_1IndexedScalarBasis.html" target="_top" xlink:title="muq::Approximation\l::IndexedScalarBasis">
<polygon fill="#ffffff" stroke="#000000" points="638.9404,-80.5 638.9404,-108.5 748.8809,-108.5 748.8809,-80.5 638.9404,-80.5"/>
<text text-anchor="start" x="646.9404" y="-96.5" font-family="FreeSans.ttf" font-size="10.00" fill="#000000">muq::Approximation</text>
<text text-anchor="middle" x="693.9106" y="-86.5" font-family="FreeSans.ttf" font-size="10.00" fill="#000000">::IndexedScalarBasis</text>
</a>
</g>
</g>
<!-- Node6&#45;&gt;Node5 -->
<g id="edge2" class="edge">
<title>Node6&#45;&gt;Node5</title>
<path fill="none" stroke="#191970" d="M759.3632,-94.5C768.1235,-94.5 777.0741,-94.5 785.7369,-94.5"/>
<polygon fill="#191970" stroke="#191970" points="759.1954,-91.0001 749.1953,-94.5 759.1953,-98.0001 759.1954,-91.0001"/>
</g>
<!-- Node7 -->
<g id="node4" class="node">
<title>Node7</title>
<g id="a_node4"><a xlink:href="classmuq_1_1Modeling_1_1WorkPiece.html" target="_top" xlink:title="Base class for MUQ&#39;s modelling envronment. ">
<polygon fill="#ffffff" stroke="#000000" points="466.624,-85.5 466.624,-103.5 601.9404,-103.5 601.9404,-85.5 466.624,-85.5"/>
<text text-anchor="middle" x="534.2822" y="-91.5" font-family="FreeSans.ttf" font-size="10.00" fill="#000000">muq::Modeling::WorkPiece</text>
</a>
</g>
</g>
<!-- Node7&#45;&gt;Node6 -->
<g id="edge3" class="edge">
<title>Node7&#45;&gt;Node6</title>
<path fill="none" stroke="#191970" d="M612.0796,-94.5C621.0601,-94.5 630.0747,-94.5 638.6682,-94.5"/>
<polygon fill="#191970" stroke="#191970" points="611.9791,-91.0001 601.979,-94.5 611.979,-98.0001 611.9791,-91.0001"/>
</g>
<!-- Node8 -->
<g id="node5" class="node">
<title>Node8</title>
<polygon fill="#ffffff" stroke="#bfbfbf" points="269.7998,-141.5 269.7998,-169.5 373.3584,-169.5 373.3584,-141.5 269.7998,-141.5"/>
<text text-anchor="start" x="277.7998" y="-157.5" font-family="FreeSans.ttf" font-size="10.00" fill="#000000">std::map&lt; unsigned</text>
<text text-anchor="middle" x="321.5791" y="-147.5" font-family="FreeSans.ttf" font-size="10.00" fill="#000000"> int, int &gt;</text>
</g>
<!-- Node8&#45;&gt;Node7 -->
<g id="edge4" class="edge">
<title>Node8&#45;&gt;Node7</title>
<path fill="none" stroke="#9a32cd" stroke-dasharray="5,2" d="M383.6049,-143.0752C404.4243,-138.4464 427.6709,-132.7749 448.624,-126.5 470.6753,-119.8963 495.2271,-110.5072 512.3725,-103.6067"/>
<polygon fill="#9a32cd" stroke="#9a32cd" points="382.6222,-139.7073 373.6001,-145.2619 384.1169,-146.5459 382.6222,-139.7073"/>
<text text-anchor="middle" x="419.9912" y="-142.5" font-family="FreeSans.ttf" font-size="10.00" fill="#000000"> inputSizes</text>
</g>
<!-- Node9 -->
<g id="node6" class="node">
<title>Node9</title>
<g id="a_node6"><a xlink:title="STL class. ">
<polygon fill="#ffffff" stroke="#bfbfbf" points="131.0957,-77.5 131.0957,-95.5 190.4453,-95.5 190.4453,-77.5 131.0957,-77.5"/>
<text text-anchor="middle" x="160.7705" y="-83.5" font-family="FreeSans.ttf" font-size="10.00" fill="#000000">std::string</text>
</a>
</g>
</g>
<!-- Node9&#45;&gt;Node7 -->
<g id="edge5" class="edge">
<title>Node9&#45;&gt;Node7</title>
<path fill="none" stroke="#9a32cd" stroke-dasharray="5,2" d="M200.6507,-90.8798C203.2869,-91.1084 205.9031,-91.3182 208.4453,-91.5 314.9648,-99.1156 341.8617,-100.9914 448.624,-98.5 454.4285,-98.3645 460.4525,-98.1775 466.4943,-97.9578"/>
<polygon fill="#9a32cd" stroke="#9a32cd" points="200.7825,-87.3769 190.4986,-89.925 200.1269,-94.3461 200.7825,-87.3769"/>
<text text-anchor="middle" x="321.5791" y="-101.5" font-family="FreeSans.ttf" font-size="10.00" fill="#000000"> name</text>
</g>
<!-- Node12 -->
<g id="node9" class="node">
<title>Node12</title>
<polygon fill="#ffffff" stroke="#bfbfbf" points="269.7998,-47.5 269.7998,-75.5 373.3584,-75.5 373.3584,-47.5 269.7998,-47.5"/>
<text text-anchor="start" x="277.7998" y="-63.5" font-family="FreeSans.ttf" font-size="10.00" fill="#000000">std::map&lt; unsigned</text>
<text text-anchor="middle" x="321.5791" y="-53.5" font-family="FreeSans.ttf" font-size="10.00" fill="#000000"> int, std::string &gt;</text>
</g>
<!-- Node9&#45;&gt;Node12 -->
<g id="edge9" class="edge">
<title>Node9&#45;&gt;Node12</title>
<path fill="none" stroke="#9a32cd" stroke-dasharray="5,2" d="M200.7498,-80.2846C221.6025,-77.0428 247.3585,-73.0387 269.7265,-69.5612"/>
<polygon fill="#9a32cd" stroke="#9a32cd" points="199.9841,-76.8616 190.6405,-81.8563 201.0595,-83.7785 199.9841,-76.8616"/>
<text text-anchor="middle" x="230.1226" y="-79.5" font-family="FreeSans.ttf" font-size="10.00" fill="#000000"> elements</text>
</g>
<!-- Node10 -->
<g id="node7" class="node">
<title>Node10</title>
<g id="a_node7"><a xlink:title="STL class. ">
<polygon fill="#ffffff" stroke="#bfbfbf" points="0,-72.5 0,-100.5 94.0957,-100.5 94.0957,-72.5 0,-72.5"/>
<text text-anchor="start" x="8" y="-88.5" font-family="FreeSans.ttf" font-size="10.00" fill="#000000">std::basic_string&lt;</text>
<text text-anchor="middle" x="47.0479" y="-78.5" font-family="FreeSans.ttf" font-size="10.00" fill="#000000"> char &gt;</text>
</a>
</g>
</g>
<!-- Node10&#45;&gt;Node9 -->
<g id="edge6" class="edge">
<title>Node10&#45;&gt;Node9</title>
<path fill="none" stroke="#191970" d="M104.2966,-86.5C113.5577,-86.5 122.8051,-86.5 131.056,-86.5"/>
<polygon fill="#191970" stroke="#191970" points="104.2886,-83.0001 94.2885,-86.5 104.2885,-90.0001 104.2886,-83.0001"/>
</g>
<!-- Node11 -->
<g id="node8" class="node">
<title>Node11</title>
<polygon fill="#ffffff" stroke="#bfbfbf" points="273.9746,-.5 273.9746,-28.5 369.1836,-28.5 369.1836,-.5 273.9746,-.5"/>
<text text-anchor="start" x="281.9746" y="-16.5" font-family="FreeSans.ttf" font-size="10.00" fill="#000000">std::vector&lt; boost</text>
<text text-anchor="middle" x="321.5791" y="-6.5" font-family="FreeSans.ttf" font-size="10.00" fill="#000000">::any &gt;</text>
</g>
<!-- Node11&#45;&gt;Node7 -->
<g id="edge7" class="edge">
<title>Node11&#45;&gt;Node7</title>
<path fill="none" stroke="#9a32cd" stroke-dasharray="5,2" d="M379.2234,-31.5605C401.1473,-38.4506 426.2292,-46.8214 448.624,-55.5 472.2398,-64.6518 498.66,-77.0185 515.8313,-85.352"/>
<polygon fill="#9a32cd" stroke="#9a32cd" points="379.9818,-28.131 369.3935,-28.5032 377.9028,-34.8152 379.9818,-28.131"/>
<text text-anchor="middle" x="419.9912" y="-57.5" font-family="FreeSans.ttf" font-size="10.00" fill="#000000"> outputs</text>
</g>
<!-- Node12&#45;&gt;Node7 -->
<g id="edge8" class="edge">
<title>Node12&#45;&gt;Node7</title>
<path fill="none" stroke="#9a32cd" stroke-dasharray="5,2" d="M383.5452,-69.14C404.2704,-71.8687 427.4751,-75.1122 448.624,-78.5 461.4707,-80.5579 475.3529,-83.0388 488.125,-85.4263"/>
<polygon fill="#9a32cd" stroke="#9a32cd" points="383.9584,-65.6643 373.5901,-67.8434 383.0543,-72.6057 383.9584,-65.6643"/>
<text text-anchor="middle" x="419.9912" y="-90.5" font-family="FreeSans.ttf" font-size="10.00" fill="#000000"> outputTypes</text>
<text text-anchor="middle" x="419.9912" y="-80.5" font-family="FreeSans.ttf" font-size="10.00" fill="#000000">inputTypes</text>
</g>
</g>
</svg>
