<?xml version="1.0" encoding="UTF-8" standalone="no"?>
<!DOCTYPE svg PUBLIC "-//W3C//DTD SVG 1.1//EN"
 "http://www.w3.org/Graphics/SVG/1.1/DTD/svg11.dtd">
<!-- Generated by graphviz version 2.40.1 (20161225.0304)
 -->
<!-- Title: muq::Approximation::GaussianProcess Pages: 1 -->
<svg width="151pt" height="122pt"
 viewBox="0.00 0.00 150.73 122.00" xmlns="http://www.w3.org/2000/svg" xmlns:xlink="http://www.w3.org/1999/xlink">
<g id="graph0" class="graph" transform="scale(1 1) rotate(0) translate(4 118)">
<title>muq::Approximation::GaussianProcess</title>
<polygon fill="#ffffff" stroke="transparent" points="-4,4 -4,-118 146.7334,-118 146.7334,4 -4,4"/>
<!-- Node2 -->
<g id="node1" class="node">
<title>Node2</title>
<polygon fill="#bfbfbf" stroke="#000000" points="18.9014,-.5 18.9014,-28.5 123.832,-28.5 123.832,-.5 18.9014,-.5"/>
<text text-anchor="start" x="26.9014" y="-16.5" font-family="FreeSans.ttf" font-size="10.00" fill="#000000">muq::Approximation</text>
<text text-anchor="middle" x="71.3667" y="-6.5" font-family="FreeSans.ttf" font-size="10.00" fill="#000000">::GaussianProcess</text>
</g>
<!-- Node3 -->
<g id="node2" class="node">
<title>Node3</title>
<polygon fill="#ffffff" stroke="#bfbfbf" points="0,-75.5 0,-113.5 142.7334,-113.5 142.7334,-75.5 0,-75.5"/>
<text text-anchor="start" x="8" y="-101.5" font-family="FreeSans.ttf" font-size="10.00" fill="#000000">std::vector&lt; std::shared</text>
<text text-anchor="start" x="8" y="-91.5" font-family="FreeSans.ttf" font-size="10.00" fill="#000000">_ptr&lt; muq::Approximation</text>
<text text-anchor="middle" x="71.3667" y="-81.5" font-family="FreeSans.ttf" font-size="10.00" fill="#000000">::ObservationInformation &gt; &gt;</text>
</g>
<!-- Node3&#45;&gt;Node2 -->
<g id="edge1" class="edge">
<title>Node3&#45;&gt;Node2</title>
<path fill="none" stroke="#9a32cd" stroke-dasharray="5,2" d="M71.3667,-64.7707C71.3667,-52.4196 71.3667,-38.6672 71.3667,-28.6728"/>
<polygon fill="#9a32cd" stroke="#9a32cd" points="67.8668,-65.1342 71.3667,-75.1342 74.8668,-65.1343 67.8668,-65.1342"/>
<text text-anchor="middle" x="101.1055" y="-49" font-family="FreeSans.ttf" font-size="10.00" fill="#000000"> observations</text>
</g>
</g>
</svg>
