<?xml version="1.0" encoding="UTF-8" standalone="no"?>
<!DOCTYPE svg PUBLIC "-//W3C//DTD SVG 1.1//EN"
 "http://www.w3.org/Graphics/SVG/1.1/DTD/svg11.dtd">
<!-- Generated by graphviz version 2.40.1 (20161225.0304)
 -->
<!-- Title: muq::Modeling::ODE Pages: 1 -->
<svg width="1105pt" height="304pt"
 viewBox="0.00 0.00 1105.44 304.33" xmlns="http://www.w3.org/2000/svg" xmlns:xlink="http://www.w3.org/1999/xlink">
<g id="graph0" class="graph" transform="scale(1 1) rotate(0) translate(4 300.3271)">
<title>muq::Modeling::ODE</title>
<polygon fill="#ffffff" stroke="transparent" points="-4,4 -4,-300.3271 1101.4365,-300.3271 1101.4365,4 -4,4"/>
<!-- Node3 -->
<g id="node1" class="node">
<title>Node3</title>
<polygon fill="#bfbfbf" stroke="#000000" points="988.6191,-218.5 988.6191,-236.5 1097.4365,-236.5 1097.4365,-218.5 988.6191,-218.5"/>
<text text-anchor="middle" x="1043.0278" y="-224.5" font-family="FreeSans.ttf" font-size="10.00" fill="#000000">muq::Modeling::ODE</text>
</g>
<!-- Node4 -->
<g id="node2" class="node">
<title>Node4</title>
<g id="a_node2"><a xlink:href="classmuq_1_1Modeling_1_1ModPiece.html" target="_top" xlink:title="Provides an abstract interface for defining vector&#45;valued model components. ">
<polygon fill="#ffffff" stroke="#000000" points="820.0039,-180.5 820.0039,-198.5 951.6191,-198.5 951.6191,-180.5 820.0039,-180.5"/>
<text text-anchor="middle" x="885.8115" y="-186.5" font-family="FreeSans.ttf" font-size="10.00" fill="#000000">muq::Modeling::ModPiece</text>
</a>
</g>
</g>
<!-- Node4&#45;&gt;Node3 -->
<g id="edge1" class="edge">
<title>Node4&#45;&gt;Node3</title>
<path fill="none" stroke="#191970" d="M933.0809,-200.9252C956.3552,-206.5508 984.0124,-213.2357 1005.7651,-218.4934"/>
<polygon fill="#191970" stroke="#191970" points="933.612,-197.4529 923.0696,-198.5055 931.9674,-204.257 933.612,-197.4529"/>
</g>
<!-- Node5 -->
<g id="node3" class="node">
<title>Node5</title>
<g id="a_node3"><a xlink:href="classmuq_1_1Modeling_1_1WorkPiece.html" target="_top" xlink:title="Base class for MUQ&#39;s modelling envronment. ">
<polygon fill="#ffffff" stroke="#000000" points="536.5254,-136.5 536.5254,-154.5 671.8418,-154.5 671.8418,-136.5 536.5254,-136.5"/>
<text text-anchor="middle" x="604.1836" y="-142.5" font-family="FreeSans.ttf" font-size="10.00" fill="#000000">muq::Modeling::WorkPiece</text>
</a>
</g>
</g>
<!-- Node5&#45;&gt;Node4 -->
<g id="edge2" class="edge">
<title>Node5&#45;&gt;Node4</title>
<path fill="none" stroke="#191970" d="M671.7633,-156.0583C719.353,-163.4934 782.4059,-173.3445 827.7342,-180.4263"/>
<polygon fill="#191970" stroke="#191970" points="672.2752,-152.5959 661.8548,-154.5102 671.1946,-159.512 672.2752,-152.5959"/>
</g>
<!-- Node6 -->
<g id="node4" class="node">
<title>Node6</title>
<polygon fill="#ffffff" stroke="#bfbfbf" points="269.7998,-131.5 269.7998,-159.5 373.3584,-159.5 373.3584,-131.5 269.7998,-131.5"/>
<text text-anchor="start" x="277.7998" y="-147.5" font-family="FreeSans.ttf" font-size="10.00" fill="#000000">std::map&lt; unsigned</text>
<text text-anchor="middle" x="321.5791" y="-137.5" font-family="FreeSans.ttf" font-size="10.00" fill="#000000"> int, int &gt;</text>
</g>
<!-- Node6&#45;&gt;Node5 -->
<g id="edge3" class="edge">
<title>Node6&#45;&gt;Node5</title>
<path fill="none" stroke="#9a32cd" stroke-dasharray="5,2" d="M383.6645,-145.5C428.8381,-145.5 489.9697,-145.5 536.4113,-145.5"/>
<polygon fill="#9a32cd" stroke="#9a32cd" points="383.4132,-142.0001 373.4131,-145.5 383.4131,-149.0001 383.4132,-142.0001"/>
<text text-anchor="middle" x="454.9419" y="-147.5" font-family="FreeSans.ttf" font-size="10.00" fill="#000000"> inputSizes</text>
</g>
<!-- Node7 -->
<g id="node5" class="node">
<title>Node7</title>
<g id="a_node5"><a xlink:title="STL class. ">
<polygon fill="#ffffff" stroke="#bfbfbf" points="131.0957,-93.5 131.0957,-111.5 190.4453,-111.5 190.4453,-93.5 131.0957,-93.5"/>
<text text-anchor="middle" x="160.7705" y="-99.5" font-family="FreeSans.ttf" font-size="10.00" fill="#000000">std::string</text>
</a>
</g>
</g>
<!-- Node7&#45;&gt;Node5 -->
<g id="edge4" class="edge">
<title>Node7&#45;&gt;Node5</title>
<path fill="none" stroke="#9a32cd" stroke-dasharray="5,2" d="M200.7763,-102.9553C243.5709,-103.7314 313.392,-105.8297 373.3584,-111.5 435.6626,-117.3914 506.8374,-128.5555 553.4826,-136.4822"/>
<polygon fill="#9a32cd" stroke="#9a32cd" points="200.8194,-99.4556 190.7626,-102.789 200.7031,-106.4546 200.8194,-99.4556"/>
<text text-anchor="middle" x="321.5791" y="-113.5" font-family="FreeSans.ttf" font-size="10.00" fill="#000000"> name</text>
</g>
<!-- Node10 -->
<g id="node8" class="node">
<title>Node10</title>
<polygon fill="#ffffff" stroke="#bfbfbf" points="269.7998,-37.5 269.7998,-65.5 373.3584,-65.5 373.3584,-37.5 269.7998,-37.5"/>
<text text-anchor="start" x="277.7998" y="-53.5" font-family="FreeSans.ttf" font-size="10.00" fill="#000000">std::map&lt; unsigned</text>
<text text-anchor="middle" x="321.5791" y="-43.5" font-family="FreeSans.ttf" font-size="10.00" fill="#000000"> int, std::string &gt;</text>
</g>
<!-- Node7&#45;&gt;Node10 -->
<g id="edge8" class="edge">
<title>Node7&#45;&gt;Node10</title>
<path fill="none" stroke="#9a32cd" stroke-dasharray="5,2" d="M185.8621,-88.5021C193.0099,-84.8934 200.9058,-81.2549 208.4453,-78.5 227.9807,-71.3619 250.1104,-65.5969 269.5843,-61.2557"/>
<polygon fill="#9a32cd" stroke="#9a32cd" points="183.9113,-85.5731 176.6826,-93.3188 187.1638,-91.7716 183.9113,-85.5731"/>
<text text-anchor="middle" x="230.1226" y="-80.5" font-family="FreeSans.ttf" font-size="10.00" fill="#000000"> elements</text>
</g>
<!-- Node12 -->
<g id="node10" class="node">
<title>Node12</title>
<g id="a_node10"><a xlink:href="structmuq_1_1Modeling_1_1ODE_1_1NonlinearSolverOptions.html" target="_top" xlink:title="muq::Modeling::ODE\l::NonlinearSolverOptions">
<polygon fill="#ffffff" stroke="#000000" points="391.3584,-267.5 391.3584,-295.5 518.5254,-295.5 518.5254,-267.5 391.3584,-267.5"/>
<text text-anchor="start" x="399.3584" y="-283.5" font-family="FreeSans.ttf" font-size="10.00" fill="#000000">muq::Modeling::ODE</text>
<text text-anchor="middle" x="454.9419" y="-273.5" font-family="FreeSans.ttf" font-size="10.00" fill="#000000">::NonlinearSolverOptions</text>
</a>
</g>
</g>
<!-- Node7&#45;&gt;Node12 -->
<g id="edge11" class="edge">
<title>Node7&#45;&gt;Node12</title>
<path fill="none" stroke="#9a32cd" stroke-dasharray="5,2" d="M163.9955,-121.8409C170.6772,-159.4225 187.1998,-240.1528 208.4453,-257.5 259.1521,-298.9028 336.7313,-299.5477 391.2845,-293.2702"/>
<polygon fill="#9a32cd" stroke="#9a32cd" points="167.392,-120.9406 162.2434,-111.6808 160.4938,-122.1302 167.392,-120.9406"/>
<text text-anchor="middle" x="230.1226" y="-282.5" font-family="FreeSans.ttf" font-size="10.00" fill="#000000"> method</text>
</g>
<!-- Node13 -->
<g id="node11" class="node">
<title>Node13</title>
<g id="a_node11"><a xlink:href="structmuq_1_1Modeling_1_1ODE_1_1LinearSolverOptions.html" target="_top" xlink:title="muq::Modeling::ODE\l::LinearSolverOptions">
<polygon fill="#ffffff" stroke="#000000" points="689.8418,-227.5 689.8418,-255.5 802.0039,-255.5 802.0039,-227.5 689.8418,-227.5"/>
<text text-anchor="start" x="697.8418" y="-243.5" font-family="FreeSans.ttf" font-size="10.00" fill="#000000">muq::Modeling::ODE</text>
<text text-anchor="middle" x="745.9229" y="-233.5" font-family="FreeSans.ttf" font-size="10.00" fill="#000000">::LinearSolverOptions</text>
</a>
</g>
</g>
<!-- Node7&#45;&gt;Node13 -->
<g id="edge13" class="edge">
<title>Node7&#45;&gt;Node13</title>
<path fill="none" stroke="#9a32cd" stroke-dasharray="5,2" d="M171.5656,-120.4971C188.6251,-147.0343 224.5735,-195.7544 269.7998,-216.5 343.0613,-250.1055 580.4026,-247.049 689.7804,-243.6627"/>
<polygon fill="#9a32cd" stroke="#9a32cd" points="174.4141,-118.4503 166.153,-111.8168 168.4743,-122.1542 174.4141,-118.4503"/>
<text text-anchor="middle" x="321.5791" y="-239.5" font-family="FreeSans.ttf" font-size="10.00" fill="#000000"> method</text>
</g>
<!-- Node14 -->
<g id="node12" class="node">
<title>Node14</title>
<g id="a_node12"><a xlink:href="structmuq_1_1Modeling_1_1ODE_1_1IntegratorOptions.html" target="_top" xlink:title="muq::Modeling::ODE\l::IntegratorOptions">
<polygon fill="#ffffff" stroke="#000000" points="400.5332,-.5 400.5332,-28.5 509.3506,-28.5 509.3506,-.5 400.5332,-.5"/>
<text text-anchor="start" x="408.5332" y="-16.5" font-family="FreeSans.ttf" font-size="10.00" fill="#000000">muq::Modeling::ODE</text>
<text text-anchor="middle" x="454.9419" y="-6.5" font-family="FreeSans.ttf" font-size="10.00" fill="#000000">::IntegratorOptions</text>
</a>
</g>
</g>
<!-- Node7&#45;&gt;Node14 -->
<g id="edge15" class="edge">
<title>Node7&#45;&gt;Node14</title>
<path fill="none" stroke="#9a32cd" stroke-dasharray="5,2" d="M174.1191,-85.1398C182.9438,-74.5895 195.2806,-61.4691 208.4453,-52.5 265.4319,-13.6752 346.9063,-8.449 400.3501,-10.0441"/>
<polygon fill="#9a32cd" stroke="#9a32cd" points="171.135,-83.2652 167.5914,-93.2499 176.5881,-87.6543 171.135,-83.2652"/>
<text text-anchor="middle" x="230.1226" y="-54.5" font-family="FreeSans.ttf" font-size="10.00" fill="#000000"> method</text>
</g>
<!-- Node8 -->
<g id="node6" class="node">
<title>Node8</title>
<g id="a_node6"><a xlink:title="STL class. ">
<polygon fill="#ffffff" stroke="#bfbfbf" points="0,-88.5 0,-116.5 94.0957,-116.5 94.0957,-88.5 0,-88.5"/>
<text text-anchor="start" x="8" y="-104.5" font-family="FreeSans.ttf" font-size="10.00" fill="#000000">std::basic_string&lt;</text>
<text text-anchor="middle" x="47.0479" y="-94.5" font-family="FreeSans.ttf" font-size="10.00" fill="#000000"> char &gt;</text>
</a>
</g>
</g>
<!-- Node8&#45;&gt;Node7 -->
<g id="edge5" class="edge">
<title>Node8&#45;&gt;Node7</title>
<path fill="none" stroke="#191970" d="M104.2966,-102.5C113.5577,-102.5 122.8051,-102.5 131.056,-102.5"/>
<polygon fill="#191970" stroke="#191970" points="104.2886,-99.0001 94.2885,-102.5 104.2885,-106.0001 104.2886,-99.0001"/>
</g>
<!-- Node9 -->
<g id="node7" class="node">
<title>Node9</title>
<polygon fill="#ffffff" stroke="#bfbfbf" points="273.9746,-178.5 273.9746,-206.5 369.1836,-206.5 369.1836,-178.5 273.9746,-178.5"/>
<text text-anchor="start" x="281.9746" y="-194.5" font-family="FreeSans.ttf" font-size="10.00" fill="#000000">std::vector&lt; boost</text>
<text text-anchor="middle" x="321.5791" y="-184.5" font-family="FreeSans.ttf" font-size="10.00" fill="#000000">::any &gt;</text>
</g>
<!-- Node9&#45;&gt;Node5 -->
<g id="edge6" class="edge">
<title>Node9&#45;&gt;Node5</title>
<path fill="none" stroke="#9a32cd" stroke-dasharray="5,2" d="M379.1801,-182.9204C429.0376,-174.6286 500.6336,-162.7214 549.5906,-154.5794"/>
<polygon fill="#9a32cd" stroke="#9a32cd" points="378.4898,-179.487 369.1995,-184.5802 379.6383,-186.3922 378.4898,-179.487"/>
<text text-anchor="middle" x="454.9419" y="-181.5" font-family="FreeSans.ttf" font-size="10.00" fill="#000000"> outputs</text>
</g>
<!-- Node10&#45;&gt;Node5 -->
<g id="edge7" class="edge">
<title>Node10&#45;&gt;Node5</title>
<path fill="none" stroke="#9a32cd" stroke-dasharray="5,2" d="M383.7003,-46.9468C423.7542,-46.3609 476.0917,-50.0993 518.5254,-68.5 523.1118,-70.4888 572.8136,-116.3672 594.3386,-136.3438"/>
<polygon fill="#9a32cd" stroke="#9a32cd" points="383.4472,-43.4518 373.5343,-47.1913 383.6155,-50.4498 383.4472,-43.4518"/>
<text text-anchor="middle" x="454.9419" y="-80.5" font-family="FreeSans.ttf" font-size="10.00" fill="#000000"> outputTypes</text>
<text text-anchor="middle" x="454.9419" y="-70.5" font-family="FreeSans.ttf" font-size="10.00" fill="#000000">inputTypes</text>
</g>
<!-- Node11 -->
<g id="node9" class="node">
<title>Node11</title>
<polygon fill="#ffffff" stroke="#bfbfbf" points="556.0225,-175.5 556.0225,-203.5 652.3447,-203.5 652.3447,-175.5 556.0225,-175.5"/>
<text text-anchor="start" x="564.0225" y="-191.5" font-family="FreeSans.ttf" font-size="10.00" fill="#000000">std::vector&lt; Eigen</text>
<text text-anchor="middle" x="604.1836" y="-181.5" font-family="FreeSans.ttf" font-size="10.00" fill="#000000">::VectorXd &gt;</text>
</g>
<!-- Node11&#45;&gt;Node4 -->
<g id="edge9" class="edge">
<title>Node11&#45;&gt;Node4</title>
<path fill="none" stroke="#9a32cd" stroke-dasharray="5,2" d="M662.6707,-189.5C708.4894,-189.5 772.2321,-189.5 819.8622,-189.5"/>
<polygon fill="#9a32cd" stroke="#9a32cd" points="662.5972,-186.0001 652.5972,-189.5 662.5971,-193.0001 662.5972,-186.0001"/>
<text text-anchor="middle" x="745.9229" y="-201.5" font-family="FreeSans.ttf" font-size="10.00" fill="#000000"> outputs</text>
<text text-anchor="middle" x="745.9229" y="-191.5" font-family="FreeSans.ttf" font-size="10.00" fill="#000000">cacheInput</text>
</g>
<!-- Node12&#45;&gt;Node3 -->
<g id="edge10" class="edge">
<title>Node12&#45;&gt;Node3</title>
<path fill="none" stroke="#9a32cd" stroke-dasharray="5,2" d="M528.9326,-281.5479C626.4119,-280.5824 802.911,-275.2765 951.6191,-251.5 973.0053,-248.0806 996.6398,-241.8066 1014.518,-236.5309"/>
<polygon fill="#9a32cd" stroke="#9a32cd" points="528.8544,-278.0484 518.8851,-281.6347 528.915,-285.0481 528.8544,-278.0484"/>
<text text-anchor="middle" x="745.9229" y="-278.5" font-family="FreeSans.ttf" font-size="10.00" fill="#000000"> nonlinOpts</text>
</g>
<!-- Node13&#45;&gt;Node3 -->
<g id="edge12" class="edge">
<title>Node13&#45;&gt;Node3</title>
<path fill="none" stroke="#9a32cd" stroke-dasharray="5,2" d="M812.1518,-238.3792C865.2363,-235.8778 938.8184,-232.4105 988.5301,-230.068"/>
<polygon fill="#9a32cd" stroke="#9a32cd" points="811.9795,-234.8833 802.1553,-238.8502 812.309,-241.8756 811.9795,-234.8833"/>
<text text-anchor="middle" x="885.8115" y="-239.5" font-family="FreeSans.ttf" font-size="10.00" fill="#000000"> linOpts</text>
</g>
<!-- Node14&#45;&gt;Node3 -->
<g id="edge14" class="edge">
<title>Node14&#45;&gt;Node3</title>
<path fill="none" stroke="#9a32cd" stroke-dasharray="5,2" d="M519.3601,-29.5046C615.8833,-53.1664 802.617,-103.5411 951.6191,-171.5 981.4209,-185.0924 1013.4501,-206.464 1030.5581,-218.4939"/>
<polygon fill="#9a32cd" stroke="#9a32cd" points="520.0013,-26.0586 509.4571,-27.0933 518.3451,-32.8598 520.0013,-26.0586"/>
<text text-anchor="middle" x="745.9229" y="-114.5" font-family="FreeSans.ttf" font-size="10.00" fill="#000000"> intOpts</text>
</g>
</g>
</svg>
