<?xml version="1.0" encoding="UTF-8" standalone="no"?>
<!DOCTYPE svg PUBLIC "-//W3C//DTD SVG 1.1//EN"
 "http://www.w3.org/Graphics/SVG/1.1/DTD/svg11.dtd">
<!-- Generated by graphviz version 2.40.1 (20161225.0304)
 -->
<!-- Title: muq::Approximation::Quadrature Pages: 1 -->
<svg width="306pt" height="272pt"
 viewBox="0.00 0.00 305.57 272.00" xmlns="http://www.w3.org/2000/svg" xmlns:xlink="http://www.w3.org/1999/xlink">
<g id="graph0" class="graph" transform="scale(1 1) rotate(0) translate(4 268)">
<title>muq::Approximation::Quadrature</title>
<polygon fill="#ffffff" stroke="transparent" points="-4,4 -4,-268 301.5654,-268 301.5654,4 -4,4"/>
<!-- Node0 -->
<g id="node1" class="node">
<title>Node0</title>
<polygon fill="#bfbfbf" stroke="#000000" points="0,-117.5 0,-145.5 104.9307,-145.5 104.9307,-117.5 0,-117.5"/>
<text text-anchor="start" x="8" y="-133.5" font-family="FreeSans.ttf" font-size="10.00" fill="#000000">muq::Approximation</text>
<text text-anchor="middle" x="52.4653" y="-123.5" font-family="FreeSans.ttf" font-size="10.00" fill="#000000">::Quadrature</text>
</g>
<!-- Node1 -->
<g id="node2" class="node">
<title>Node1</title>
<g id="a_node2"><a xlink:href="classmuq_1_1Approximation_1_1ClenshawCurtisQuadrature.html" target="_top" xlink:title="1d Clenshaw Curtis rule ">
<polygon fill="#ffffff" stroke="#000000" points="148.1646,-235.5 148.1646,-263.5 290.3315,-263.5 290.3315,-235.5 148.1646,-235.5"/>
<text text-anchor="start" x="156.1646" y="-251.5" font-family="FreeSans.ttf" font-size="10.00" fill="#000000">muq::Approximation</text>
<text text-anchor="middle" x="219.248" y="-241.5" font-family="FreeSans.ttf" font-size="10.00" fill="#000000">::ClenshawCurtisQuadrature</text>
</a>
</g>
</g>
<!-- Node0&#45;&gt;Node1 -->
<g id="edge1" class="edge">
<title>Node0&#45;&gt;Node1</title>
<path fill="none" stroke="#191970" d="M67.7879,-153.9373C83.6739,-175.5495 110.4284,-207.6592 140.9307,-226.5 146.4766,-229.9257 152.5582,-232.8628 158.8038,-235.3765"/>
<polygon fill="#191970" stroke="#191970" points="70.5291,-151.7539 61.8592,-145.6643 64.8393,-155.8314 70.5291,-151.7539"/>
</g>
<!-- Node2 -->
<g id="node3" class="node">
<title>Node2</title>
<g id="a_node3"><a xlink:href="classmuq_1_1Approximation_1_1ExponentialGrowthQuadrature.html" target="_top" xlink:title="1d Quadrature rule with exponential growth ">
<polygon fill="#ffffff" stroke="#000000" points="140.9307,-188.5 140.9307,-216.5 297.5654,-216.5 297.5654,-188.5 140.9307,-188.5"/>
<text text-anchor="start" x="148.9307" y="-204.5" font-family="FreeSans.ttf" font-size="10.00" fill="#000000">muq::Approximation</text>
<text text-anchor="middle" x="219.248" y="-194.5" font-family="FreeSans.ttf" font-size="10.00" fill="#000000">::ExponentialGrowthQuadrature</text>
</a>
</g>
</g>
<!-- Node0&#45;&gt;Node2 -->
<g id="edge2" class="edge">
<title>Node0&#45;&gt;Node2</title>
<path fill="none" stroke="#191970" d="M83.8127,-150.6198C100.3818,-160.1777 121.3056,-171.4011 140.9307,-179.5 148.7903,-182.7435 157.2678,-185.73 165.6419,-188.4019"/>
<polygon fill="#191970" stroke="#191970" points="85.4894,-147.5457 75.0916,-145.5117 81.9515,-153.5859 85.4894,-147.5457"/>
</g>
<!-- Node3 -->
<g id="node4" class="node">
<title>Node3</title>
<g id="a_node4"><a xlink:href="classmuq_1_1Approximation_1_1FullTensorQuadrature.html" target="_top" xlink:title="Multivariate quadrature rule defined by the tensor product of 1d rules. ">
<polygon fill="#ffffff" stroke="#000000" points="160.1128,-141.5 160.1128,-169.5 278.3833,-169.5 278.3833,-141.5 160.1128,-141.5"/>
<text text-anchor="start" x="168.1128" y="-157.5" font-family="FreeSans.ttf" font-size="10.00" fill="#000000">muq::Approximation</text>
<text text-anchor="middle" x="219.248" y="-147.5" font-family="FreeSans.ttf" font-size="10.00" fill="#000000">::FullTensorQuadrature</text>
</a>
</g>
</g>
<!-- Node0&#45;&gt;Node3 -->
<g id="edge3" class="edge">
<title>Node0&#45;&gt;Node3</title>
<path fill="none" stroke="#191970" d="M115.1994,-140.5274C129.8343,-142.6334 145.375,-144.8697 159.8596,-146.954"/>
<polygon fill="#191970" stroke="#191970" points="115.633,-137.0538 105.2364,-139.0938 114.6359,-143.9825 115.633,-137.0538"/>
</g>
<!-- Node4 -->
<g id="node5" class="node">
<title>Node4</title>
<g id="a_node5"><a xlink:href="classmuq_1_1Approximation_1_1GaussPattersonQuadrature.html" target="_top" xlink:title="1d Gauss Patterson nested quadrature rule ">
<polygon fill="#ffffff" stroke="#000000" points="147.3247,-94.5 147.3247,-122.5 291.1714,-122.5 291.1714,-94.5 147.3247,-94.5"/>
<text text-anchor="start" x="155.3247" y="-110.5" font-family="FreeSans.ttf" font-size="10.00" fill="#000000">muq::Approximation</text>
<text text-anchor="middle" x="219.248" y="-100.5" font-family="FreeSans.ttf" font-size="10.00" fill="#000000">::GaussPattersonQuadrature</text>
</a>
</g>
</g>
<!-- Node0&#45;&gt;Node4 -->
<g id="edge4" class="edge">
<title>Node0&#45;&gt;Node4</title>
<path fill="none" stroke="#191970" d="M115.4593,-122.8129C125.8585,-121.3788 136.7085,-119.8825 147.307,-118.421"/>
<polygon fill="#191970" stroke="#191970" points="114.6645,-119.3893 105.2364,-124.2227 115.6208,-126.3236 114.6645,-119.3893"/>
</g>
<!-- Node5 -->
<g id="node6" class="node">
<title>Node5</title>
<g id="a_node6"><a xlink:href="classmuq_1_1Approximation_1_1GaussQuadrature.html" target="_top" xlink:title="Class for computing Gauss Quadrature rules from an orthogonal polynomial family. ">
<polygon fill="#ffffff" stroke="#000000" points="166.7827,-47.5 166.7827,-75.5 271.7134,-75.5 271.7134,-47.5 166.7827,-47.5"/>
<text text-anchor="start" x="174.7827" y="-63.5" font-family="FreeSans.ttf" font-size="10.00" fill="#000000">muq::Approximation</text>
<text text-anchor="middle" x="219.248" y="-53.5" font-family="FreeSans.ttf" font-size="10.00" fill="#000000">::GaussQuadrature</text>
</a>
</g>
</g>
<!-- Node0&#45;&gt;Node5 -->
<g id="edge5" class="edge">
<title>Node0&#45;&gt;Node5</title>
<path fill="none" stroke="#191970" d="M85.794,-112.334C102.0858,-103.4438 122.1808,-93.1728 140.9307,-85.5 149.7489,-81.8914 159.3158,-78.5278 168.6355,-75.528"/>
<polygon fill="#191970" stroke="#191970" points="83.7342,-109.4736 76.6801,-117.3787 87.1242,-115.5981 83.7342,-109.4736"/>
</g>
<!-- Node6 -->
<g id="node7" class="node">
<title>Node6</title>
<g id="a_node7"><a xlink:href="classmuq_1_1Approximation_1_1SmolyakQuadrature.html" target="_top" xlink:title="Computes static Smolyak quadrature rules for multivariate integration. ">
<polygon fill="#ffffff" stroke="#000000" points="164.0044,-.5 164.0044,-28.5 274.4917,-28.5 274.4917,-.5 164.0044,-.5"/>
<text text-anchor="start" x="172.0044" y="-16.5" font-family="FreeSans.ttf" font-size="10.00" fill="#000000">muq::Approximation</text>
<text text-anchor="middle" x="219.248" y="-6.5" font-family="FreeSans.ttf" font-size="10.00" fill="#000000">::SmolyakQuadrature</text>
</a>
</g>
</g>
<!-- Node0&#45;&gt;Node6 -->
<g id="edge6" class="edge">
<title>Node0&#45;&gt;Node6</title>
<path fill="none" stroke="#191970" d="M68.2056,-109.2713C84.2374,-88.1843 110.9474,-57.0429 140.9307,-38.5 147.9456,-34.1616 155.802,-30.5572 163.7585,-27.5767"/>
<polygon fill="#191970" stroke="#191970" points="65.3551,-107.2392 62.2066,-117.3554 70.9765,-111.4107 65.3551,-107.2392"/>
</g>
</g>
</svg>
