<?xml version="1.0" encoding="UTF-8" standalone="no"?>
<!DOCTYPE svg PUBLIC "-//W3C//DTD SVG 1.1//EN"
 "http://www.w3.org/Graphics/SVG/1.1/DTD/svg11.dtd">
<!-- Generated by graphviz version 2.40.1 (20161225.0304)
 -->
<!-- Title: muq::Optimization::ModPieceCostFunction Pages: 1 -->
<svg width="143pt" height="212pt"
 viewBox="0.00 0.00 143.32 212.00" xmlns="http://www.w3.org/2000/svg" xmlns:xlink="http://www.w3.org/1999/xlink">
<g id="graph0" class="graph" transform="scale(1 1) rotate(0) translate(4 208)">
<title>muq::Optimization::ModPieceCostFunction</title>
<polygon fill="#ffffff" stroke="transparent" points="-4,4 -4,-208 139.3164,-208 139.3164,4 -4,4"/>
<!-- Node0 -->
<g id="node1" class="node">
<title>Node0</title>
<polygon fill="#bfbfbf" stroke="#000000" points="7.9663,-.5 7.9663,-28.5 127.3501,-28.5 127.3501,-.5 7.9663,-.5"/>
<text text-anchor="start" x="15.9663" y="-16.5" font-family="FreeSans.ttf" font-size="10.00" fill="#000000">muq::Optimization::</text>
<text text-anchor="middle" x="67.6582" y="-6.5" font-family="FreeSans.ttf" font-size="10.00" fill="#000000">ModPieceCostFunction</text>
</g>
<!-- Node1 -->
<g id="node2" class="node">
<title>Node1</title>
<g id="a_node2"><a xlink:href="classmuq_1_1Optimization_1_1CostFunction.html" target="_top" xlink:title="The cost function for an optimization routine. ">
<polygon fill="#ffffff" stroke="#000000" points="16.5869,-65.5 16.5869,-93.5 118.7295,-93.5 118.7295,-65.5 16.5869,-65.5"/>
<text text-anchor="start" x="24.5869" y="-81.5" font-family="FreeSans.ttf" font-size="10.00" fill="#000000">muq::Optimization::</text>
<text text-anchor="middle" x="67.6582" y="-71.5" font-family="FreeSans.ttf" font-size="10.00" fill="#000000">CostFunction</text>
</a>
</g>
</g>
<!-- Node1&#45;&gt;Node0 -->
<g id="edge1" class="edge">
<title>Node1&#45;&gt;Node0</title>
<path fill="none" stroke="#191970" d="M67.6582,-55.1081C67.6582,-46.1539 67.6582,-36.3227 67.6582,-28.5765"/>
<polygon fill="#191970" stroke="#191970" points="64.1583,-55.3959 67.6582,-65.396 71.1583,-55.396 64.1583,-55.3959"/>
</g>
<!-- Node2 -->
<g id="node3" class="node">
<title>Node2</title>
<g id="a_node3"><a xlink:href="classmuq_1_1Modeling_1_1ModPiece.html" target="_top" xlink:title="Provides an abstract interface for defining vector&#45;valued model components. ">
<polygon fill="#ffffff" stroke="#000000" points="1.8506,-130.5 1.8506,-148.5 133.4658,-148.5 133.4658,-130.5 1.8506,-130.5"/>
<text text-anchor="middle" x="67.6582" y="-136.5" font-family="FreeSans.ttf" font-size="10.00" fill="#000000">muq::Modeling::ModPiece</text>
</a>
</g>
</g>
<!-- Node2&#45;&gt;Node1 -->
<g id="edge2" class="edge">
<title>Node2&#45;&gt;Node1</title>
<path fill="none" stroke="#191970" d="M67.6582,-120.1865C67.6582,-111.6283 67.6582,-101.7354 67.6582,-93.8477"/>
<polygon fill="#191970" stroke="#191970" points="64.1583,-120.3873 67.6582,-130.3873 71.1583,-120.3873 64.1583,-120.3873"/>
</g>
<!-- Node3 -->
<g id="node4" class="node">
<title>Node3</title>
<g id="a_node4"><a xlink:href="classmuq_1_1Modeling_1_1WorkPiece.html" target="_top" xlink:title="Base class for MUQ&#39;s modelling envronment. ">
<polygon fill="#ffffff" stroke="#000000" points="0,-185.5 0,-203.5 135.3164,-203.5 135.3164,-185.5 0,-185.5"/>
<text text-anchor="middle" x="67.6582" y="-191.5" font-family="FreeSans.ttf" font-size="10.00" fill="#000000">muq::Modeling::WorkPiece</text>
</a>
</g>
</g>
<!-- Node3&#45;&gt;Node2 -->
<g id="edge3" class="edge">
<title>Node3&#45;&gt;Node2</title>
<path fill="none" stroke="#191970" d="M67.6582,-175.383C67.6582,-166.3738 67.6582,-156.0373 67.6582,-148.7795"/>
<polygon fill="#191970" stroke="#191970" points="64.1583,-175.4178 67.6582,-185.4179 71.1583,-175.4179 64.1583,-175.4178"/>
</g>
</g>
</svg>
