<?xml version="1.0" encoding="UTF-8" standalone="no"?>
<!DOCTYPE svg PUBLIC "-//W3C//DTD SVG 1.1//EN"
 "http://www.w3.org/Graphics/SVG/1.1/DTD/svg11.dtd">
<!-- Generated by graphviz version 2.40.1 (20161225.0304)
 -->
<!-- Title: muq::Modeling::CwiseUnaryOperator&lt; T1, T2, T3 &gt; Pages: 1 -->
<svg width="149pt" height="147pt"
 viewBox="0.00 0.00 149.05 147.00" xmlns="http://www.w3.org/2000/svg" xmlns:xlink="http://www.w3.org/1999/xlink">
<g id="graph0" class="graph" transform="scale(1 1) rotate(0) translate(4 143)">
<title>muq::Modeling::CwiseUnaryOperator&lt; T1, T2, T3 &gt;</title>
<polygon fill="#ffffff" stroke="transparent" points="-4,4 -4,-143 145.0488,-143 145.0488,4 -4,4"/>
<!-- Node0 -->
<g id="node1" class="node">
<title>Node0</title>
<polygon fill="#bfbfbf" stroke="#000000" points="0,-.5 0,-28.5 141.0488,-28.5 141.0488,-.5 0,-.5"/>
<text text-anchor="start" x="8" y="-16.5" font-family="FreeSans.ttf" font-size="10.00" fill="#000000">muq::Modeling::CwiseUnary</text>
<text text-anchor="middle" x="70.5244" y="-6.5" font-family="FreeSans.ttf" font-size="10.00" fill="#000000">Operator&lt; T1, T2, T3 &gt;</text>
</g>
<!-- Node1 -->
<g id="node2" class="node">
<title>Node1</title>
<g id="a_node2"><a xlink:href="classmuq_1_1Modeling_1_1ModPiece.html" target="_top" xlink:title="Provides an abstract interface for defining vector&#45;valued model components. ">
<polygon fill="#ffffff" stroke="#000000" points="4.7168,-65.5 4.7168,-83.5 136.332,-83.5 136.332,-65.5 4.7168,-65.5"/>
<text text-anchor="middle" x="70.5244" y="-71.5" font-family="FreeSans.ttf" font-size="10.00" fill="#000000">muq::Modeling::ModPiece</text>
</a>
</g>
</g>
<!-- Node1&#45;&gt;Node0 -->
<g id="edge1" class="edge">
<title>Node1&#45;&gt;Node0</title>
<path fill="none" stroke="#191970" d="M70.5244,-55.1865C70.5244,-46.6283 70.5244,-36.7354 70.5244,-28.8477"/>
<polygon fill="#191970" stroke="#191970" points="67.0245,-55.3873 70.5244,-65.3873 74.0245,-55.3873 67.0245,-55.3873"/>
</g>
<!-- Node2 -->
<g id="node3" class="node">
<title>Node2</title>
<g id="a_node3"><a xlink:href="classmuq_1_1Modeling_1_1WorkPiece.html" target="_top" xlink:title="Base class for MUQ&#39;s modelling envronment. ">
<polygon fill="#ffffff" stroke="#000000" points="2.8662,-120.5 2.8662,-138.5 138.1826,-138.5 138.1826,-120.5 2.8662,-120.5"/>
<text text-anchor="middle" x="70.5244" y="-126.5" font-family="FreeSans.ttf" font-size="10.00" fill="#000000">muq::Modeling::WorkPiece</text>
</a>
</g>
</g>
<!-- Node2&#45;&gt;Node1 -->
<g id="edge2" class="edge">
<title>Node2&#45;&gt;Node1</title>
<path fill="none" stroke="#191970" d="M70.5244,-110.383C70.5244,-101.3738 70.5244,-91.0373 70.5244,-83.7795"/>
<polygon fill="#191970" stroke="#191970" points="67.0245,-110.4178 70.5244,-120.4179 74.0245,-110.4179 67.0245,-110.4178"/>
</g>
</g>
</svg>
