<?xml version="1.0" encoding="UTF-8" standalone="no"?>
<!DOCTYPE svg PUBLIC "-//W3C//DTD SVG 1.1//EN"
 "http://www.w3.org/Graphics/SVG/1.1/DTD/svg11.dtd">
<!-- Generated by graphviz version 2.40.1 (20161225.0304)
 -->
<!-- Title: muq::Approximation::SmolyakEstimator&lt; EstimateType &gt; Pages: 1 -->
<svg width="784pt" height="317pt"
 viewBox="0.00 0.00 784.12 317.00" xmlns="http://www.w3.org/2000/svg" xmlns:xlink="http://www.w3.org/1999/xlink">
<g id="graph0" class="graph" transform="scale(1 1) rotate(0) translate(4 313)">
<title>muq::Approximation::SmolyakEstimator&lt; EstimateType &gt;</title>
<polygon fill="#ffffff" stroke="transparent" points="-4,4 -4,-313 780.1211,-313 780.1211,4 -4,4"/>
<!-- Node1 -->
<g id="node1" class="node">
<title>Node1</title>
<polygon fill="#bfbfbf" stroke="#000000" points="668.1484,-124.5 668.1484,-162.5 776.1211,-162.5 776.1211,-124.5 668.1484,-124.5"/>
<text text-anchor="start" x="676.1484" y="-150.5" font-family="FreeSans.ttf" font-size="10.00" fill="#000000">muq::Approximation</text>
<text text-anchor="start" x="676.1484" y="-140.5" font-family="FreeSans.ttf" font-size="10.00" fill="#000000">::SmolyakEstimator&lt;</text>
<text text-anchor="middle" x="722.1348" y="-130.5" font-family="FreeSans.ttf" font-size="10.00" fill="#000000"> EstimateType &gt;</text>
</g>
<!-- Node2 -->
<g id="node2" class="node">
<title>Node2</title>
<g id="a_node2"><a xlink:href="structmuq_1_1Modeling_1_1DynamicKDTreeAdaptor.html" target="_top" xlink:title="muq::Modeling::DynamicKDTree\lAdaptor\&lt; Distance, IndexType \&gt;">
<polygon fill="#ffffff" stroke="#000000" points="413.3506,-278.5 413.3506,-306.5 573.4814,-306.5 573.4814,-278.5 413.3506,-278.5"/>
<text text-anchor="start" x="421.3506" y="-294.5" font-family="FreeSans.ttf" font-size="10.00" fill="#000000">muq::Modeling::DynamicKDTree</text>
<text text-anchor="middle" x="493.416" y="-284.5" font-family="FreeSans.ttf" font-size="10.00" fill="#000000">Adaptor&lt; Distance, IndexType &gt;</text>
</a>
</g>
</g>
<!-- Node2&#45;&gt;Node1 -->
<g id="edge1" class="edge">
<title>Node2&#45;&gt;Node1</title>
<path fill="none" stroke="#9a32cd" stroke-dasharray="5,2" d="M554.6854,-275.1216C585.5329,-264.2935 622.2076,-248.0653 650.1484,-225.5 673.139,-206.9326 694.8411,-180.5445 708.2877,-162.762"/>
<polygon fill="#9a32cd" stroke="#9a32cd" points="553.2357,-271.9176 544.8932,-278.4486 555.4876,-278.5455 553.2357,-271.9176"/>
<text text-anchor="middle" x="622.3604" y="-258.5" font-family="FreeSans.ttf" font-size="10.00" fill="#000000"> pointCache</text>
</g>
<!-- Node3 -->
<g id="node3" class="node">
<title>Node3</title>
<polygon fill="#ffffff" stroke="#bfbfbf" points="207.9058,-280.5 207.9058,-308.5 310.3608,-308.5 310.3608,-280.5 207.9058,-280.5"/>
<text text-anchor="start" x="215.9058" y="-296.5" font-family="FreeSans.ttf" font-size="10.00" fill="#000000">std::deque&lt; Eigen::</text>
<text text-anchor="middle" x="259.1333" y="-286.5" font-family="FreeSans.ttf" font-size="10.00" fill="#000000">VectorXd &gt;</text>
</g>
<!-- Node3&#45;&gt;Node2 -->
<g id="edge2" class="edge">
<title>Node3&#45;&gt;Node2</title>
<path fill="none" stroke="#9a32cd" stroke-dasharray="5,2" d="M320.6925,-293.9745C348.9656,-293.7331 382.8622,-293.4438 413.1106,-293.1855"/>
<polygon fill="#9a32cd" stroke="#9a32cd" points="320.5174,-290.4758 310.5476,-294.0611 320.5772,-297.4755 320.5174,-290.4758"/>
<text text-anchor="middle" x="370.5825" y="-295.5" font-family="FreeSans.ttf" font-size="10.00" fill="#000000"> m_data</text>
</g>
<!-- Node4 -->
<g id="node4" class="node">
<title>Node4</title>
<polygon fill="#ffffff" stroke="#bfbfbf" points="410.2598,-228.5 410.2598,-256.5 576.5723,-256.5 576.5723,-228.5 410.2598,-228.5"/>
<text text-anchor="start" x="418.2598" y="-244.5" font-family="FreeSans.ttf" font-size="10.00" fill="#000000">std::vector&lt; muq::Approximation</text>
<text text-anchor="middle" x="493.416" y="-234.5" font-family="FreeSans.ttf" font-size="10.00" fill="#000000">::SmolyakEstimator::SmolyTerm &gt;</text>
</g>
<!-- Node4&#45;&gt;Node1 -->
<g id="edge3" class="edge">
<title>Node4&#45;&gt;Node1</title>
<path fill="none" stroke="#9a32cd" stroke-dasharray="5,2" d="M559.227,-225.3738C565.132,-223.5135 570.9863,-221.5476 576.5723,-219.5 610.3946,-207.1018 618.2047,-202.1513 650.1484,-185.5 663.749,-178.4105 678.4285,-169.9912 690.9616,-162.5588"/>
<polygon fill="#9a32cd" stroke="#9a32cd" points="557.828,-222.141 549.2799,-228.4005 559.8657,-228.8378 557.828,-222.141"/>
<text text-anchor="middle" x="622.3604" y="-213.5" font-family="FreeSans.ttf" font-size="10.00" fill="#000000"> terms</text>
</g>
<!-- Node5 -->
<g id="node5" class="node">
<title>Node5</title>
<g id="a_node5"><a xlink:href="structmuq_1_1Approximation_1_1SmolyakEstimator_1_1SmolyTerm.html" target="_top" xlink:title="muq::Approximation\l::SmolyakEstimator\&lt;\l EstimateType \&gt;::SmolyTerm">
<polygon fill="#ffffff" stroke="#000000" points="187.3613,-223.5 187.3613,-261.5 330.9053,-261.5 330.9053,-223.5 187.3613,-223.5"/>
<text text-anchor="start" x="195.3613" y="-249.5" font-family="FreeSans.ttf" font-size="10.00" fill="#000000">muq::Approximation</text>
<text text-anchor="start" x="195.3613" y="-239.5" font-family="FreeSans.ttf" font-size="10.00" fill="#000000">::SmolyakEstimator&lt;</text>
<text text-anchor="middle" x="259.1333" y="-229.5" font-family="FreeSans.ttf" font-size="10.00" fill="#000000"> EstimateType &gt;::SmolyTerm</text>
</a>
</g>
</g>
<!-- Node5&#45;&gt;Node4 -->
<g id="edge4" class="edge">
<title>Node5&#45;&gt;Node4</title>
<path fill="none" stroke="#9a32cd" stroke-dasharray="5,2" d="M341.1453,-242.5C363.5042,-242.5 387.7446,-242.5 410.1712,-242.5"/>
<polygon fill="#9a32cd" stroke="#9a32cd" points="341.018,-239.0001 331.018,-242.5 341.018,-246.0001 341.018,-239.0001"/>
<text text-anchor="middle" x="370.5825" y="-244.5" font-family="FreeSans.ttf" font-size="10.00" fill="#000000"> elements</text>
</g>
<!-- Node6 -->
<g id="node6" class="node">
<title>Node6</title>
<polygon fill="#ffffff" stroke="#bfbfbf" points="0,-228.5 0,-256.5 111.3369,-256.5 111.3369,-228.5 0,-228.5"/>
<text text-anchor="start" x="8" y="-244.5" font-family="FreeSans.ttf" font-size="10.00" fill="#000000">std::vector&lt; unsigned</text>
<text text-anchor="middle" x="55.6685" y="-234.5" font-family="FreeSans.ttf" font-size="10.00" fill="#000000"> int &gt;</text>
</g>
<!-- Node6&#45;&gt;Node5 -->
<g id="edge5" class="edge">
<title>Node6&#45;&gt;Node5</title>
<path fill="none" stroke="#9a32cd" stroke-dasharray="5,2" d="M121.6363,-242.5C142.6316,-242.5 165.9556,-242.5 187.3416,-242.5"/>
<polygon fill="#9a32cd" stroke="#9a32cd" points="121.5353,-239.0001 111.5352,-242.5 121.5352,-246.0001 121.5353,-239.0001"/>
<text text-anchor="middle" x="149.3491" y="-244.5" font-family="FreeSans.ttf" font-size="10.00" fill="#000000"> evalInds</text>
</g>
<!-- Node7 -->
<g id="node7" class="node">
<title>Node7</title>
<polygon fill="#ffffff" stroke="#bfbfbf" points="441.9248,-181.5 441.9248,-209.5 544.9072,-209.5 544.9072,-181.5 441.9248,-181.5"/>
<text text-anchor="start" x="449.9248" y="-197.5" font-family="FreeSans.ttf" font-size="10.00" fill="#000000">std::vector&lt; std::set</text>
<text text-anchor="middle" x="493.416" y="-187.5" font-family="FreeSans.ttf" font-size="10.00" fill="#000000">&lt; unsigned int &gt; &gt;</text>
</g>
<!-- Node7&#45;&gt;Node1 -->
<g id="edge6" class="edge">
<title>Node7&#45;&gt;Node1</title>
<path fill="none" stroke="#9a32cd" stroke-dasharray="5,2" d="M555.186,-181.4564C590.3785,-173.4552 634.0653,-163.5229 667.9214,-155.8256"/>
<polygon fill="#9a32cd" stroke="#9a32cd" points="554.0054,-178.1354 545.0302,-183.7653 555.5573,-184.9612 554.0054,-178.1354"/>
<text text-anchor="middle" x="622.3604" y="-173.5" font-family="FreeSans.ttf" font-size="10.00" fill="#000000"> pointHistory</text>
</g>
<!-- Node8 -->
<g id="node8" class="node">
<title>Node8</title>
<polygon fill="#ffffff" stroke="#bfbfbf" points="210.4106,-176.5 210.4106,-204.5 307.856,-204.5 307.856,-176.5 210.4106,-176.5"/>
<text text-anchor="start" x="218.4106" y="-192.5" font-family="FreeSans.ttf" font-size="10.00" fill="#000000">std::set&lt; unsigned</text>
<text text-anchor="middle" x="259.1333" y="-182.5" font-family="FreeSans.ttf" font-size="10.00" fill="#000000"> int &gt;</text>
</g>
<!-- Node8&#45;&gt;Node7 -->
<g id="edge7" class="edge">
<title>Node8&#45;&gt;Node7</title>
<path fill="none" stroke="#9a32cd" stroke-dasharray="5,2" d="M318.3844,-191.7645C356.4308,-192.5765 405.3604,-193.6207 441.8091,-194.3986"/>
<polygon fill="#9a32cd" stroke="#9a32cd" points="318.0339,-188.2563 307.9615,-191.5421 317.8845,-195.2547 318.0339,-188.2563"/>
<text text-anchor="middle" x="370.5825" y="-194.5" font-family="FreeSans.ttf" font-size="10.00" fill="#000000"> elements</text>
</g>
<!-- Node9 -->
<g id="node9" class="node">
<title>Node9</title>
<polygon fill="#ffffff" stroke="#bfbfbf" points="428.0308,-124.5 428.0308,-162.5 558.8013,-162.5 558.8013,-124.5 428.0308,-124.5"/>
<text text-anchor="start" x="436.0308" y="-150.5" font-family="FreeSans.ttf" font-size="10.00" fill="#000000">std::vector&lt; std::vector</text>
<text text-anchor="start" x="436.0308" y="-140.5" font-family="FreeSans.ttf" font-size="10.00" fill="#000000">&lt; std::shared_ptr&lt; muq</text>
<text text-anchor="middle" x="493.416" y="-130.5" font-family="FreeSans.ttf" font-size="10.00" fill="#000000">::Utilities::MultiIndex &gt; &gt; &gt;</text>
</g>
<!-- Node9&#45;&gt;Node1 -->
<g id="edge8" class="edge">
<title>Node9&#45;&gt;Node1</title>
<path fill="none" stroke="#9a32cd" stroke-dasharray="5,2" d="M569.2442,-143.5C601.4744,-143.5 638.3281,-143.5 667.7764,-143.5"/>
<polygon fill="#9a32cd" stroke="#9a32cd" points="568.9577,-140.0001 558.9576,-143.5 568.9576,-147.0001 568.9577,-140.0001"/>
<text text-anchor="middle" x="622.3604" y="-145.5" font-family="FreeSans.ttf" font-size="10.00" fill="#000000"> termHistory</text>
</g>
<!-- Node10 -->
<g id="node10" class="node">
<title>Node10</title>
<polygon fill="#ffffff" stroke="#bfbfbf" points="445.2549,-77.5 445.2549,-105.5 541.5771,-105.5 541.5771,-77.5 445.2549,-77.5"/>
<text text-anchor="start" x="453.2549" y="-93.5" font-family="FreeSans.ttf" font-size="10.00" fill="#000000">std::vector&lt; Eigen</text>
<text text-anchor="middle" x="493.416" y="-83.5" font-family="FreeSans.ttf" font-size="10.00" fill="#000000">::VectorXd &gt;</text>
</g>
<!-- Node10&#45;&gt;Node1 -->
<g id="edge9" class="edge">
<title>Node10&#45;&gt;Node1</title>
<path fill="none" stroke="#9a32cd" stroke-dasharray="5,2" d="M551.4646,-104.6976C587.2736,-112.8389 632.8987,-123.2119 667.9644,-131.1842"/>
<polygon fill="#9a32cd" stroke="#9a32cd" points="552.169,-101.2685 541.6419,-102.4643 550.6171,-108.0943 552.169,-101.2685"/>
<text text-anchor="middle" x="622.3604" y="-129.5" font-family="FreeSans.ttf" font-size="10.00" fill="#000000"> evalCache</text>
</g>
<!-- Node11 -->
<g id="node11" class="node">
<title>Node11</title>
<polygon fill="#ffffff" stroke="#bfbfbf" points="448.4531,-40.5 448.4531,-58.5 538.3789,-58.5 538.3789,-40.5 448.4531,-40.5"/>
<text text-anchor="middle" x="493.416" y="-46.5" font-family="FreeSans.ttf" font-size="10.00" fill="#000000">std::vector&lt; int &gt;</text>
</g>
<!-- Node11&#45;&gt;Node1 -->
<g id="edge10" class="edge">
<title>Node11&#45;&gt;Node1</title>
<path fill="none" stroke="#9a32cd" stroke-dasharray="5,2" d="M548.2265,-59.479C557.7809,-61.7516 567.5448,-64.422 576.5723,-67.5 618.666,-81.8521 663.5108,-106.9342 692.1229,-124.3397"/>
<polygon fill="#9a32cd" stroke="#9a32cd" points="548.9109,-56.0455 538.3853,-57.2543 547.3674,-62.8732 548.9109,-56.0455"/>
<text text-anchor="middle" x="622.3604" y="-102.5" font-family="FreeSans.ttf" font-size="10.00" fill="#000000"> evalHistory</text>
</g>
<!-- Node12 -->
<g id="node12" class="node">
<title>Node12</title>
<polygon fill="#ffffff" stroke="#bfbfbf" points="438.7192,-.5 438.7192,-18.5 548.1128,-18.5 548.1128,-.5 438.7192,-.5"/>
<text text-anchor="middle" x="493.416" y="-6.5" font-family="FreeSans.ttf" font-size="10.00" fill="#000000">std::vector&lt; double &gt;</text>
</g>
<!-- Node12&#45;&gt;Node1 -->
<g id="edge11" class="edge">
<title>Node12&#45;&gt;Node1</title>
<path fill="none" stroke="#9a32cd" stroke-dasharray="5,2" d="M558.1791,-17.0208C588.1091,-22.8573 622.9582,-33.1986 650.1484,-51.5 678.077,-70.2984 700.0539,-103.401 712.0545,-124.3528"/>
<polygon fill="#9a32cd" stroke="#9a32cd" points="558.7011,-13.5583 548.2357,-15.2092 557.4464,-20.445 558.7011,-13.5583"/>
<text text-anchor="middle" x="622.3604" y="-63.5" font-family="FreeSans.ttf" font-size="10.00" fill="#000000"> errorHistory</text>
<text text-anchor="middle" x="622.3604" y="-53.5" font-family="FreeSans.ttf" font-size="10.00" fill="#000000">timeHistory</text>
</g>
</g>
</svg>
