<?xml version="1.0" encoding="UTF-8" standalone="no"?>
<!DOCTYPE svg PUBLIC "-//W3C//DTD SVG 1.1//EN"
 "http://www.w3.org/Graphics/SVG/1.1/DTD/svg11.dtd">
<!-- Generated by graphviz version 2.40.1 (20161225.0304)
 -->
<!-- Title: muq::SamplingAlgorithms::TransitionKernel Pages: 1 -->
<svg width="470pt" height="366pt"
 viewBox="0.00 0.00 469.81 366.00" xmlns="http://www.w3.org/2000/svg" xmlns:xlink="http://www.w3.org/1999/xlink">
<g id="graph0" class="graph" transform="scale(1 1) rotate(0) translate(4 362)">
<title>muq::SamplingAlgorithms::TransitionKernel</title>
<polygon fill="#ffffff" stroke="transparent" points="-4,4 -4,-362 465.8066,-362 465.8066,4 -4,4"/>
<!-- Node0 -->
<g id="node1" class="node">
<title>Node0</title>
<polygon fill="#bfbfbf" stroke="#000000" points="0,-164.5 0,-192.5 129.9355,-192.5 129.9355,-164.5 0,-164.5"/>
<text text-anchor="start" x="8" y="-180.5" font-family="FreeSans.ttf" font-size="10.00" fill="#000000">muq::SamplingAlgorithms</text>
<text text-anchor="middle" x="64.9678" y="-170.5" font-family="FreeSans.ttf" font-size="10.00" fill="#000000">::TransitionKernel</text>
</g>
<!-- Node1 -->
<g id="node2" class="node">
<title>Node1</title>
<g id="a_node2"><a xlink:href="classmuq_1_1SamplingAlgorithms_1_1DILIKernel.html" target="_top" xlink:title="An implementation of the Dimension Independent Likelihood Informed subspace (DILI) MCMC sampler...">
<polygon fill="#ffffff" stroke="#000000" points="165.9355,-329.5 165.9355,-357.5 295.8711,-357.5 295.8711,-329.5 165.9355,-329.5"/>
<text text-anchor="start" x="173.9355" y="-345.5" font-family="FreeSans.ttf" font-size="10.00" fill="#000000">muq::SamplingAlgorithms</text>
<text text-anchor="middle" x="230.9033" y="-335.5" font-family="FreeSans.ttf" font-size="10.00" fill="#000000">::DILIKernel</text>
</a>
</g>
</g>
<!-- Node0&#45;&gt;Node1 -->
<g id="edge1" class="edge">
<title>Node0&#45;&gt;Node1</title>
<path fill="none" stroke="#191970" d="M75.9471,-202.062C91.668,-233.366 123.4499,-288.4378 165.9355,-320.5 170.5199,-323.9596 175.6691,-326.9304 181.0102,-329.4742"/>
<polygon fill="#191970" stroke="#191970" points="78.9515,-200.2385 71.4141,-192.7928 72.6632,-203.3138 78.9515,-200.2385"/>
</g>
<!-- Node2 -->
<g id="node3" class="node">
<title>Node2</title>
<g id="a_node3"><a xlink:href="classmuq_1_1SamplingAlgorithms_1_1DRKernel.html" target="_top" xlink:title="An implementation of the delayed rejection kernel. ">
<polygon fill="#ffffff" stroke="#000000" points="165.9355,-282.5 165.9355,-310.5 295.8711,-310.5 295.8711,-282.5 165.9355,-282.5"/>
<text text-anchor="start" x="173.9355" y="-298.5" font-family="FreeSans.ttf" font-size="10.00" fill="#000000">muq::SamplingAlgorithms</text>
<text text-anchor="middle" x="230.9033" y="-288.5" font-family="FreeSans.ttf" font-size="10.00" fill="#000000">::DRKernel</text>
</a>
</g>
</g>
<!-- Node0&#45;&gt;Node2 -->
<g id="edge2" class="edge">
<title>Node0&#45;&gt;Node2</title>
<path fill="none" stroke="#191970" d="M83.1819,-200.256C101.9886,-221.51 133.1373,-253.4992 165.9355,-273.5 171.4519,-276.8639 177.5318,-279.8321 183.692,-282.4218"/>
<polygon fill="#191970" stroke="#191970" points="85.802,-197.9352 76.6006,-192.6832 80.5185,-202.527 85.802,-197.9352"/>
</g>
<!-- Node3 -->
<g id="node4" class="node">
<title>Node3</title>
<g id="a_node4"><a xlink:href="classmuq_1_1SamplingAlgorithms_1_1DummyKernel.html" target="_top" xlink:title="MCMC kernel that always accepts proposals. ">
<polygon fill="#ffffff" stroke="#000000" points="165.9355,-235.5 165.9355,-263.5 295.8711,-263.5 295.8711,-235.5 165.9355,-235.5"/>
<text text-anchor="start" x="173.9355" y="-251.5" font-family="FreeSans.ttf" font-size="10.00" fill="#000000">muq::SamplingAlgorithms</text>
<text text-anchor="middle" x="230.9033" y="-241.5" font-family="FreeSans.ttf" font-size="10.00" fill="#000000">::DummyKernel</text>
</a>
</g>
</g>
<!-- Node0&#45;&gt;Node3 -->
<g id="edge3" class="edge">
<title>Node0&#45;&gt;Node3</title>
<path fill="none" stroke="#191970" d="M101.6608,-197.069C120.6372,-206.3837 144.3,-217.5556 165.9355,-226.5 173.344,-229.5627 181.3247,-232.5978 189.0706,-235.4098"/>
<polygon fill="#191970" stroke="#191970" points="102.9916,-193.8226 92.4763,-192.5266 99.8883,-200.0971 102.9916,-193.8226"/>
</g>
<!-- Node4 -->
<g id="node5" class="node">
<title>Node4</title>
<g id="a_node5"><a xlink:href="classmuq_1_1SamplingAlgorithms_1_1ISKernel.html" target="_top" xlink:title="Importance sampling transition kernel. ">
<polygon fill="#ffffff" stroke="#000000" points="165.9355,-188.5 165.9355,-216.5 295.8711,-216.5 295.8711,-188.5 165.9355,-188.5"/>
<text text-anchor="start" x="173.9355" y="-204.5" font-family="FreeSans.ttf" font-size="10.00" fill="#000000">muq::SamplingAlgorithms</text>
<text text-anchor="middle" x="230.9033" y="-194.5" font-family="FreeSans.ttf" font-size="10.00" fill="#000000">::ISKernel</text>
</a>
</g>
</g>
<!-- Node0&#45;&gt;Node4 -->
<g id="edge4" class="edge">
<title>Node0&#45;&gt;Node4</title>
<path fill="none" stroke="#191970" d="M140.0525,-189.3598C148.616,-190.5984 157.2926,-191.8534 165.7128,-193.0712"/>
<polygon fill="#191970" stroke="#191970" points="140.4717,-185.8841 130.0736,-187.9166 139.4696,-192.812 140.4717,-185.8841"/>
</g>
<!-- Node5 -->
<g id="node6" class="node">
<title>Node5</title>
<g id="a_node6"><a xlink:href="classmuq_1_1SamplingAlgorithms_1_1MCKernel.html" target="_top" xlink:title="Monte Carlo transition kernel. ">
<polygon fill="#ffffff" stroke="#000000" points="165.9355,-141.5 165.9355,-169.5 295.8711,-169.5 295.8711,-141.5 165.9355,-141.5"/>
<text text-anchor="start" x="173.9355" y="-157.5" font-family="FreeSans.ttf" font-size="10.00" fill="#000000">muq::SamplingAlgorithms</text>
<text text-anchor="middle" x="230.9033" y="-147.5" font-family="FreeSans.ttf" font-size="10.00" fill="#000000">::MCKernel</text>
</a>
</g>
</g>
<!-- Node0&#45;&gt;Node5 -->
<g id="edge5" class="edge">
<title>Node0&#45;&gt;Node5</title>
<path fill="none" stroke="#191970" d="M140.0525,-168.0927C148.616,-166.9057 157.2926,-165.703 165.7128,-164.5359"/>
<polygon fill="#191970" stroke="#191970" points="139.4984,-164.6359 130.0736,-169.4758 140.4595,-171.5696 139.4984,-164.6359"/>
</g>
<!-- Node6 -->
<g id="node7" class="node">
<title>Node6</title>
<g id="a_node7"><a xlink:href="classmuq_1_1SamplingAlgorithms_1_1MHKernel.html" target="_top" xlink:title="An implementation of the standard Metropolis&#45;Hastings transition kernel. ">
<polygon fill="#ffffff" stroke="#000000" points="165.9355,-94.5 165.9355,-122.5 295.8711,-122.5 295.8711,-94.5 165.9355,-94.5"/>
<text text-anchor="start" x="173.9355" y="-110.5" font-family="FreeSans.ttf" font-size="10.00" fill="#000000">muq::SamplingAlgorithms</text>
<text text-anchor="middle" x="230.9033" y="-100.5" font-family="FreeSans.ttf" font-size="10.00" fill="#000000">::MHKernel</text>
</a>
</g>
</g>
<!-- Node0&#45;&gt;Node6 -->
<g id="edge6" class="edge">
<title>Node0&#45;&gt;Node6</title>
<path fill="none" stroke="#191970" d="M103.4168,-160.1777C122.1378,-151.4637 145.061,-141.0972 165.9355,-132.5 174.163,-129.1115 183.0624,-125.6767 191.5579,-122.5053"/>
<polygon fill="#191970" stroke="#191970" points="101.8914,-157.0272 94.3181,-164.4364 104.8588,-163.3671 101.8914,-157.0272"/>
</g>
<!-- Node8 -->
<g id="node9" class="node">
<title>Node8</title>
<g id="a_node9"><a xlink:href="classmuq_1_1SamplingAlgorithms_1_1MIDummyKernel.html" target="_top" xlink:title="Dummy kernel for Multiindex MC methods. ">
<polygon fill="#ffffff" stroke="#000000" points="165.9355,-47.5 165.9355,-75.5 295.8711,-75.5 295.8711,-47.5 165.9355,-47.5"/>
<text text-anchor="start" x="173.9355" y="-63.5" font-family="FreeSans.ttf" font-size="10.00" fill="#000000">muq::SamplingAlgorithms</text>
<text text-anchor="middle" x="230.9033" y="-53.5" font-family="FreeSans.ttf" font-size="10.00" fill="#000000">::MIDummyKernel</text>
</a>
</g>
</g>
<!-- Node0&#45;&gt;Node8 -->
<g id="edge8" class="edge">
<title>Node0&#45;&gt;Node8</title>
<path fill="none" stroke="#191970" d="M83.8993,-156.6976C102.8747,-135.9813 133.8119,-105.1556 165.9355,-85.5 172.0894,-81.7346 178.9275,-78.4159 185.7909,-75.5413"/>
<polygon fill="#191970" stroke="#191970" points="81.0884,-154.5888 77.0003,-164.3632 86.2915,-159.2716 81.0884,-154.5888"/>
</g>
<!-- Node9 -->
<g id="node10" class="node">
<title>Node9</title>
<g id="a_node10"><a xlink:href="classmuq_1_1SamplingAlgorithms_1_1MIKernel.html" target="_top" xlink:title="MCMC kernel for Multiindex methods. ">
<polygon fill="#ffffff" stroke="#000000" points="165.9355,-.5 165.9355,-28.5 295.8711,-28.5 295.8711,-.5 165.9355,-.5"/>
<text text-anchor="start" x="173.9355" y="-16.5" font-family="FreeSans.ttf" font-size="10.00" fill="#000000">muq::SamplingAlgorithms</text>
<text text-anchor="middle" x="230.9033" y="-6.5" font-family="FreeSans.ttf" font-size="10.00" fill="#000000">::MIKernel</text>
</a>
</g>
</g>
<!-- Node0&#45;&gt;Node9 -->
<g id="edge9" class="edge">
<title>Node0&#45;&gt;Node9</title>
<path fill="none" stroke="#191970" d="M76.0956,-155.3571C91.9846,-124.5927 123.9562,-70.4079 165.9355,-38.5 171.0091,-34.6437 176.7666,-31.3554 182.7072,-28.5653"/>
<polygon fill="#191970" stroke="#191970" points="72.881,-153.9589 71.5096,-164.4646 79.1331,-157.1071 72.881,-153.9589"/>
</g>
<!-- Node7 -->
<g id="node8" class="node">
<title>Node7</title>
<g id="a_node8"><a xlink:href="classmuq_1_1SamplingAlgorithms_1_1GMHKernel.html" target="_top" xlink:title="A kernel for the generalized Metropolis&#45;Hastings kernel. ">
<polygon fill="#ffffff" stroke="#000000" points="331.8711,-94.5 331.8711,-122.5 461.8066,-122.5 461.8066,-94.5 331.8711,-94.5"/>
<text text-anchor="start" x="339.8711" y="-110.5" font-family="FreeSans.ttf" font-size="10.00" fill="#000000">muq::SamplingAlgorithms</text>
<text text-anchor="middle" x="396.8389" y="-100.5" font-family="FreeSans.ttf" font-size="10.00" fill="#000000">::GMHKernel</text>
</a>
</g>
</g>
<!-- Node6&#45;&gt;Node7 -->
<g id="edge7" class="edge">
<title>Node6&#45;&gt;Node7</title>
<path fill="none" stroke="#191970" d="M306.2673,-108.5C314.7401,-108.5 323.3197,-108.5 331.6484,-108.5"/>
<polygon fill="#191970" stroke="#191970" points="306.0092,-105.0001 296.0092,-108.5 306.0092,-112.0001 306.0092,-105.0001"/>
</g>
</g>
</svg>
