<?xml version="1.0" encoding="UTF-8" standalone="no"?>
<!DOCTYPE svg PUBLIC "-//W3C//DTD SVG 1.1//EN"
 "http://www.w3.org/Graphics/SVG/1.1/DTD/svg11.dtd">
<!-- Generated by graphviz version 2.40.1 (20161225.0304)
 -->
<!-- Title: muq::Modeling::ProductPiece Pages: 1 -->
<svg width="155pt" height="137pt"
 viewBox="0.00 0.00 154.62 137.00" xmlns="http://www.w3.org/2000/svg" xmlns:xlink="http://www.w3.org/1999/xlink">
<g id="graph0" class="graph" transform="scale(1 1) rotate(0) translate(4 133)">
<title>muq::Modeling::ProductPiece</title>
<polygon fill="#ffffff" stroke="transparent" points="-4,4 -4,-133 150.625,-133 150.625,4 -4,4"/>
<!-- Node0 -->
<g id="node1" class="node">
<title>Node0</title>
<polygon fill="#bfbfbf" stroke="#000000" points="0,-.5 0,-18.5 146.625,-18.5 146.625,-.5 0,-.5"/>
<text text-anchor="middle" x="73.3125" y="-6.5" font-family="FreeSans.ttf" font-size="10.00" fill="#000000">muq::Modeling::ProductPiece</text>
</g>
<!-- Node1 -->
<g id="node2" class="node">
<title>Node1</title>
<g id="a_node2"><a xlink:href="classmuq_1_1Modeling_1_1ModPiece.html" target="_top" xlink:title="Provides an abstract interface for defining vector&#45;valued model components. ">
<polygon fill="#ffffff" stroke="#000000" points="7.5049,-55.5 7.5049,-73.5 139.1201,-73.5 139.1201,-55.5 7.5049,-55.5"/>
<text text-anchor="middle" x="73.3125" y="-61.5" font-family="FreeSans.ttf" font-size="10.00" fill="#000000">muq::Modeling::ModPiece</text>
</a>
</g>
</g>
<!-- Node1&#45;&gt;Node0 -->
<g id="edge1" class="edge">
<title>Node1&#45;&gt;Node0</title>
<path fill="none" stroke="#191970" d="M73.3125,-45.383C73.3125,-36.3738 73.3125,-26.0373 73.3125,-18.7795"/>
<polygon fill="#191970" stroke="#191970" points="69.8126,-45.4178 73.3125,-55.4179 76.8126,-45.4179 69.8126,-45.4178"/>
</g>
<!-- Node2 -->
<g id="node3" class="node">
<title>Node2</title>
<g id="a_node3"><a xlink:href="classmuq_1_1Modeling_1_1WorkPiece.html" target="_top" xlink:title="Base class for MUQ&#39;s modelling envronment. ">
<polygon fill="#ffffff" stroke="#000000" points="5.6543,-110.5 5.6543,-128.5 140.9707,-128.5 140.9707,-110.5 5.6543,-110.5"/>
<text text-anchor="middle" x="73.3125" y="-116.5" font-family="FreeSans.ttf" font-size="10.00" fill="#000000">muq::Modeling::WorkPiece</text>
</a>
</g>
</g>
<!-- Node2&#45;&gt;Node1 -->
<g id="edge2" class="edge">
<title>Node2&#45;&gt;Node1</title>
<path fill="none" stroke="#191970" d="M73.3125,-100.383C73.3125,-91.3738 73.3125,-81.0373 73.3125,-73.7795"/>
<polygon fill="#191970" stroke="#191970" points="69.8126,-100.4178 73.3125,-110.4179 76.8126,-100.4179 69.8126,-100.4178"/>
</g>
</g>
</svg>
