<?xml version="1.0" encoding="UTF-8" standalone="no"?>
<!DOCTYPE svg PUBLIC "-//W3C//DTD SVG 1.1//EN"
 "http://www.w3.org/Graphics/SVG/1.1/DTD/svg11.dtd">
<!-- Generated by graphviz version 2.40.1 (20161225.0304)
 -->
<!-- Title: muq::Approximation::ZeroMean Pages: 1 -->
<svg width="174pt" height="167pt"
 viewBox="0.00 0.00 174.08 167.00" xmlns="http://www.w3.org/2000/svg" xmlns:xlink="http://www.w3.org/1999/xlink">
<g id="graph0" class="graph" transform="scale(1 1) rotate(0) translate(4 163)">
<title>muq::Approximation::ZeroMean</title>
<polygon fill="#ffffff" stroke="transparent" points="-4,4 -4,-163 170.083,-163 170.083,4 -4,4"/>
<!-- Node3 -->
<g id="node1" class="node">
<title>Node3</title>
<polygon fill="#bfbfbf" stroke="#000000" points="30.5762,-.5 30.5762,-28.5 135.5068,-28.5 135.5068,-.5 30.5762,-.5"/>
<text text-anchor="start" x="38.5762" y="-16.5" font-family="FreeSans.ttf" font-size="10.00" fill="#000000">muq::Approximation</text>
<text text-anchor="middle" x="83.0415" y="-6.5" font-family="FreeSans.ttf" font-size="10.00" fill="#000000">::ZeroMean</text>
</g>
<!-- Node4 -->
<g id="node2" class="node">
<title>Node4</title>
<g id="a_node2"><a xlink:href="classmuq_1_1Approximation_1_1MeanFunctionBase.html" target="_top" xlink:title="muq::Approximation\l::MeanFunctionBase">
<polygon fill="#ffffff" stroke="#000000" points="29.1821,-65.5 29.1821,-93.5 136.9009,-93.5 136.9009,-65.5 29.1821,-65.5"/>
<text text-anchor="start" x="37.1821" y="-81.5" font-family="FreeSans.ttf" font-size="10.00" fill="#000000">muq::Approximation</text>
<text text-anchor="middle" x="83.0415" y="-71.5" font-family="FreeSans.ttf" font-size="10.00" fill="#000000">::MeanFunctionBase</text>
</a>
</g>
</g>
<!-- Node4&#45;&gt;Node3 -->
<g id="edge1" class="edge">
<title>Node4&#45;&gt;Node3</title>
<path fill="none" stroke="#191970" d="M83.0415,-55.1081C83.0415,-46.1539 83.0415,-36.3227 83.0415,-28.5765"/>
<polygon fill="#191970" stroke="#191970" points="79.5416,-55.3959 83.0415,-65.396 86.5416,-55.396 79.5416,-55.3959"/>
</g>
<!-- Node5 -->
<g id="node3" class="node">
<title>Node5</title>
<polygon fill="#ffffff" stroke="#bfbfbf" points="0,-130.5 0,-158.5 166.083,-158.5 166.083,-130.5 0,-130.5"/>
<text text-anchor="start" x="8" y="-146.5" font-family="FreeSans.ttf" font-size="10.00" fill="#000000">std::enable_shared</text>
<text text-anchor="middle" x="83.0415" y="-136.5" font-family="FreeSans.ttf" font-size="10.00" fill="#000000">_from_this&lt; MeanFunctionBase &gt;</text>
</g>
<!-- Node5&#45;&gt;Node4 -->
<g id="edge2" class="edge">
<title>Node5&#45;&gt;Node4</title>
<path fill="none" stroke="#191970" d="M83.0415,-120.1081C83.0415,-111.1539 83.0415,-101.3227 83.0415,-93.5765"/>
<polygon fill="#191970" stroke="#191970" points="79.5416,-120.3959 83.0415,-130.396 86.5416,-120.396 79.5416,-120.3959"/>
</g>
</g>
</svg>
