<?xml version="1.0" encoding="UTF-8" standalone="no"?>
<!DOCTYPE svg PUBLIC "-//W3C//DTD SVG 1.1//EN"
 "http://www.w3.org/Graphics/SVG/1.1/DTD/svg11.dtd">
<!-- Generated by graphviz version 2.40.1 (20161225.0304)
 -->
<!-- Title: muq::Modeling::RandomVariable Pages: 1 -->
<svg width="1030pt" height="178pt"
 viewBox="0.00 0.00 1029.93 178.00" xmlns="http://www.w3.org/2000/svg" xmlns:xlink="http://www.w3.org/1999/xlink">
<g id="graph0" class="graph" transform="scale(1 1) rotate(0) translate(4 174)">
<title>muq::Modeling::RandomVariable</title>
<polygon fill="#ffffff" stroke="transparent" points="-4,4 -4,-174 1025.9307,-174 1025.9307,4 -4,4"/>
<!-- Node5 -->
<g id="node1" class="node">
<title>Node5</title>
<polygon fill="#bfbfbf" stroke="#000000" points="861.0332,-103.5 861.0332,-121.5 1021.9307,-121.5 1021.9307,-103.5 861.0332,-103.5"/>
<text text-anchor="middle" x="941.4819" y="-109.5" font-family="FreeSans.ttf" font-size="10.00" fill="#000000">muq::Modeling::RandomVariable</text>
</g>
<!-- Node6 -->
<g id="node2" class="node">
<title>Node6</title>
<g id="a_node2"><a xlink:href="classmuq_1_1Modeling_1_1Distribution.html" target="_top" xlink:title="muq::Modeling::Distribution">
<polygon fill="#ffffff" stroke="#000000" points="686.8662,-124.5 686.8662,-142.5 824.0332,-142.5 824.0332,-124.5 686.8662,-124.5"/>
<text text-anchor="middle" x="755.4497" y="-130.5" font-family="FreeSans.ttf" font-size="10.00" fill="#000000">muq::Modeling::Distribution</text>
</a>
</g>
</g>
<!-- Node6&#45;&gt;Node5 -->
<g id="edge1" class="edge">
<title>Node6&#45;&gt;Node5</title>
<path fill="none" stroke="#191970" d="M834.3272,-124.596C843.3893,-123.5731 852.6346,-122.5294 861.7083,-121.5051"/>
<polygon fill="#191970" stroke="#191970" points="833.737,-121.1403 824.1927,-125.74 834.5222,-128.0962 833.737,-121.1403"/>
</g>
<!-- Node7 -->
<g id="node3" class="node">
<title>Node7</title>
<polygon fill="#ffffff" stroke="#bfbfbf" points="469.312,-122.5 469.312,-150.5 599.2524,-150.5 599.2524,-122.5 469.312,-122.5"/>
<text text-anchor="start" x="477.312" y="-138.5" font-family="FreeSans.ttf" font-size="10.00" fill="#000000">std::enable_shared</text>
<text text-anchor="middle" x="534.2822" y="-128.5" font-family="FreeSans.ttf" font-size="10.00" fill="#000000">_from_this&lt; Distribution &gt;</text>
</g>
<!-- Node7&#45;&gt;Node6 -->
<g id="edge2" class="edge">
<title>Node7&#45;&gt;Node6</title>
<path fill="none" stroke="#191970" d="M609.5785,-135.4787C634.5035,-135.1406 662.1004,-134.7662 686.5226,-134.435"/>
<polygon fill="#191970" stroke="#191970" points="609.3951,-131.9807 599.4435,-135.6161 609.4901,-138.9801 609.3951,-131.9807"/>
</g>
<!-- Node8 -->
<g id="node4" class="node">
<title>Node8</title>
<g id="a_node4"><a xlink:href="classmuq_1_1Modeling_1_1ModPiece.html" target="_top" xlink:title="Provides an abstract interface for defining vector&#45;valued model components. ">
<polygon fill="#ffffff" stroke="#000000" points="689.6421,-85.5 689.6421,-103.5 821.2573,-103.5 821.2573,-85.5 689.6421,-85.5"/>
<text text-anchor="middle" x="755.4497" y="-91.5" font-family="FreeSans.ttf" font-size="10.00" fill="#000000">muq::Modeling::ModPiece</text>
</a>
</g>
</g>
<!-- Node8&#45;&gt;Node5 -->
<g id="edge3" class="edge">
<title>Node8&#45;&gt;Node5</title>
<path fill="none" stroke="#191970" d="M831.2926,-101.8384C840.9893,-102.7766 850.9439,-103.7398 860.7151,-104.6852"/>
<polygon fill="#191970" stroke="#191970" points="831.5901,-98.3509 821.2995,-100.8715 830.9159,-105.3184 831.5901,-98.3509"/>
</g>
<!-- Node9 -->
<g id="node5" class="node">
<title>Node9</title>
<g id="a_node5"><a xlink:href="classmuq_1_1Modeling_1_1WorkPiece.html" target="_top" xlink:title="Base class for MUQ&#39;s modelling envronment. ">
<polygon fill="#ffffff" stroke="#000000" points="466.624,-85.5 466.624,-103.5 601.9404,-103.5 601.9404,-85.5 466.624,-85.5"/>
<text text-anchor="middle" x="534.2822" y="-91.5" font-family="FreeSans.ttf" font-size="10.00" fill="#000000">muq::Modeling::WorkPiece</text>
</a>
</g>
</g>
<!-- Node9&#45;&gt;Node8 -->
<g id="edge4" class="edge">
<title>Node9&#45;&gt;Node8</title>
<path fill="none" stroke="#191970" d="M612.4169,-94.5C637.652,-94.5 665.3605,-94.5 689.6145,-94.5"/>
<polygon fill="#191970" stroke="#191970" points="612.1428,-91.0001 602.1428,-94.5 612.1428,-98.0001 612.1428,-91.0001"/>
</g>
<!-- Node10 -->
<g id="node6" class="node">
<title>Node10</title>
<polygon fill="#ffffff" stroke="#bfbfbf" points="269.7998,-141.5 269.7998,-169.5 373.3584,-169.5 373.3584,-141.5 269.7998,-141.5"/>
<text text-anchor="start" x="277.7998" y="-157.5" font-family="FreeSans.ttf" font-size="10.00" fill="#000000">std::map&lt; unsigned</text>
<text text-anchor="middle" x="321.5791" y="-147.5" font-family="FreeSans.ttf" font-size="10.00" fill="#000000"> int, int &gt;</text>
</g>
<!-- Node10&#45;&gt;Node9 -->
<g id="edge5" class="edge">
<title>Node10&#45;&gt;Node9</title>
<path fill="none" stroke="#9a32cd" stroke-dasharray="5,2" d="M383.5842,-146.9629C404.8746,-142.5859 428.4175,-136.0803 448.624,-126.5 457.7818,-122.1581 457.545,-117.0042 466.624,-112.5 473.9193,-108.8807 482.0303,-105.923 490.0304,-103.5284"/>
<polygon fill="#9a32cd" stroke="#9a32cd" points="382.8119,-143.5473 373.6605,-148.886 384.1438,-150.4195 382.8119,-143.5473"/>
<text text-anchor="middle" x="419.9912" y="-146.5" font-family="FreeSans.ttf" font-size="10.00" fill="#000000"> inputSizes</text>
</g>
<!-- Node11 -->
<g id="node7" class="node">
<title>Node11</title>
<g id="a_node7"><a xlink:title="STL class. ">
<polygon fill="#ffffff" stroke="#bfbfbf" points="131.0957,-77.5 131.0957,-95.5 190.4453,-95.5 190.4453,-77.5 131.0957,-77.5"/>
<text text-anchor="middle" x="160.7705" y="-83.5" font-family="FreeSans.ttf" font-size="10.00" fill="#000000">std::string</text>
</a>
</g>
</g>
<!-- Node11&#45;&gt;Node9 -->
<g id="edge6" class="edge">
<title>Node11&#45;&gt;Node9</title>
<path fill="none" stroke="#9a32cd" stroke-dasharray="5,2" d="M200.64,-91.7942C203.2787,-92.0592 205.8985,-92.2984 208.4453,-92.5 314.8917,-100.926 341.8737,-100.9911 448.624,-98.5 454.4285,-98.3645 460.4525,-98.1775 466.4943,-97.9578"/>
<polygon fill="#9a32cd" stroke="#9a32cd" points="200.8063,-88.2913 190.4819,-90.6697 200.0361,-95.2488 200.8063,-88.2913"/>
<text text-anchor="middle" x="321.5791" y="-102.5" font-family="FreeSans.ttf" font-size="10.00" fill="#000000"> name</text>
</g>
<!-- Node14 -->
<g id="node10" class="node">
<title>Node14</title>
<polygon fill="#ffffff" stroke="#bfbfbf" points="269.7998,-47.5 269.7998,-75.5 373.3584,-75.5 373.3584,-47.5 269.7998,-47.5"/>
<text text-anchor="start" x="277.7998" y="-63.5" font-family="FreeSans.ttf" font-size="10.00" fill="#000000">std::map&lt; unsigned</text>
<text text-anchor="middle" x="321.5791" y="-53.5" font-family="FreeSans.ttf" font-size="10.00" fill="#000000"> int, std::string &gt;</text>
</g>
<!-- Node11&#45;&gt;Node14 -->
<g id="edge10" class="edge">
<title>Node11&#45;&gt;Node14</title>
<path fill="none" stroke="#9a32cd" stroke-dasharray="5,2" d="M200.7498,-80.2846C221.6025,-77.0428 247.3585,-73.0387 269.7265,-69.5612"/>
<polygon fill="#9a32cd" stroke="#9a32cd" points="199.9841,-76.8616 190.6405,-81.8563 201.0595,-83.7785 199.9841,-76.8616"/>
<text text-anchor="middle" x="230.1226" y="-80.5" font-family="FreeSans.ttf" font-size="10.00" fill="#000000"> elements</text>
</g>
<!-- Node12 -->
<g id="node8" class="node">
<title>Node12</title>
<g id="a_node8"><a xlink:title="STL class. ">
<polygon fill="#ffffff" stroke="#bfbfbf" points="0,-72.5 0,-100.5 94.0957,-100.5 94.0957,-72.5 0,-72.5"/>
<text text-anchor="start" x="8" y="-88.5" font-family="FreeSans.ttf" font-size="10.00" fill="#000000">std::basic_string&lt;</text>
<text text-anchor="middle" x="47.0479" y="-78.5" font-family="FreeSans.ttf" font-size="10.00" fill="#000000"> char &gt;</text>
</a>
</g>
</g>
<!-- Node12&#45;&gt;Node11 -->
<g id="edge7" class="edge">
<title>Node12&#45;&gt;Node11</title>
<path fill="none" stroke="#191970" d="M104.2966,-86.5C113.5577,-86.5 122.8051,-86.5 131.056,-86.5"/>
<polygon fill="#191970" stroke="#191970" points="104.2886,-83.0001 94.2885,-86.5 104.2885,-90.0001 104.2886,-83.0001"/>
</g>
<!-- Node13 -->
<g id="node9" class="node">
<title>Node13</title>
<polygon fill="#ffffff" stroke="#bfbfbf" points="273.9746,-.5 273.9746,-28.5 369.1836,-28.5 369.1836,-.5 273.9746,-.5"/>
<text text-anchor="start" x="281.9746" y="-16.5" font-family="FreeSans.ttf" font-size="10.00" fill="#000000">std::vector&lt; boost</text>
<text text-anchor="middle" x="321.5791" y="-6.5" font-family="FreeSans.ttf" font-size="10.00" fill="#000000">::any &gt;</text>
</g>
<!-- Node13&#45;&gt;Node9 -->
<g id="edge8" class="edge">
<title>Node13&#45;&gt;Node9</title>
<path fill="none" stroke="#9a32cd" stroke-dasharray="5,2" d="M379.1778,-27.0516C401.9356,-33.6242 427.6134,-43.1556 448.624,-56.5 458.4432,-62.7364 456.6655,-69.4886 466.624,-75.5 473.4133,-79.5983 481.1168,-82.8404 488.8324,-85.3968"/>
<polygon fill="#9a32cd" stroke="#9a32cd" points="379.8616,-23.6096 369.291,-24.3253 378.0008,-30.3577 379.8616,-23.6096"/>
<text text-anchor="middle" x="419.9912" y="-58.5" font-family="FreeSans.ttf" font-size="10.00" fill="#000000"> outputs</text>
</g>
<!-- Node14&#45;&gt;Node9 -->
<g id="edge9" class="edge">
<title>Node14&#45;&gt;Node9</title>
<path fill="none" stroke="#9a32cd" stroke-dasharray="5,2" d="M383.5452,-69.14C404.2704,-71.8687 427.4751,-75.1122 448.624,-78.5 461.4707,-80.5579 475.3529,-83.0388 488.125,-85.4263"/>
<polygon fill="#9a32cd" stroke="#9a32cd" points="383.9584,-65.6643 373.5901,-67.8434 383.0543,-72.6057 383.9584,-65.6643"/>
<text text-anchor="middle" x="419.9912" y="-90.5" font-family="FreeSans.ttf" font-size="10.00" fill="#000000"> outputTypes</text>
<text text-anchor="middle" x="419.9912" y="-80.5" font-family="FreeSans.ttf" font-size="10.00" fill="#000000">inputTypes</text>
</g>
<!-- Node15 -->
<g id="node11" class="node">
<title>Node15</title>
<polygon fill="#ffffff" stroke="#bfbfbf" points="486.1211,-38.5 486.1211,-66.5 582.4434,-66.5 582.4434,-38.5 486.1211,-38.5"/>
<text text-anchor="start" x="494.1211" y="-54.5" font-family="FreeSans.ttf" font-size="10.00" fill="#000000">std::vector&lt; Eigen</text>
<text text-anchor="middle" x="534.2822" y="-44.5" font-family="FreeSans.ttf" font-size="10.00" fill="#000000">::VectorXd &gt;</text>
</g>
<!-- Node15&#45;&gt;Node8 -->
<g id="edge11" class="edge">
<title>Node15&#45;&gt;Node8</title>
<path fill="none" stroke="#9a32cd" stroke-dasharray="5,2" d="M592.456,-58.5091C616.266,-61.4275 644.0096,-65.4179 668.8662,-70.5 688.4278,-74.4995 710.0737,-80.4995 726.8292,-85.4996"/>
<polygon fill="#9a32cd" stroke="#9a32cd" points="592.8564,-55.0322 582.5125,-57.324 592.0279,-61.983 592.8564,-55.0322"/>
<text text-anchor="middle" x="644.4033" y="-82.5" font-family="FreeSans.ttf" font-size="10.00" fill="#000000"> outputs</text>
<text text-anchor="middle" x="644.4033" y="-72.5" font-family="FreeSans.ttf" font-size="10.00" fill="#000000">cacheInput</text>
</g>
</g>
</svg>
