<?xml version="1.0" encoding="UTF-8" standalone="no"?>
<!DOCTYPE svg PUBLIC "-//W3C//DTD SVG 1.1//EN"
 "http://www.w3.org/Graphics/SVG/1.1/DTD/svg11.dtd">
<!-- Generated by graphviz version 2.40.1 (20161225.0304)
 -->
<!-- Title: BeamModel.BeamModel Pages: 1 -->
<svg width="133pt" height="82pt"
 viewBox="0.00 0.00 133.50 82.00" xmlns="http://www.w3.org/2000/svg" xmlns:xlink="http://www.w3.org/1999/xlink">
<g id="graph0" class="graph" transform="scale(1 1) rotate(0) translate(4 78)">
<title>BeamModel.BeamModel</title>
<polygon fill="#ffffff" stroke="transparent" points="-4,4 -4,-78 129.4971,-78 129.4971,4 -4,4"/>
<!-- Node2 -->
<g id="node1" class="node">
<title>Node2</title>
<polygon fill="#bfbfbf" stroke="#000000" points="0,-.5 0,-18.5 125.4971,-18.5 125.4971,-.5 0,-.5"/>
<text text-anchor="middle" x="62.7485" y="-6.5" font-family="FreeSans.ttf" font-size="10.00" fill="#000000">BeamModel.BeamModel</text>
</g>
<!-- Node3 -->
<g id="node2" class="node">
<title>Node3</title>
<polygon fill="#ffffff" stroke="#bfbfbf" points="26.6797,-55.5 26.6797,-73.5 98.8174,-73.5 98.8174,-55.5 26.6797,-55.5"/>
<text text-anchor="middle" x="62.7485" y="-61.5" font-family="FreeSans.ttf" font-size="10.00" fill="#000000">PyModPiece</text>
</g>
<!-- Node3&#45;&gt;Node2 -->
<g id="edge1" class="edge">
<title>Node3&#45;&gt;Node2</title>
<path fill="none" stroke="#191970" d="M62.7485,-45.383C62.7485,-36.3738 62.7485,-26.0373 62.7485,-18.7795"/>
<polygon fill="#191970" stroke="#191970" points="59.2486,-45.4178 62.7485,-55.4179 66.2486,-45.4179 59.2486,-45.4178"/>
</g>
</g>
</svg>
