<?xml version="1.0" encoding="UTF-8" standalone="no"?>
<!DOCTYPE svg PUBLIC "-//W3C//DTD SVG 1.1//EN"
 "http://www.w3.org/Graphics/SVG/1.1/DTD/svg11.dtd">
<!-- Generated by graphviz version 2.40.1 (20161225.0304)
 -->
<!-- Title: muq::SamplingAlgorithms::MarkovChain Pages: 1 -->
<svg width="138pt" height="102pt"
 viewBox="0.00 0.00 137.94 102.00" xmlns="http://www.w3.org/2000/svg" xmlns:xlink="http://www.w3.org/1999/xlink">
<g id="graph0" class="graph" transform="scale(1 1) rotate(0) translate(4 98)">
<title>muq::SamplingAlgorithms::MarkovChain</title>
<polygon fill="#ffffff" stroke="transparent" points="-4,4 -4,-98 133.9355,-98 133.9355,4 -4,4"/>
<!-- Node0 -->
<g id="node1" class="node">
<title>Node0</title>
<polygon fill="#bfbfbf" stroke="#000000" points="0,-.5 0,-28.5 129.9355,-28.5 129.9355,-.5 0,-.5"/>
<text text-anchor="start" x="8" y="-16.5" font-family="FreeSans.ttf" font-size="10.00" fill="#000000">muq::SamplingAlgorithms</text>
<text text-anchor="middle" x="64.9678" y="-6.5" font-family="FreeSans.ttf" font-size="10.00" fill="#000000">::MarkovChain</text>
</g>
<!-- Node1 -->
<g id="node2" class="node">
<title>Node1</title>
<g id="a_node2"><a xlink:href="classmuq_1_1SamplingAlgorithms_1_1SampleCollection.html" target="_top" xlink:title="A class to hold and analyze a collection of SamplingState objects. ">
<polygon fill="#ffffff" stroke="#000000" points="0,-65.5 0,-93.5 129.9355,-93.5 129.9355,-65.5 0,-65.5"/>
<text text-anchor="start" x="8" y="-81.5" font-family="FreeSans.ttf" font-size="10.00" fill="#000000">muq::SamplingAlgorithms</text>
<text text-anchor="middle" x="64.9678" y="-71.5" font-family="FreeSans.ttf" font-size="10.00" fill="#000000">::SampleCollection</text>
</a>
</g>
</g>
<!-- Node1&#45;&gt;Node0 -->
<g id="edge1" class="edge">
<title>Node1&#45;&gt;Node0</title>
<path fill="none" stroke="#191970" d="M64.9678,-55.1081C64.9678,-46.1539 64.9678,-36.3227 64.9678,-28.5765"/>
<polygon fill="#191970" stroke="#191970" points="61.4679,-55.3959 64.9678,-65.396 68.4679,-55.396 61.4679,-55.3959"/>
</g>
</g>
</svg>
