<?xml version="1.0" encoding="UTF-8" standalone="no"?>
<!DOCTYPE svg PUBLIC "-//W3C//DTD SVG 1.1//EN"
 "http://www.w3.org/Graphics/SVG/1.1/DTD/svg11.dtd">
<!-- Generated by graphviz version 2.40.1 (20161225.0304)
 -->
<!-- Title: muq::SamplingAlgorithms::MarkovChain Pages: 1 -->
<svg width="819pt" height="104pt"
 viewBox="0.00 0.00 819.10 104.00" xmlns="http://www.w3.org/2000/svg" xmlns:xlink="http://www.w3.org/1999/xlink">
<g id="graph0" class="graph" transform="scale(1 1) rotate(0) translate(4 100)">
<title>muq::SamplingAlgorithms::MarkovChain</title>
<polygon fill="#ffffff" stroke="transparent" points="-4,4 -4,-100 815.1035,-100 815.1035,4 -4,4"/>
<!-- Node2 -->
<g id="node1" class="node">
<title>Node2</title>
<polygon fill="#bfbfbf" stroke="#000000" points="681.168,-33.5 681.168,-61.5 811.1035,-61.5 811.1035,-33.5 681.168,-33.5"/>
<text text-anchor="start" x="689.168" y="-49.5" font-family="FreeSans.ttf" font-size="10.00" fill="#000000">muq::SamplingAlgorithms</text>
<text text-anchor="middle" x="746.1357" y="-39.5" font-family="FreeSans.ttf" font-size="10.00" fill="#000000">::MarkovChain</text>
</g>
<!-- Node3 -->
<g id="node2" class="node">
<title>Node3</title>
<g id="a_node2"><a xlink:href="classmuq_1_1SamplingAlgorithms_1_1SampleCollection.html" target="_top" xlink:title="A class to hold and analyze a collection of SamplingState objects. ">
<polygon fill="#ffffff" stroke="#000000" points="487.5737,-61.5 487.5737,-89.5 617.5093,-89.5 617.5093,-61.5 487.5737,-61.5"/>
<text text-anchor="start" x="495.5737" y="-77.5" font-family="FreeSans.ttf" font-size="10.00" fill="#000000">muq::SamplingAlgorithms</text>
<text text-anchor="middle" x="552.5415" y="-67.5" font-family="FreeSans.ttf" font-size="10.00" fill="#000000">::SampleCollection</text>
</a>
</g>
</g>
<!-- Node3&#45;&gt;Node2 -->
<g id="edge1" class="edge">
<title>Node3&#45;&gt;Node2</title>
<path fill="none" stroke="#191970" d="M627.7531,-64.622C645.3202,-62.0812 663.8867,-59.3959 680.9751,-56.9243"/>
<polygon fill="#191970" stroke="#191970" points="626.9401,-61.203 617.5441,-66.0985 627.9422,-68.131 626.9401,-61.203"/>
</g>
<!-- Node4 -->
<g id="node3" class="node">
<title>Node4</title>
<polygon fill="#ffffff" stroke="#bfbfbf" points="249.7852,-57.5 249.7852,-95.5 405.5703,-95.5 405.5703,-57.5 249.7852,-57.5"/>
<text text-anchor="start" x="257.7852" y="-83.5" font-family="FreeSans.ttf" font-size="10.00" fill="#000000">std::vector&lt; std::shared</text>
<text text-anchor="start" x="257.7852" y="-73.5" font-family="FreeSans.ttf" font-size="10.00" fill="#000000">_ptr&lt; muq::SamplingAlgorithms</text>
<text text-anchor="middle" x="327.6777" y="-63.5" font-family="FreeSans.ttf" font-size="10.00" fill="#000000">::SamplingState &gt; &gt;</text>
</g>
<!-- Node4&#45;&gt;Node3 -->
<g id="edge2" class="edge">
<title>Node4&#45;&gt;Node3</title>
<path fill="none" stroke="#9a32cd" stroke-dasharray="5,2" d="M415.8027,-76.1081C439.6417,-76.0021 465.0119,-75.8893 487.3435,-75.7899"/>
<polygon fill="#9a32cd" stroke="#9a32cd" points="415.6774,-72.6085 405.6931,-76.1531 415.7086,-79.6085 415.6774,-72.6085"/>
<text text-anchor="middle" x="445.2476" y="-77.5" font-family="FreeSans.ttf" font-size="10.00" fill="#000000"> samples</text>
</g>
<!-- Node5 -->
<g id="node4" class="node">
<title>Node5</title>
<polygon fill="#ffffff" stroke="#bfbfbf" points="484.9248,-3.5 484.9248,-41.5 620.1582,-41.5 620.1582,-3.5 484.9248,-3.5"/>
<text text-anchor="start" x="492.9248" y="-29.5" font-family="FreeSans.ttf" font-size="10.00" fill="#000000">std::vector&lt; std::unordered</text>
<text text-anchor="start" x="492.9248" y="-19.5" font-family="FreeSans.ttf" font-size="10.00" fill="#000000">_map&lt; std::string, boost</text>
<text text-anchor="middle" x="552.5415" y="-9.5" font-family="FreeSans.ttf" font-size="10.00" fill="#000000">::any &gt; &gt;</text>
</g>
<!-- Node5&#45;&gt;Node2 -->
<g id="edge3" class="edge">
<title>Node5&#45;&gt;Node2</title>
<path fill="none" stroke="#9a32cd" stroke-dasharray="5,2" d="M630.5663,-32.5758C647.3251,-34.74 664.8646,-37.005 681.0699,-39.0977"/>
<polygon fill="#9a32cd" stroke="#9a32cd" points="630.6173,-29.0534 620.2514,-31.2438 629.7207,-35.9958 630.6173,-29.0534"/>
<text text-anchor="middle" x="650.6631" y="-37.5" font-family="FreeSans.ttf" font-size="10.00" fill="#000000"> meta</text>
</g>
<!-- Node6 -->
<g id="node5" class="node">
<title>Node6</title>
<polygon fill="#ffffff" stroke="#bfbfbf" points="274.9268,-.5 274.9268,-38.5 380.4287,-38.5 380.4287,-.5 274.9268,-.5"/>
<text text-anchor="start" x="282.9268" y="-26.5" font-family="FreeSans.ttf" font-size="10.00" fill="#000000">std::unordered_map</text>
<text text-anchor="start" x="282.9268" y="-16.5" font-family="FreeSans.ttf" font-size="10.00" fill="#000000">&lt; std::string, boost</text>
<text text-anchor="middle" x="327.6777" y="-6.5" font-family="FreeSans.ttf" font-size="10.00" fill="#000000">::any &gt;</text>
</g>
<!-- Node6&#45;&gt;Node5 -->
<g id="edge4" class="edge">
<title>Node6&#45;&gt;Node5</title>
<path fill="none" stroke="#9a32cd" stroke-dasharray="5,2" d="M390.7671,-20.3417C419.9799,-20.7314 454.7368,-21.1951 484.5333,-21.5927"/>
<polygon fill="#9a32cd" stroke="#9a32cd" points="390.7284,-16.841 380.6826,-20.2072 390.635,-23.8403 390.7284,-16.841"/>
<text text-anchor="middle" x="445.2476" y="-22.5" font-family="FreeSans.ttf" font-size="10.00" fill="#000000"> elements</text>
</g>
<!-- Node7 -->
<g id="node6" class="node">
<title>Node7</title>
<g id="a_node6"><a xlink:title="STL class. ">
<polygon fill="#ffffff" stroke="#bfbfbf" points="131.0957,-10.5 131.0957,-28.5 190.4453,-28.5 190.4453,-10.5 131.0957,-10.5"/>
<text text-anchor="middle" x="160.7705" y="-16.5" font-family="FreeSans.ttf" font-size="10.00" fill="#000000">std::string</text>
</a>
</g>
</g>
<!-- Node7&#45;&gt;Node6 -->
<g id="edge5" class="edge">
<title>Node7&#45;&gt;Node6</title>
<path fill="none" stroke="#9a32cd" stroke-dasharray="5,2" d="M200.6926,-19.5C222.8988,-19.5 250.8158,-19.5 274.8153,-19.5"/>
<polygon fill="#9a32cd" stroke="#9a32cd" points="200.6102,-16.0001 190.6102,-19.5 200.6101,-23.0001 200.6102,-16.0001"/>
<text text-anchor="middle" x="220.1152" y="-21.5" font-family="FreeSans.ttf" font-size="10.00" fill="#000000"> keys</text>
</g>
<!-- Node8 -->
<g id="node7" class="node">
<title>Node8</title>
<g id="a_node7"><a xlink:title="STL class. ">
<polygon fill="#ffffff" stroke="#bfbfbf" points="0,-5.5 0,-33.5 94.0957,-33.5 94.0957,-5.5 0,-5.5"/>
<text text-anchor="start" x="8" y="-21.5" font-family="FreeSans.ttf" font-size="10.00" fill="#000000">std::basic_string&lt;</text>
<text text-anchor="middle" x="47.0479" y="-11.5" font-family="FreeSans.ttf" font-size="10.00" fill="#000000"> char &gt;</text>
</a>
</g>
</g>
<!-- Node8&#45;&gt;Node7 -->
<g id="edge6" class="edge">
<title>Node8&#45;&gt;Node7</title>
<path fill="none" stroke="#191970" d="M104.2966,-19.5C113.5577,-19.5 122.8051,-19.5 131.056,-19.5"/>
<polygon fill="#191970" stroke="#191970" points="104.2886,-16.0001 94.2885,-19.5 104.2885,-23.0001 104.2886,-16.0001"/>
</g>
</g>
</svg>
