<?xml version="1.0" encoding="UTF-8" standalone="no"?>
<!DOCTYPE svg PUBLIC "-//W3C//DTD SVG 1.1//EN"
 "http://www.w3.org/Graphics/SVG/1.1/DTD/svg11.dtd">
<!-- Generated by graphviz version 2.40.1 (20161225.0304)
 -->
<!-- Title: muq::Optimization::Optimizer Pages: 1 -->
<svg width="860pt" height="178pt"
 viewBox="0.00 0.00 859.73 178.00" xmlns="http://www.w3.org/2000/svg" xmlns:xlink="http://www.w3.org/1999/xlink">
<g id="graph0" class="graph" transform="scale(1 1) rotate(0) translate(4 174)">
<title>muq::Optimization::Optimizer</title>
<polygon fill="#ffffff" stroke="transparent" points="-4,4 -4,-174 855.7285,-174 855.7285,4 -4,4"/>
<!-- Node3 -->
<g id="node1" class="node">
<title>Node3</title>
<polygon fill="#bfbfbf" stroke="#000000" points="749.5859,-55.5 749.5859,-83.5 851.7285,-83.5 851.7285,-55.5 749.5859,-55.5"/>
<text text-anchor="start" x="757.5859" y="-71.5" font-family="FreeSans.ttf" font-size="10.00" fill="#000000">muq::Optimization::</text>
<text text-anchor="middle" x="800.6572" y="-61.5" font-family="FreeSans.ttf" font-size="10.00" fill="#000000">Optimizer</text>
</g>
<!-- Node4 -->
<g id="node2" class="node">
<title>Node4</title>
<g id="a_node2"><a xlink:href="classmuq_1_1Modeling_1_1WorkPiece.html" target="_top" xlink:title="Base class for MUQ&#39;s modelling envronment. ">
<polygon fill="#ffffff" stroke="#000000" points="486.3164,-85.5 486.3164,-103.5 621.6328,-103.5 621.6328,-85.5 486.3164,-85.5"/>
<text text-anchor="middle" x="553.9746" y="-91.5" font-family="FreeSans.ttf" font-size="10.00" fill="#000000">muq::Modeling::WorkPiece</text>
</a>
</g>
</g>
<!-- Node4&#45;&gt;Node3 -->
<g id="edge1" class="edge">
<title>Node4&#45;&gt;Node3</title>
<path fill="none" stroke="#191970" d="M631.8315,-86.6096C670.254,-82.7157 715.5245,-78.1278 749.5099,-74.6835"/>
<polygon fill="#191970" stroke="#191970" points="631.3041,-83.145 621.708,-87.6356 632.01,-90.1094 631.3041,-83.145"/>
</g>
<!-- Node5 -->
<g id="node3" class="node">
<title>Node5</title>
<polygon fill="#ffffff" stroke="#bfbfbf" points="269.7998,-141.5 269.7998,-169.5 373.3584,-169.5 373.3584,-141.5 269.7998,-141.5"/>
<text text-anchor="start" x="277.7998" y="-157.5" font-family="FreeSans.ttf" font-size="10.00" fill="#000000">std::map&lt; unsigned</text>
<text text-anchor="middle" x="321.5791" y="-147.5" font-family="FreeSans.ttf" font-size="10.00" fill="#000000"> int, int &gt;</text>
</g>
<!-- Node5&#45;&gt;Node4 -->
<g id="edge2" class="edge">
<title>Node5&#45;&gt;Node4</title>
<path fill="none" stroke="#9a32cd" stroke-dasharray="5,2" d="M383.3885,-142.3094C404.1925,-137.6259 427.4847,-132.1157 448.624,-126.5 475.0424,-119.4819 504.8187,-110.3194 525.9583,-103.5981"/>
<polygon fill="#9a32cd" stroke="#9a32cd" points="382.3937,-138.9452 373.3959,-144.5389 383.9181,-145.7772 382.3937,-138.9452"/>
<text text-anchor="middle" x="419.9912" y="-141.5" font-family="FreeSans.ttf" font-size="10.00" fill="#000000"> inputSizes</text>
</g>
<!-- Node6 -->
<g id="node4" class="node">
<title>Node6</title>
<g id="a_node4"><a xlink:title="STL class. ">
<polygon fill="#ffffff" stroke="#bfbfbf" points="131.0957,-77.5 131.0957,-95.5 190.4453,-95.5 190.4453,-77.5 131.0957,-77.5"/>
<text text-anchor="middle" x="160.7705" y="-83.5" font-family="FreeSans.ttf" font-size="10.00" fill="#000000">std::string</text>
</a>
</g>
</g>
<!-- Node6&#45;&gt;Node4 -->
<g id="edge3" class="edge">
<title>Node6&#45;&gt;Node4</title>
<path fill="none" stroke="#9a32cd" stroke-dasharray="5,2" d="M200.64,-91.7942C203.2787,-92.0592 205.8985,-92.2984 208.4453,-92.5 314.8917,-100.926 341.8638,-100.526 448.624,-98.5 460.7935,-98.2691 473.7494,-97.8882 486.262,-97.4509"/>
<polygon fill="#9a32cd" stroke="#9a32cd" points="200.8063,-88.2913 190.4819,-90.6697 200.0361,-95.2488 200.8063,-88.2913"/>
<text text-anchor="middle" x="321.5791" y="-102.5" font-family="FreeSans.ttf" font-size="10.00" fill="#000000"> name</text>
</g>
<!-- Node9 -->
<g id="node7" class="node">
<title>Node9</title>
<polygon fill="#ffffff" stroke="#bfbfbf" points="269.7998,-47.5 269.7998,-75.5 373.3584,-75.5 373.3584,-47.5 269.7998,-47.5"/>
<text text-anchor="start" x="277.7998" y="-63.5" font-family="FreeSans.ttf" font-size="10.00" fill="#000000">std::map&lt; unsigned</text>
<text text-anchor="middle" x="321.5791" y="-53.5" font-family="FreeSans.ttf" font-size="10.00" fill="#000000"> int, std::string &gt;</text>
</g>
<!-- Node6&#45;&gt;Node9 -->
<g id="edge7" class="edge">
<title>Node6&#45;&gt;Node9</title>
<path fill="none" stroke="#9a32cd" stroke-dasharray="5,2" d="M200.7498,-80.2846C221.6025,-77.0428 247.3585,-73.0387 269.7265,-69.5612"/>
<polygon fill="#9a32cd" stroke="#9a32cd" points="199.9841,-76.8616 190.6405,-81.8563 201.0595,-83.7785 199.9841,-76.8616"/>
<text text-anchor="middle" x="230.1226" y="-80.5" font-family="FreeSans.ttf" font-size="10.00" fill="#000000"> elements</text>
</g>
<!-- Node7 -->
<g id="node5" class="node">
<title>Node7</title>
<g id="a_node5"><a xlink:title="STL class. ">
<polygon fill="#ffffff" stroke="#bfbfbf" points="0,-72.5 0,-100.5 94.0957,-100.5 94.0957,-72.5 0,-72.5"/>
<text text-anchor="start" x="8" y="-88.5" font-family="FreeSans.ttf" font-size="10.00" fill="#000000">std::basic_string&lt;</text>
<text text-anchor="middle" x="47.0479" y="-78.5" font-family="FreeSans.ttf" font-size="10.00" fill="#000000"> char &gt;</text>
</a>
</g>
</g>
<!-- Node7&#45;&gt;Node6 -->
<g id="edge4" class="edge">
<title>Node7&#45;&gt;Node6</title>
<path fill="none" stroke="#191970" d="M104.2966,-86.5C113.5577,-86.5 122.8051,-86.5 131.056,-86.5"/>
<polygon fill="#191970" stroke="#191970" points="104.2886,-83.0001 94.2885,-86.5 104.2885,-90.0001 104.2886,-83.0001"/>
</g>
<!-- Node8 -->
<g id="node6" class="node">
<title>Node8</title>
<polygon fill="#ffffff" stroke="#bfbfbf" points="273.9746,-.5 273.9746,-28.5 369.1836,-28.5 369.1836,-.5 273.9746,-.5"/>
<text text-anchor="start" x="281.9746" y="-16.5" font-family="FreeSans.ttf" font-size="10.00" fill="#000000">std::vector&lt; boost</text>
<text text-anchor="middle" x="321.5791" y="-6.5" font-family="FreeSans.ttf" font-size="10.00" fill="#000000">::any &gt;</text>
</g>
<!-- Node8&#45;&gt;Node4 -->
<g id="edge5" class="edge">
<title>Node8&#45;&gt;Node4</title>
<path fill="none" stroke="#9a32cd" stroke-dasharray="5,2" d="M379.2704,-27.9374C401.9327,-34.7359 427.5174,-44.3881 448.624,-57.5 458.2343,-63.4701 456.6942,-70.078 466.624,-75.5 474.252,-79.6651 482.7226,-82.9171 491.3021,-85.4562"/>
<polygon fill="#9a32cd" stroke="#9a32cd" points="380.0034,-24.5064 369.4255,-25.1047 378.0678,-31.2334 380.0034,-24.5064"/>
<text text-anchor="middle" x="419.9912" y="-59.5" font-family="FreeSans.ttf" font-size="10.00" fill="#000000"> outputs</text>
</g>
<!-- Node9&#45;&gt;Node4 -->
<g id="edge6" class="edge">
<title>Node9&#45;&gt;Node4</title>
<path fill="none" stroke="#9a32cd" stroke-dasharray="5,2" d="M383.4816,-69.5598C404.2024,-72.3172 427.4207,-75.4715 448.624,-78.5 463.9161,-80.6842 480.4406,-83.1457 495.7666,-85.4714"/>
<polygon fill="#9a32cd" stroke="#9a32cd" points="383.9033,-66.0852 373.53,-68.2403 382.9831,-73.0244 383.9033,-66.0852"/>
<text text-anchor="middle" x="419.9912" y="-90.5" font-family="FreeSans.ttf" font-size="10.00" fill="#000000"> outputTypes</text>
<text text-anchor="middle" x="419.9912" y="-80.5" font-family="FreeSans.ttf" font-size="10.00" fill="#000000">inputTypes</text>
</g>
<!-- Node10 -->
<g id="node8" class="node">
<title>Node10</title>
<polygon fill="#ffffff" stroke="#bfbfbf" points="466.624,-38.5 466.624,-66.5 641.3252,-66.5 641.3252,-38.5 466.624,-38.5"/>
<text text-anchor="start" x="474.624" y="-54.5" font-family="FreeSans.ttf" font-size="10.00" fill="#000000">std::vector&lt; std::shared</text>
<text text-anchor="middle" x="553.9746" y="-44.5" font-family="FreeSans.ttf" font-size="10.00" fill="#000000">_ptr&lt; muq::Modeling::ModPiece &gt; &gt;</text>
</g>
<!-- Node10&#45;&gt;Node3 -->
<g id="edge8" class="edge">
<title>Node10&#45;&gt;Node3</title>
<path fill="none" stroke="#9a32cd" stroke-dasharray="5,2" d="M651.5854,-51.8319C677.6326,-52.4357 705.7238,-53.7934 731.5859,-56.5 737.4111,-57.1096 743.4802,-57.9477 749.4968,-58.9071"/>
<polygon fill="#9a32cd" stroke="#9a32cd" points="651.3977,-48.3277 641.3307,-51.63 651.2598,-55.3263 651.3977,-48.3277"/>
<text text-anchor="middle" x="695.4556" y="-68.5" font-family="FreeSans.ttf" font-size="10.00" fill="#000000"> ineqConstraints</text>
<text text-anchor="middle" x="695.4556" y="-58.5" font-family="FreeSans.ttf" font-size="10.00" fill="#000000">eqConstraints</text>
</g>
</g>
</svg>
