<?xml version="1.0" encoding="UTF-8" standalone="no"?>
<!DOCTYPE svg PUBLIC "-//W3C//DTD SVG 1.1//EN"
 "http://www.w3.org/Graphics/SVG/1.1/DTD/svg11.dtd">
<!-- Generated by graphviz version 2.40.1 (20161225.0304)
 -->
<!-- Title: muq::SamplingAlgorithms::SamplingAlgorithm Pages: 1 -->
<svg width="304pt" height="272pt"
 viewBox="0.00 0.00 303.87 272.00" xmlns="http://www.w3.org/2000/svg" xmlns:xlink="http://www.w3.org/1999/xlink">
<g id="graph0" class="graph" transform="scale(1 1) rotate(0) translate(4 268)">
<title>muq::SamplingAlgorithms::SamplingAlgorithm</title>
<polygon fill="#ffffff" stroke="transparent" points="-4,4 -4,-268 299.8711,-268 299.8711,4 -4,4"/>
<!-- Node0 -->
<g id="node1" class="node">
<title>Node0</title>
<polygon fill="#bfbfbf" stroke="#000000" points="0,-117.5 0,-145.5 129.9355,-145.5 129.9355,-117.5 0,-117.5"/>
<text text-anchor="start" x="8" y="-133.5" font-family="FreeSans.ttf" font-size="10.00" fill="#000000">muq::SamplingAlgorithms</text>
<text text-anchor="middle" x="64.9678" y="-123.5" font-family="FreeSans.ttf" font-size="10.00" fill="#000000">::SamplingAlgorithm</text>
</g>
<!-- Node1 -->
<g id="node2" class="node">
<title>Node1</title>
<g id="a_node2"><a xlink:href="classmuq_1_1SamplingAlgorithms_1_1GreedyMLMCMC.html" target="_top" xlink:title="Greedy Multilevel MCMC method. ">
<polygon fill="#ffffff" stroke="#000000" points="165.9355,-235.5 165.9355,-263.5 295.8711,-263.5 295.8711,-235.5 165.9355,-235.5"/>
<text text-anchor="start" x="173.9355" y="-251.5" font-family="FreeSans.ttf" font-size="10.00" fill="#000000">muq::SamplingAlgorithms</text>
<text text-anchor="middle" x="230.9033" y="-241.5" font-family="FreeSans.ttf" font-size="10.00" fill="#000000">::GreedyMLMCMC</text>
</a>
</g>
</g>
<!-- Node0&#45;&gt;Node1 -->
<g id="edge1" class="edge">
<title>Node0&#45;&gt;Node1</title>
<path fill="none" stroke="#191970" d="M83.1819,-153.256C101.9886,-174.51 133.1373,-206.4992 165.9355,-226.5 171.4519,-229.8639 177.5318,-232.8321 183.692,-235.4218"/>
<polygon fill="#191970" stroke="#191970" points="85.802,-150.9352 76.6006,-145.6832 80.5185,-155.527 85.802,-150.9352"/>
</g>
<!-- Node2 -->
<g id="node3" class="node">
<title>Node2</title>
<g id="a_node3"><a xlink:href="classmuq_1_1SamplingAlgorithms_1_1ImportanceSampling.html" target="_top" xlink:title="Defines an imporance sampline sampler. ">
<polygon fill="#ffffff" stroke="#000000" points="165.9355,-188.5 165.9355,-216.5 295.8711,-216.5 295.8711,-188.5 165.9355,-188.5"/>
<text text-anchor="start" x="173.9355" y="-204.5" font-family="FreeSans.ttf" font-size="10.00" fill="#000000">muq::SamplingAlgorithms</text>
<text text-anchor="middle" x="230.9033" y="-194.5" font-family="FreeSans.ttf" font-size="10.00" fill="#000000">::ImportanceSampling</text>
</a>
</g>
</g>
<!-- Node0&#45;&gt;Node2 -->
<g id="edge2" class="edge">
<title>Node0&#45;&gt;Node2</title>
<path fill="none" stroke="#191970" d="M101.6608,-150.069C120.6372,-159.3837 144.3,-170.5556 165.9355,-179.5 173.344,-182.5627 181.3247,-185.5978 189.0706,-188.4098"/>
<polygon fill="#191970" stroke="#191970" points="102.9916,-146.8226 92.4763,-145.5266 99.8883,-153.0971 102.9916,-146.8226"/>
</g>
<!-- Node3 -->
<g id="node4" class="node">
<title>Node3</title>
<g id="a_node4"><a xlink:href="classmuq_1_1SamplingAlgorithms_1_1MIMCMC.html" target="_top" xlink:title="Multiindex MCMC method. ">
<polygon fill="#ffffff" stroke="#000000" points="165.9355,-141.5 165.9355,-169.5 295.8711,-169.5 295.8711,-141.5 165.9355,-141.5"/>
<text text-anchor="start" x="173.9355" y="-157.5" font-family="FreeSans.ttf" font-size="10.00" fill="#000000">muq::SamplingAlgorithms</text>
<text text-anchor="middle" x="230.9033" y="-147.5" font-family="FreeSans.ttf" font-size="10.00" fill="#000000">::MIMCMC</text>
</a>
</g>
</g>
<!-- Node0&#45;&gt;Node3 -->
<g id="edge3" class="edge">
<title>Node0&#45;&gt;Node3</title>
<path fill="none" stroke="#191970" d="M140.0525,-142.3598C148.616,-143.5984 157.2926,-144.8534 165.7128,-146.0712"/>
<polygon fill="#191970" stroke="#191970" points="140.4717,-138.8841 130.0736,-140.9166 139.4696,-145.812 140.4717,-138.8841"/>
</g>
<!-- Node4 -->
<g id="node5" class="node">
<title>Node4</title>
<g id="a_node5"><a xlink:href="classmuq_1_1SamplingAlgorithms_1_1MonteCarlo.html" target="_top" xlink:title="muq::SamplingAlgorithms\l::MonteCarlo">
<polygon fill="#ffffff" stroke="#000000" points="165.9355,-94.5 165.9355,-122.5 295.8711,-122.5 295.8711,-94.5 165.9355,-94.5"/>
<text text-anchor="start" x="173.9355" y="-110.5" font-family="FreeSans.ttf" font-size="10.00" fill="#000000">muq::SamplingAlgorithms</text>
<text text-anchor="middle" x="230.9033" y="-100.5" font-family="FreeSans.ttf" font-size="10.00" fill="#000000">::MonteCarlo</text>
</a>
</g>
</g>
<!-- Node0&#45;&gt;Node4 -->
<g id="edge4" class="edge">
<title>Node0&#45;&gt;Node4</title>
<path fill="none" stroke="#191970" d="M140.0525,-121.0927C148.616,-119.9057 157.2926,-118.703 165.7128,-117.5359"/>
<polygon fill="#191970" stroke="#191970" points="139.4984,-117.6359 130.0736,-122.4758 140.4595,-124.5696 139.4984,-117.6359"/>
</g>
<!-- Node5 -->
<g id="node6" class="node">
<title>Node5</title>
<g id="a_node6"><a xlink:href="classmuq_1_1SamplingAlgorithms_1_1SingleChainMCMC.html" target="_top" xlink:title="Defines an MCMC sampler with a single chain. ">
<polygon fill="#ffffff" stroke="#000000" points="165.9355,-47.5 165.9355,-75.5 295.8711,-75.5 295.8711,-47.5 165.9355,-47.5"/>
<text text-anchor="start" x="173.9355" y="-63.5" font-family="FreeSans.ttf" font-size="10.00" fill="#000000">muq::SamplingAlgorithms</text>
<text text-anchor="middle" x="230.9033" y="-53.5" font-family="FreeSans.ttf" font-size="10.00" fill="#000000">::SingleChainMCMC</text>
</a>
</g>
</g>
<!-- Node0&#45;&gt;Node5 -->
<g id="edge5" class="edge">
<title>Node0&#45;&gt;Node5</title>
<path fill="none" stroke="#191970" d="M103.4168,-113.1777C122.1378,-104.4637 145.061,-94.0972 165.9355,-85.5 174.163,-82.1115 183.0624,-78.6767 191.5579,-75.5053"/>
<polygon fill="#191970" stroke="#191970" points="101.8914,-110.0272 94.3181,-117.4364 104.8588,-116.3671 101.8914,-110.0272"/>
</g>
<!-- Node6 -->
<g id="node7" class="node">
<title>Node6</title>
<g id="a_node7"><a xlink:href="classmuq_1_1SamplingAlgorithms_1_1SLMCMC.html" target="_top" xlink:title="Single&#45;level MCMC for multiindex sampling problems. ">
<polygon fill="#ffffff" stroke="#000000" points="165.9355,-.5 165.9355,-28.5 295.8711,-28.5 295.8711,-.5 165.9355,-.5"/>
<text text-anchor="start" x="173.9355" y="-16.5" font-family="FreeSans.ttf" font-size="10.00" fill="#000000">muq::SamplingAlgorithms</text>
<text text-anchor="middle" x="230.9033" y="-6.5" font-family="FreeSans.ttf" font-size="10.00" fill="#000000">::SLMCMC</text>
</a>
</g>
</g>
<!-- Node0&#45;&gt;Node6 -->
<g id="edge6" class="edge">
<title>Node0&#45;&gt;Node6</title>
<path fill="none" stroke="#191970" d="M83.8993,-109.6976C102.8747,-88.9813 133.8119,-58.1556 165.9355,-38.5 172.0894,-34.7346 178.9275,-31.4159 185.7909,-28.5413"/>
<polygon fill="#191970" stroke="#191970" points="81.0884,-107.5888 77.0003,-117.3632 86.2915,-112.2716 81.0884,-107.5888"/>
</g>
</g>
</svg>
