<?xml version="1.0" encoding="UTF-8" standalone="no"?>
<!DOCTYPE svg PUBLIC "-//W3C//DTD SVG 1.1//EN"
 "http://www.w3.org/Graphics/SVG/1.1/DTD/svg11.dtd">
<!-- Generated by graphviz version 2.40.1 (20161225.0304)
 -->
<!-- Title: muq::Approximation::Regression::PoisednessCost Pages: 1 -->
<svg width="158pt" height="212pt"
 viewBox="0.00 0.00 157.96 212.00" xmlns="http://www.w3.org/2000/svg" xmlns:xlink="http://www.w3.org/1999/xlink">
<g id="graph0" class="graph" transform="scale(1 1) rotate(0) translate(4 208)">
<title>muq::Approximation::Regression::PoisednessCost</title>
<polygon fill="#ffffff" stroke="transparent" points="-4,4 -4,-208 153.9551,-208 153.9551,4 -4,4"/>
<!-- Node0 -->
<g id="node1" class="node">
<title>Node0</title>
<polygon fill="#bfbfbf" stroke="#000000" points="0,-.5 0,-28.5 149.9551,-28.5 149.9551,-.5 0,-.5"/>
<text text-anchor="start" x="8" y="-16.5" font-family="FreeSans.ttf" font-size="10.00" fill="#000000">muq::Approximation</text>
<text text-anchor="middle" x="74.9775" y="-6.5" font-family="FreeSans.ttf" font-size="10.00" fill="#000000">::Regression::PoisednessCost</text>
</g>
<!-- Node1 -->
<g id="node2" class="node">
<title>Node1</title>
<g id="a_node2"><a xlink:href="classmuq_1_1Optimization_1_1CostFunction.html" target="_top" xlink:title="The cost function for an optimization routine. ">
<polygon fill="#ffffff" stroke="#000000" points="23.9063,-65.5 23.9063,-93.5 126.0488,-93.5 126.0488,-65.5 23.9063,-65.5"/>
<text text-anchor="start" x="31.9063" y="-81.5" font-family="FreeSans.ttf" font-size="10.00" fill="#000000">muq::Optimization::</text>
<text text-anchor="middle" x="74.9775" y="-71.5" font-family="FreeSans.ttf" font-size="10.00" fill="#000000">CostFunction</text>
</a>
</g>
</g>
<!-- Node1&#45;&gt;Node0 -->
<g id="edge1" class="edge">
<title>Node1&#45;&gt;Node0</title>
<path fill="none" stroke="#191970" d="M74.9775,-55.1081C74.9775,-46.1539 74.9775,-36.3227 74.9775,-28.5765"/>
<polygon fill="#191970" stroke="#191970" points="71.4776,-55.3959 74.9775,-65.396 78.4776,-55.396 71.4776,-55.3959"/>
</g>
<!-- Node2 -->
<g id="node3" class="node">
<title>Node2</title>
<g id="a_node3"><a xlink:href="classmuq_1_1Modeling_1_1ModPiece.html" target="_top" xlink:title="Provides an abstract interface for defining vector&#45;valued model components. ">
<polygon fill="#ffffff" stroke="#000000" points="9.1699,-130.5 9.1699,-148.5 140.7852,-148.5 140.7852,-130.5 9.1699,-130.5"/>
<text text-anchor="middle" x="74.9775" y="-136.5" font-family="FreeSans.ttf" font-size="10.00" fill="#000000">muq::Modeling::ModPiece</text>
</a>
</g>
</g>
<!-- Node2&#45;&gt;Node1 -->
<g id="edge2" class="edge">
<title>Node2&#45;&gt;Node1</title>
<path fill="none" stroke="#191970" d="M74.9775,-120.1865C74.9775,-111.6283 74.9775,-101.7354 74.9775,-93.8477"/>
<polygon fill="#191970" stroke="#191970" points="71.4776,-120.3873 74.9775,-130.3873 78.4776,-120.3873 71.4776,-120.3873"/>
</g>
<!-- Node3 -->
<g id="node4" class="node">
<title>Node3</title>
<g id="a_node4"><a xlink:href="classmuq_1_1Modeling_1_1WorkPiece.html" target="_top" xlink:title="Base class for MUQ&#39;s modelling envronment. ">
<polygon fill="#ffffff" stroke="#000000" points="7.3193,-185.5 7.3193,-203.5 142.6357,-203.5 142.6357,-185.5 7.3193,-185.5"/>
<text text-anchor="middle" x="74.9775" y="-191.5" font-family="FreeSans.ttf" font-size="10.00" fill="#000000">muq::Modeling::WorkPiece</text>
</a>
</g>
</g>
<!-- Node3&#45;&gt;Node2 -->
<g id="edge3" class="edge">
<title>Node3&#45;&gt;Node2</title>
<path fill="none" stroke="#191970" d="M74.9775,-175.383C74.9775,-166.3738 74.9775,-156.0373 74.9775,-148.7795"/>
<polygon fill="#191970" stroke="#191970" points="71.4776,-175.4178 74.9775,-185.4179 78.4776,-175.4179 71.4776,-175.4178"/>
</g>
</g>
</svg>
