<?xml version="1.0" encoding="UTF-8" standalone="no"?>
<!DOCTYPE svg PUBLIC "-//W3C//DTD SVG 1.1//EN"
 "http://www.w3.org/Graphics/SVG/1.1/DTD/svg11.dtd">
<!-- Generated by graphviz version 2.40.1 (20161225.0304)
 -->
<!-- Title: muq::Utilities::LinearOperatorTypeException Pages: 1 -->
<svg width="154pt" height="92pt"
 viewBox="0.00 0.00 154.05 92.00" xmlns="http://www.w3.org/2000/svg" xmlns:xlink="http://www.w3.org/1999/xlink">
<g id="graph0" class="graph" transform="scale(1 1) rotate(0) translate(4 88)">
<title>muq::Utilities::LinearOperatorTypeException</title>
<polygon fill="#ffffff" stroke="transparent" points="-4,4 -4,-88 150.0537,-88 150.0537,4 -4,4"/>
<!-- Node0 -->
<g id="node1" class="node">
<title>Node0</title>
<polygon fill="#bfbfbf" stroke="#000000" points="0,-.5 0,-28.5 146.0537,-28.5 146.0537,-.5 0,-.5"/>
<text text-anchor="start" x="8" y="-16.5" font-family="FreeSans.ttf" font-size="10.00" fill="#000000">muq::Utilities::LinearOperator</text>
<text text-anchor="middle" x="73.0269" y="-6.5" font-family="FreeSans.ttf" font-size="10.00" fill="#000000">TypeException</text>
</g>
<!-- Node1 -->
<g id="node2" class="node">
<title>Node1</title>
<g id="a_node2"><a xlink:title="STL class. ">
<polygon fill="#ffffff" stroke="#bfbfbf" points="34.1748,-65.5 34.1748,-83.5 111.8789,-83.5 111.8789,-65.5 34.1748,-65.5"/>
<text text-anchor="middle" x="73.0269" y="-71.5" font-family="FreeSans.ttf" font-size="10.00" fill="#000000">std::exception</text>
</a>
</g>
</g>
<!-- Node1&#45;&gt;Node0 -->
<g id="edge1" class="edge">
<title>Node1&#45;&gt;Node0</title>
<path fill="none" stroke="#191970" d="M73.0269,-55.1865C73.0269,-46.6283 73.0269,-36.7354 73.0269,-28.8477"/>
<polygon fill="#191970" stroke="#191970" points="69.527,-55.3873 73.0269,-65.3873 76.527,-55.3873 69.527,-55.3873"/>
</g>
</g>
</svg>
