<?xml version="1.0" encoding="UTF-8" standalone="no"?>
<!DOCTYPE svg PUBLIC "-//W3C//DTD SVG 1.1//EN"
 "http://www.w3.org/Graphics/SVG/1.1/DTD/svg11.dtd">
<!-- Generated by graphviz version 2.40.1 (20161225.0304)
 -->
<!-- Title: muq::Approximation::MeanFunctionBase Pages: 1 -->
<svg width="174pt" height="102pt"
 viewBox="0.00 0.00 174.08 102.00" xmlns="http://www.w3.org/2000/svg" xmlns:xlink="http://www.w3.org/1999/xlink">
<g id="graph0" class="graph" transform="scale(1 1) rotate(0) translate(4 98)">
<title>muq::Approximation::MeanFunctionBase</title>
<polygon fill="#ffffff" stroke="transparent" points="-4,4 -4,-98 170.083,-98 170.083,4 -4,4"/>
<!-- Node6 -->
<g id="node1" class="node">
<title>Node6</title>
<polygon fill="#bfbfbf" stroke="#000000" points="29.1821,-.5 29.1821,-28.5 136.9009,-28.5 136.9009,-.5 29.1821,-.5"/>
<text text-anchor="start" x="37.1821" y="-16.5" font-family="FreeSans.ttf" font-size="10.00" fill="#000000">muq::Approximation</text>
<text text-anchor="middle" x="83.0415" y="-6.5" font-family="FreeSans.ttf" font-size="10.00" fill="#000000">::MeanFunctionBase</text>
</g>
<!-- Node7 -->
<g id="node2" class="node">
<title>Node7</title>
<polygon fill="#ffffff" stroke="#bfbfbf" points="0,-65.5 0,-93.5 166.083,-93.5 166.083,-65.5 0,-65.5"/>
<text text-anchor="start" x="8" y="-81.5" font-family="FreeSans.ttf" font-size="10.00" fill="#000000">std::enable_shared</text>
<text text-anchor="middle" x="83.0415" y="-71.5" font-family="FreeSans.ttf" font-size="10.00" fill="#000000">_from_this&lt; MeanFunctionBase &gt;</text>
</g>
<!-- Node7&#45;&gt;Node6 -->
<g id="edge1" class="edge">
<title>Node7&#45;&gt;Node6</title>
<path fill="none" stroke="#191970" d="M83.0415,-55.1081C83.0415,-46.1539 83.0415,-36.3227 83.0415,-28.5765"/>
<polygon fill="#191970" stroke="#191970" points="79.5416,-55.3959 83.0415,-65.396 86.5416,-55.396 79.5416,-55.3959"/>
</g>
</g>
</svg>
