<?xml version="1.0" encoding="UTF-8" standalone="no"?>
<!DOCTYPE svg PUBLIC "-//W3C//DTD SVG 1.1//EN"
 "http://www.w3.org/Graphics/SVG/1.1/DTD/svg11.dtd">
<!-- Generated by graphviz version 2.40.1 (20161225.0304)
 -->
<!-- Title: MCMCKernels Pages: 1 -->
<svg width="172pt" height="27pt"
 viewBox="0.00 0.00 172.11 27.00" xmlns="http://www.w3.org/2000/svg" xmlns:xlink="http://www.w3.org/1999/xlink">
<g id="graph0" class="graph" transform="scale(1 1) rotate(0) translate(4 23)">
<title>MCMCKernels</title>
<polygon fill="#ffffff" stroke="transparent" points="-4,4 -4,-23 168.1133,-23 168.1133,4 -4,4"/>
<!-- Node0 -->
<g id="node1" class="node">
<title>Node0</title>
<polygon fill="#bfbfbf" stroke="#000000" points="83.1035,-.5 83.1035,-18.5 164.1133,-18.5 164.1133,-.5 83.1035,-.5"/>
<text text-anchor="middle" x="123.6084" y="-6.5" font-family="FreeSans.ttf" font-size="10.00" fill="#000000">MCMCKernels</text>
</g>
<!-- Node1 -->
<g id="node2" class="node">
<title>Node1</title>
<g id="a_node2"><a xlink:href="group__MCMC.html" target="_top" xlink:title="MCMC">
<polygon fill="#ffffff" stroke="#000000" points="0,-.5 0,-18.5 47.1035,-18.5 47.1035,-.5 0,-.5"/>
<text text-anchor="middle" x="23.5518" y="-6.5" font-family="FreeSans.ttf" font-size="10.00" fill="#000000">MCMC</text>
</a>
</g>
</g>
<!-- Node1&#45;&gt;Node0 -->
<g id="edge1" class="edge">
<title>Node1&#45;&gt;Node0</title>
<path fill="none" stroke="#000000" d="M57.5168,-9.5C65.6582,-9.5 74.4345,-9.5 82.8484,-9.5"/>
<polygon fill="#000000" stroke="#000000" points="57.2638,-6.0001 47.2638,-9.5 57.2638,-13.0001 57.2638,-6.0001"/>
</g>
</g>
</svg>
