digraph "muq::Approximation::KernelBase"
{
 // LATEX_PDF_SIZE
  edge [fontname="FreeSans.ttf",fontsize="10",labelfontname="FreeSans.ttf",labelfontsize="10"];
  node [fontname="FreeSans.ttf",fontsize="10",shape=record];
  rankdir="LR";
  Node1 [label="muq::Approximation\l::KernelBase",height=0.2,width=0.4,color="black", fillcolor="grey75", style="filled", fontcolor="black",tooltip="Base class for all covariance kernels."];
  Node2 -> Node1 [dir="back",color="midnightblue",fontsize="10",style="solid",fontname="FreeSans.ttf"];
  Node2 [label="std::enable_shared\l_from_this\< muq::Approximation\l::KernelBase \>",height=0.2,width=0.4,color="grey75", fillcolor="white", style="filled",tooltip=" "];
  Node1 -> Node3 [dir="back",color="midnightblue",fontsize="10",style="solid",fontname="FreeSans.ttf"];
  Node3 [label="muq::Approximation\l::KernelImpl\< SquaredExpKernel \>",height=0.2,width=0.4,color="black", fillcolor="white", style="filled",URL="$classmuq_1_1Approximation_1_1KernelImpl.html",tooltip=" "];
  Node3 -> Node4 [dir="back",color="midnightblue",fontsize="10",style="solid",fontname="FreeSans.ttf"];
  Node4 [label="muq::Approximation\l::SquaredExpKernel",height=0.2,width=0.4,color="black", fillcolor="white", style="filled",URL="$classmuq_1_1Approximation_1_1SquaredExpKernel.html",tooltip=" "];
  Node1 -> Node5 [dir="back",color="midnightblue",fontsize="10",style="solid",fontname="FreeSans.ttf"];
  Node5 [label="muq::Approximation\l::KernelImpl\< MaternKernel \>",height=0.2,width=0.4,color="black", fillcolor="white", style="filled",URL="$classmuq_1_1Approximation_1_1KernelImpl.html",tooltip=" "];
  Node5 -> Node6 [dir="back",color="midnightblue",fontsize="10",style="solid",fontname="FreeSans.ttf"];
  Node6 [label="muq::Approximation\l::MaternKernel",height=0.2,width=0.4,color="black", fillcolor="white", style="filled",URL="$classmuq_1_1Approximation_1_1MaternKernel.html",tooltip=" "];
  Node1 -> Node7 [dir="back",color="midnightblue",fontsize="10",style="solid",fontname="FreeSans.ttf"];
  Node7 [label="muq::Approximation\l::KernelImpl\< WhiteNoiseKernel \>",height=0.2,width=0.4,color="black", fillcolor="white", style="filled",URL="$classmuq_1_1Approximation_1_1KernelImpl.html",tooltip=" "];
  Node7 -> Node8 [dir="back",color="midnightblue",fontsize="10",style="solid",fontname="FreeSans.ttf"];
  Node8 [label="muq::Approximation\l::WhiteNoiseKernel",height=0.2,width=0.4,color="black", fillcolor="white", style="filled",URL="$classmuq_1_1Approximation_1_1WhiteNoiseKernel.html",tooltip=" "];
  Node1 -> Node9 [dir="back",color="midnightblue",fontsize="10",style="solid",fontname="FreeSans.ttf"];
  Node9 [label="muq::Approximation\l::KernelImpl\< ConstantKernel \>",height=0.2,width=0.4,color="black", fillcolor="white", style="filled",URL="$classmuq_1_1Approximation_1_1KernelImpl.html",tooltip=" "];
  Node9 -> Node10 [dir="back",color="midnightblue",fontsize="10",style="solid",fontname="FreeSans.ttf"];
  Node10 [label="muq::Approximation\l::ConstantKernel",height=0.2,width=0.4,color="black", fillcolor="white", style="filled",URL="$classmuq_1_1Approximation_1_1ConstantKernel.html",tooltip=" "];
  Node9 -> Node10 [dir="back",color="midnightblue",fontsize="10",style="solid",fontname="FreeSans.ttf"];
  Node1 -> Node11 [dir="back",color="midnightblue",fontsize="10",style="solid",fontname="FreeSans.ttf"];
  Node11 [label="muq::Approximation\l::ConcatenateKernel",height=0.2,width=0.4,color="black", fillcolor="white", style="filled",URL="$classmuq_1_1Approximation_1_1ConcatenateKernel.html",tooltip=" "];
  Node1 -> Node12 [dir="back",color="midnightblue",fontsize="10",style="solid",fontname="FreeSans.ttf"];
  Node12 [label="muq::Approximation\l::KernelImpl\< ChildType \>",height=0.2,width=0.4,color="black", fillcolor="white", style="filled",URL="$classmuq_1_1Approximation_1_1KernelImpl.html",tooltip="Base class in CRTP pattern for covariance kernels."];
  Node1 -> Node13 [dir="back",color="midnightblue",fontsize="10",style="solid",fontname="FreeSans.ttf"];
  Node13 [label="muq::Approximation\l::LinearTransformKernel",height=0.2,width=0.4,color="black", fillcolor="white", style="filled",URL="$classmuq_1_1Approximation_1_1LinearTransformKernel.html",tooltip=" "];
  Node1 -> Node14 [dir="back",color="midnightblue",fontsize="10",style="solid",fontname="FreeSans.ttf"];
  Node14 [label="muq::Approximation\l::ProductKernel",height=0.2,width=0.4,color="black", fillcolor="white", style="filled",URL="$classmuq_1_1Approximation_1_1ProductKernel.html",tooltip=" "];
  Node1 -> Node15 [dir="back",color="midnightblue",fontsize="10",style="solid",fontname="FreeSans.ttf"];
  Node15 [label="muq::Approximation\l::SumKernel",height=0.2,width=0.4,color="black", fillcolor="white", style="filled",URL="$classmuq_1_1Approximation_1_1SumKernel.html",tooltip=" "];
}
