digraph "muq::Approximation::AdaptiveSmolyakPCE"
{
 // LATEX_PDF_SIZE
  edge [fontname="FreeSans.ttf",fontsize="10",labelfontname="FreeSans.ttf",labelfontsize="10"];
  node [fontname="FreeSans.ttf",fontsize="10",shape=record];
  rankdir="LR";
  Node1 [label="muq::Approximation\l::AdaptiveSmolyakPCE",height=0.2,width=0.4,color="black", fillcolor="grey75", style="filled", fontcolor="black",tooltip=" "];
  Node2 -> Node1 [dir="back",color="midnightblue",fontsize="10",style="solid",fontname="FreeSans.ttf"];
  Node2 [label="muq::Approximation\l::SmolyakEstimator\<\l std::shared_ptr\< Polynomial\lChaosExpansion \> \>",height=0.2,width=0.4,color="black", fillcolor="white", style="filled",URL="$classmuq_1_1Approximation_1_1SmolyakEstimator.html",tooltip=" "];
}
