digraph "muq::Modeling::LinearOperator"
{
 // LATEX_PDF_SIZE
  edge [fontname="FreeSans.ttf",fontsize="10",labelfontname="FreeSans.ttf",labelfontsize="10"];
  node [fontname="FreeSans.ttf",fontsize="10",shape=record];
  rankdir="LR";
  Node1 [label="muq::Modeling::LinearOperator",height=0.2,width=0.4,color="black", fillcolor="grey75", style="filled", fontcolor="black",tooltip="Generic linear operator base class."];
  Node2 -> Node1 [dir="back",color="midnightblue",fontsize="10",style="solid",fontname="FreeSans.ttf"];
  Node2 [label="muq::Modeling::ModPiece",height=0.2,width=0.4,color="black", fillcolor="white", style="filled",URL="$classmuq_1_1Modeling_1_1ModPiece.html",tooltip="Provides an abstract interface for defining vector-valued model components."];
  Node3 -> Node2 [dir="back",color="midnightblue",fontsize="10",style="solid",fontname="FreeSans.ttf"];
  Node3 [label="muq::Modeling::WorkPiece",height=0.2,width=0.4,color="black", fillcolor="white", style="filled",URL="$classmuq_1_1Modeling_1_1WorkPiece.html",tooltip="Base class for MUQ's modelling envronment."];
  Node1 -> Node4 [dir="back",color="midnightblue",fontsize="10",style="solid",fontname="FreeSans.ttf"];
  Node4 [label="PeriodicKernel_F_block",height=0.2,width=0.4,color="grey75", fillcolor="white", style="filled",tooltip=" "];
  Node1 -> Node5 [dir="back",color="midnightblue",fontsize="10",style="solid",fontname="FreeSans.ttf"];
  Node5 [label="muq::Modeling::BlockDiagonal\lOperator",height=0.2,width=0.4,color="black", fillcolor="white", style="filled",URL="$classmuq_1_1Modeling_1_1BlockDiagonalOperator.html",tooltip="Defines a block diagonal linear operator in terms of other linear operators."];
  Node1 -> Node6 [dir="back",color="midnightblue",fontsize="10",style="solid",fontname="FreeSans.ttf"];
  Node6 [label="muq::Modeling::BlockRowOperator",height=0.2,width=0.4,color="black", fillcolor="white", style="filled",URL="$classmuq_1_1Modeling_1_1BlockRowOperator.html",tooltip="Defines a block row matrix in terms of other linear operators."];
  Node1 -> Node7 [dir="back",color="midnightblue",fontsize="10",style="solid",fontname="FreeSans.ttf"];
  Node7 [label="muq::Modeling::Companion\lMatrix",height=0.2,width=0.4,color="black", fillcolor="white", style="filled",URL="$classmuq_1_1Modeling_1_1CompanionMatrix.html",tooltip="Implments a companion matrix as a linear operator."];
  Node1 -> Node8 [dir="back",color="midnightblue",fontsize="10",style="solid",fontname="FreeSans.ttf"];
  Node8 [label="muq::Modeling::Concatenate\lOperator",height=0.2,width=0.4,color="black", fillcolor="white", style="filled",URL="$classmuq_1_1Modeling_1_1ConcatenateOperator.html",tooltip="Vertical or horizontal concatenation of other linear operators."];
  Node1 -> Node9 [dir="back",color="midnightblue",fontsize="10",style="solid",fontname="FreeSans.ttf"];
  Node9 [label="muq::Modeling::DiagonalOperator",height=0.2,width=0.4,color="black", fillcolor="white", style="filled",URL="$classmuq_1_1Modeling_1_1DiagonalOperator.html",tooltip=" "];
  Node1 -> Node10 [dir="back",color="midnightblue",fontsize="10",style="solid",fontname="FreeSans.ttf"];
  Node10 [label="muq::Modeling::EigenLinear\lOperator\< EigenType \>",height=0.2,width=0.4,color="grey75", fillcolor="white", style="filled",tooltip=" "];
  Node1 -> Node11 [dir="back",color="midnightblue",fontsize="10",style="solid",fontname="FreeSans.ttf"];
  Node11 [label="muq::Modeling::GaussNewton\lOperator",height=0.2,width=0.4,color="black", fillcolor="white", style="filled",URL="$classmuq_1_1Modeling_1_1GaussNewtonOperator.html",tooltip="Creates a linear operator for the action of a Gauss-Newton Hessian approximation on a vector...."];
  Node1 -> Node12 [dir="back",color="midnightblue",fontsize="10",style="solid",fontname="FreeSans.ttf"];
  Node12 [label="muq::Modeling::GaussianOperator",height=0.2,width=0.4,color="black", fillcolor="white", style="filled",URL="$classmuq_1_1Modeling_1_1GaussianOperator.html",tooltip="Creates a linear operator for the action of the covariance or precision matrix of a Gaussian distribu..."];
  Node1 -> Node13 [dir="back",color="midnightblue",fontsize="10",style="solid",fontname="FreeSans.ttf"];
  Node13 [label="muq::Modeling::HessianOperator",height=0.2,width=0.4,color="black", fillcolor="white", style="filled",URL="$classmuq_1_1Modeling_1_1HessianOperator.html",tooltip="Creates a linear operator for the action of the Hessian of a ModPiece on a vector...."];
  Node1 -> Node14 [dir="back",color="midnightblue",fontsize="10",style="solid",fontname="FreeSans.ttf"];
  Node14 [label="muq::Modeling::IdentityOperator",height=0.2,width=0.4,color="black", fillcolor="white", style="filled",URL="$classmuq_1_1Modeling_1_1IdentityOperator.html",tooltip=" "];
  Node1 -> Node15 [dir="back",color="midnightblue",fontsize="10",style="solid",fontname="FreeSans.ttf"];
  Node15 [label="muq::Modeling::Kronecker\lProductOperator",height=0.2,width=0.4,color="black", fillcolor="white", style="filled",URL="$classmuq_1_1Modeling_1_1KroneckerProductOperator.html",tooltip="Defines the Kronecker product of two other linear operators."];
  Node1 -> Node16 [dir="back",color="midnightblue",fontsize="10",style="solid",fontname="FreeSans.ttf"];
  Node16 [label="muq::Modeling::ProductOperator",height=0.2,width=0.4,color="black", fillcolor="white", style="filled",URL="$classmuq_1_1Modeling_1_1ProductOperator.html",tooltip="The product of two linear operators, ."];
  Node1 -> Node17 [dir="back",color="midnightblue",fontsize="10",style="solid",fontname="FreeSans.ttf"];
  Node17 [label="muq::Modeling::SliceOperator",height=0.2,width=0.4,color="black", fillcolor="white", style="filled",URL="$classmuq_1_1Modeling_1_1SliceOperator.html",tooltip="Defines a \"slice\" or \"range\" of an input vector."];
  Node1 -> Node18 [dir="back",color="midnightblue",fontsize="10",style="solid",fontname="FreeSans.ttf"];
  Node18 [label="muq::Modeling::SumOperator",height=0.2,width=0.4,color="black", fillcolor="white", style="filled",URL="$classmuq_1_1Modeling_1_1SumOperator.html",tooltip=" "];
  Node1 -> Node19 [dir="back",color="midnightblue",fontsize="10",style="solid",fontname="FreeSans.ttf"];
  Node19 [label="muq::Modeling::ZeroOperator",height=0.2,width=0.4,color="black", fillcolor="white", style="filled",URL="$classmuq_1_1Modeling_1_1ZeroOperator.html",tooltip=" "];
  Node1 -> Node20 [dir="back",color="midnightblue",fontsize="10",style="solid",fontname="FreeSans.ttf"];
  Node20 [label="muq::SamplingAlgorithms\l::AverageHessian",height=0.2,width=0.4,color="black", fillcolor="white", style="filled",URL="$classmuq_1_1SamplingAlgorithms_1_1AverageHessian.html",tooltip=" "];
  Node1 -> Node21 [dir="back",color="midnightblue",fontsize="10",style="solid",fontname="FreeSans.ttf"];
  Node21 [label="muq::SamplingAlgorithms\l::CSProjector",height=0.2,width=0.4,color="black", fillcolor="white", style="filled",URL="$classmuq_1_1SamplingAlgorithms_1_1CSProjector.html",tooltip=" "];
  Node1 -> Node22 [dir="back",color="midnightblue",fontsize="10",style="solid",fontname="FreeSans.ttf"];
  Node22 [label="muq::SamplingAlgorithms\l::LIS2Full",height=0.2,width=0.4,color="black", fillcolor="white", style="filled",URL="$classmuq_1_1SamplingAlgorithms_1_1LIS2Full.html",tooltip=" "];
}
