digraph "muq::SamplingAlgorithms::AbstractSamplingProblem"
{
 // LATEX_PDF_SIZE
  edge [fontname="FreeSans.ttf",fontsize="10",labelfontname="FreeSans.ttf",labelfontsize="10"];
  node [fontname="FreeSans.ttf",fontsize="10",shape=record];
  rankdir="LR";
  Node1 [label="muq::SamplingAlgorithms\l::AbstractSamplingProblem",height=0.2,width=0.4,color="black", fillcolor="grey75", style="filled", fontcolor="black",tooltip="Abstract base class for MCMC and Importance Sampling problems."];
  Node1 -> Node2 [dir="back",color="midnightblue",fontsize="10",style="solid",fontname="FreeSans.ttf"];
  Node2 [label="muq::SamplingAlgorithms\l::InferenceProblem",height=0.2,width=0.4,color="black", fillcolor="white", style="filled",URL="$classmuq_1_1SamplingAlgorithms_1_1InferenceProblem.html",tooltip="Class for sampling problems based on the product of a prior and likelihood, possibly with a tempering..."];
  Node1 -> Node3 [dir="back",color="midnightblue",fontsize="10",style="solid",fontname="FreeSans.ttf"];
  Node3 [label="muq::SamplingAlgorithms\l::ParallelAbstractSamplingProblem",height=0.2,width=0.4,color="black", fillcolor="white", style="filled",URL="$classmuq_1_1SamplingAlgorithms_1_1ParallelAbstractSamplingProblem.html",tooltip="Parallelization layer supporting parallel models underlying a SamplingProblem."];
  Node1 -> Node4 [dir="back",color="midnightblue",fontsize="10",style="solid",fontname="FreeSans.ttf"];
  Node4 [label="muq::SamplingAlgorithms\l::SamplingProblem",height=0.2,width=0.4,color="black", fillcolor="white", style="filled",URL="$classmuq_1_1SamplingAlgorithms_1_1SamplingProblem.html",tooltip="Class for sampling problems based purely on a density function."];
  Node4 -> Node5 [dir="back",color="midnightblue",fontsize="10",style="solid",fontname="FreeSans.ttf"];
  Node5 [label="muq::SamplingAlgorithms\l::ExpensiveSamplingProblem",height=0.2,width=0.4,color="black", fillcolor="white", style="filled",URL="$classmuq_1_1SamplingAlgorithms_1_1ExpensiveSamplingProblem.html",tooltip=" "];
}
