digraph "std::tuple_size&lt;::nlohmann::detail::iteration_proxy_value&lt; IteratorType &gt; &gt;"
{
 // LATEX_PDF_SIZE
  edge [fontname="FreeSans.ttf",fontsize="10",labelfontname="FreeSans.ttf",labelfontsize="10"];
  node [fontname="FreeSans.ttf",fontsize="10",shape=record];
  Node1 [label="std::tuple_size\<::nlohmann\l::detail::iteration_proxy\l_value\< IteratorType \> \>",height=0.2,width=0.4,color="black", fillcolor="grey75", style="filled", fontcolor="black",tooltip=" "];
  Node2 -> Node1 [dir="back",color="midnightblue",fontsize="10",style="solid",fontname="FreeSans.ttf"];
  Node2 [label="std::integral_constant\l\< std::size_t, 2 \>",height=0.2,width=0.4,color="grey75", fillcolor="white", style="filled",tooltip=" "];
}
