digraph "nlohmann::detail::output_adapter_protocol&lt; CharType &gt;"
{
 // LATEX_PDF_SIZE
  edge [fontname="FreeSans.ttf",fontsize="10",labelfontname="FreeSans.ttf",labelfontsize="10"];
  node [fontname="FreeSans.ttf",fontsize="10",shape=record];
  rankdir="LR";
  Node1 [label="nlohmann::detail::output\l_adapter_protocol\< CharType \>",height=0.2,width=0.4,color="black", fillcolor="grey75", style="filled", fontcolor="black",tooltip="abstract output adapter interface"];
  Node1 -> Node2 [dir="back",color="midnightblue",fontsize="10",style="solid",fontname="FreeSans.ttf"];
  Node2 [label="nlohmann::detail::output\l_stream_adapter\< CharType \>",height=0.2,width=0.4,color="black", fillcolor="white", style="filled",URL="$classnlohmann_1_1detail_1_1output__stream__adapter.html",tooltip="output adapter for output streams"];
  Node1 -> Node3 [dir="back",color="midnightblue",fontsize="10",style="solid",fontname="FreeSans.ttf"];
  Node3 [label="nlohmann::detail::output\l_string_adapter\< CharType,\l StringType \>",height=0.2,width=0.4,color="black", fillcolor="white", style="filled",URL="$classnlohmann_1_1detail_1_1output__string__adapter.html",tooltip="output adapter for basic_string"];
  Node1 -> Node4 [dir="back",color="midnightblue",fontsize="10",style="solid",fontname="FreeSans.ttf"];
  Node4 [label="nlohmann::detail::output\l_vector_adapter\< CharType \>",height=0.2,width=0.4,color="black", fillcolor="white", style="filled",URL="$classnlohmann_1_1detail_1_1output__vector__adapter.html",tooltip="output adapter for byte vectors"];
}
