<?xml version="1.0" encoding="UTF-8" standalone="no"?>
<!DOCTYPE svg PUBLIC "-//W3C//DTD SVG 1.1//EN"
 "http://www.w3.org/Graphics/SVG/1.1/DTD/svg11.dtd">
<!-- Generated by graphviz version 2.47.3 (20210619.1520)
 -->
<!-- Title: muq::SamplingAlgorithms::ExpensiveSamplingProblem Pages: 1 -->
<svg width="153pt" height="173pt"
 viewBox="0.00 0.00 153.00 173.00" xmlns="http://www.w3.org/2000/svg" xmlns:xlink="http://www.w3.org/1999/xlink">
<g id="graph0" class="graph" transform="scale(1 1) rotate(0) translate(4 169)">
<title>muq::SamplingAlgorithms::ExpensiveSamplingProblem</title>
<polygon fill="white" stroke="transparent" points="-4,4 -4,-169 149,-169 149,4 -4,4"/>
<!-- Node1 -->
<g id="node1" class="node">
<title>Node1</title>
<g id="a_node1"><a xlink:title=" ">
<polygon fill="#bfbfbf" stroke="black" points="0,-0.5 0,-30.5 145,-30.5 145,-0.5 0,-0.5"/>
<text text-anchor="start" x="8" y="-18.5" font-family="FreeSans.ttf" font-size="10.00">muq::SamplingAlgorithms</text>
<text text-anchor="middle" x="72.5" y="-7.5" font-family="FreeSans.ttf" font-size="10.00">::ExpensiveSamplingProblem</text>
</a>
</g>
</g>
<!-- Node2 -->
<g id="node2" class="node">
<title>Node2</title>
<g id="a_node2"><a xlink:href="classmuq_1_1SamplingAlgorithms_1_1SamplingProblem.html" target="_top" xlink:title="Class for sampling problems based purely on a density function.">
<polygon fill="white" stroke="black" points="8.5,-67.5 8.5,-97.5 136.5,-97.5 136.5,-67.5 8.5,-67.5"/>
<text text-anchor="start" x="16.5" y="-85.5" font-family="FreeSans.ttf" font-size="10.00">muq::SamplingAlgorithms</text>
<text text-anchor="middle" x="72.5" y="-74.5" font-family="FreeSans.ttf" font-size="10.00">::SamplingProblem</text>
</a>
</g>
</g>
<!-- Node2&#45;&gt;Node1 -->
<g id="edge1" class="edge">
<title>Node2&#45;&gt;Node1</title>
<path fill="none" stroke="midnightblue" d="M72.5,-57.11C72.5,-48.15 72.5,-38.32 72.5,-30.58"/>
<polygon fill="midnightblue" stroke="midnightblue" points="69,-57.4 72.5,-67.4 76,-57.4 69,-57.4"/>
</g>
<!-- Node3 -->
<g id="node3" class="node">
<title>Node3</title>
<g id="a_node3"><a xlink:href="classmuq_1_1SamplingAlgorithms_1_1AbstractSamplingProblem.html" target="_top" xlink:title="Abstract base class for MCMC and Importance Sampling problems.">
<polygon fill="white" stroke="black" points="4.5,-134.5 4.5,-164.5 140.5,-164.5 140.5,-134.5 4.5,-134.5"/>
<text text-anchor="start" x="12.5" y="-152.5" font-family="FreeSans.ttf" font-size="10.00">muq::SamplingAlgorithms</text>
<text text-anchor="middle" x="72.5" y="-141.5" font-family="FreeSans.ttf" font-size="10.00">::AbstractSamplingProblem</text>
</a>
</g>
</g>
<!-- Node3&#45;&gt;Node2 -->
<g id="edge2" class="edge">
<title>Node3&#45;&gt;Node2</title>
<path fill="none" stroke="midnightblue" d="M72.5,-124.11C72.5,-115.15 72.5,-105.32 72.5,-97.58"/>
<polygon fill="midnightblue" stroke="midnightblue" points="69,-124.4 72.5,-134.4 76,-124.4 69,-124.4"/>
</g>
</g>
</svg>
