<?xml version="1.0" encoding="UTF-8" standalone="no"?>
<!DOCTYPE svg PUBLIC "-//W3C//DTD SVG 1.1//EN"
 "http://www.w3.org/Graphics/SVG/1.1/DTD/svg11.dtd">
<!-- Generated by graphviz version 2.47.3 (20210619.1520)
 -->
<!-- Title: muq::Approximation::Jacobi Pages: 1 -->
<svg width="142pt" height="229pt"
 viewBox="0.00 0.00 142.00 229.00" xmlns="http://www.w3.org/2000/svg" xmlns:xlink="http://www.w3.org/1999/xlink">
<g id="graph0" class="graph" transform="scale(1 1) rotate(0) translate(4 225)">
<title>muq::Approximation::Jacobi</title>
<polygon fill="white" stroke="transparent" points="-4,4 -4,-225 138,-225 138,4 -4,4"/>
<!-- Node1 -->
<g id="node1" class="node">
<title>Node1</title>
<g id="a_node1"><a xlink:title="Family of Jacobi orthogonal polynomials.">
<polygon fill="#bfbfbf" stroke="black" points="15,-0.5 15,-30.5 119,-30.5 119,-0.5 15,-0.5"/>
<text text-anchor="start" x="23" y="-18.5" font-family="FreeSans.ttf" font-size="10.00">muq::Approximation</text>
<text text-anchor="middle" x="67" y="-7.5" font-family="FreeSans.ttf" font-size="10.00">::Jacobi</text>
</a>
</g>
</g>
<!-- Node2 -->
<g id="node2" class="node">
<title>Node2</title>
<g id="a_node2"><a xlink:href="classmuq_1_1Approximation_1_1OrthogonalPolynomial.html" target="_top" xlink:title="A 1D orthogonal polynomial.">
<polygon fill="white" stroke="black" points="8,-67.5 8,-97.5 126,-97.5 126,-67.5 8,-67.5"/>
<text text-anchor="start" x="16" y="-85.5" font-family="FreeSans.ttf" font-size="10.00">muq::Approximation</text>
<text text-anchor="middle" x="67" y="-74.5" font-family="FreeSans.ttf" font-size="10.00">::OrthogonalPolynomial</text>
</a>
</g>
</g>
<!-- Node2&#45;&gt;Node1 -->
<g id="edge1" class="edge">
<title>Node2&#45;&gt;Node1</title>
<path fill="none" stroke="midnightblue" d="M67,-57.11C67,-48.15 67,-38.32 67,-30.58"/>
<polygon fill="midnightblue" stroke="midnightblue" points="63.5,-57.4 67,-67.4 70.5,-57.4 63.5,-57.4"/>
</g>
<!-- Node3 -->
<g id="node3" class="node">
<title>Node3</title>
<g id="a_node3"><a xlink:href="classmuq_1_1Approximation_1_1IndexedScalarBasis.html" target="_top" xlink:title=" ">
<polygon fill="white" stroke="black" points="12,-134.5 12,-164.5 122,-164.5 122,-134.5 12,-134.5"/>
<text text-anchor="start" x="20" y="-152.5" font-family="FreeSans.ttf" font-size="10.00">muq::Approximation</text>
<text text-anchor="middle" x="67" y="-141.5" font-family="FreeSans.ttf" font-size="10.00">::IndexedScalarBasis</text>
</a>
</g>
</g>
<!-- Node3&#45;&gt;Node2 -->
<g id="edge2" class="edge">
<title>Node3&#45;&gt;Node2</title>
<path fill="none" stroke="midnightblue" d="M67,-124.11C67,-115.15 67,-105.32 67,-97.58"/>
<polygon fill="midnightblue" stroke="midnightblue" points="63.5,-124.4 67,-134.4 70.5,-124.4 63.5,-124.4"/>
</g>
<!-- Node4 -->
<g id="node4" class="node">
<title>Node4</title>
<g id="a_node4"><a xlink:href="classmuq_1_1Modeling_1_1WorkPiece.html" target="_top" xlink:title="Base class for MUQ&#39;s modelling envronment.">
<polygon fill="white" stroke="black" points="0,-201.5 0,-220.5 134,-220.5 134,-201.5 0,-201.5"/>
<text text-anchor="middle" x="67" y="-208.5" font-family="FreeSans.ttf" font-size="10.00">muq::Modeling::WorkPiece</text>
</a>
</g>
</g>
<!-- Node4&#45;&gt;Node3 -->
<g id="edge3" class="edge">
<title>Node4&#45;&gt;Node3</title>
<path fill="none" stroke="midnightblue" d="M67,-191.23C67,-182.59 67,-172.5 67,-164.52"/>
<polygon fill="midnightblue" stroke="midnightblue" points="63.5,-191.48 67,-201.48 70.5,-191.48 63.5,-191.48"/>
</g>
</g>
</svg>
