<?xml version="1.0" encoding="UTF-8" standalone="no"?>
<!DOCTYPE svg PUBLIC "-//W3C//DTD SVG 1.1//EN"
 "http://www.w3.org/Graphics/SVG/1.1/DTD/svg11.dtd">
<!-- Generated by graphviz version 2.47.3 (20210619.1520)
 -->
<!-- Title: muq::Approximation::SumKernel Pages: 1 -->
<svg width="166pt" height="184pt"
 viewBox="0.00 0.00 166.00 184.00" xmlns="http://www.w3.org/2000/svg" xmlns:xlink="http://www.w3.org/1999/xlink">
<g id="graph0" class="graph" transform="scale(1 1) rotate(0) translate(4 180)">
<title>muq::Approximation::SumKernel</title>
<polygon fill="white" stroke="transparent" points="-4,4 -4,-180 162,-180 162,4 -4,4"/>
<!-- Node1 -->
<g id="node1" class="node">
<title>Node1</title>
<g id="a_node1"><a xlink:title=" ">
<polygon fill="#bfbfbf" stroke="black" points="27,-0.5 27,-30.5 131,-30.5 131,-0.5 27,-0.5"/>
<text text-anchor="start" x="35" y="-18.5" font-family="FreeSans.ttf" font-size="10.00">muq::Approximation</text>
<text text-anchor="middle" x="79" y="-7.5" font-family="FreeSans.ttf" font-size="10.00">::SumKernel</text>
</a>
</g>
</g>
<!-- Node2 -->
<g id="node2" class="node">
<title>Node2</title>
<g id="a_node2"><a xlink:href="classmuq_1_1Approximation_1_1KernelBase.html" target="_top" xlink:title="Base class for all covariance kernels.">
<polygon fill="white" stroke="black" points="27,-67.5 27,-97.5 131,-97.5 131,-67.5 27,-67.5"/>
<text text-anchor="start" x="35" y="-85.5" font-family="FreeSans.ttf" font-size="10.00">muq::Approximation</text>
<text text-anchor="middle" x="79" y="-74.5" font-family="FreeSans.ttf" font-size="10.00">::KernelBase</text>
</a>
</g>
</g>
<!-- Node2&#45;&gt;Node1 -->
<g id="edge1" class="edge">
<title>Node2&#45;&gt;Node1</title>
<path fill="none" stroke="midnightblue" d="M79,-57.11C79,-48.15 79,-38.32 79,-30.58"/>
<polygon fill="midnightblue" stroke="midnightblue" points="75.5,-57.4 79,-67.4 82.5,-57.4 75.5,-57.4"/>
</g>
<!-- Node3 -->
<g id="node3" class="node">
<title>Node3</title>
<g id="a_node3"><a xlink:title=" ">
<polygon fill="white" stroke="#bfbfbf" points="0,-134.5 0,-175.5 158,-175.5 158,-134.5 0,-134.5"/>
<text text-anchor="start" x="8" y="-163.5" font-family="FreeSans.ttf" font-size="10.00">std::enable_shared</text>
<text text-anchor="start" x="8" y="-152.5" font-family="FreeSans.ttf" font-size="10.00">_from_this&lt; muq::Approximation</text>
<text text-anchor="middle" x="79" y="-141.5" font-family="FreeSans.ttf" font-size="10.00">::KernelBase &gt;</text>
</a>
</g>
</g>
<!-- Node3&#45;&gt;Node2 -->
<g id="edge2" class="edge">
<title>Node3&#45;&gt;Node2</title>
<path fill="none" stroke="midnightblue" d="M79,-124.08C79,-115.01 79,-105.45 79,-97.89"/>
<polygon fill="midnightblue" stroke="midnightblue" points="75.5,-124.36 79,-134.36 82.5,-124.36 75.5,-124.36"/>
</g>
</g>
</svg>
