<?xml version="1.0" encoding="UTF-8" standalone="no"?>
<!DOCTYPE svg PUBLIC "-//W3C//DTD SVG 1.1//EN"
 "http://www.w3.org/Graphics/SVG/1.1/DTD/svg11.dtd">
<!-- Generated by graphviz version 2.47.3 (20210619.1520)
 -->
<!-- Title: muq::Modeling::ReplicateOperator Pages: 1 -->
<svg width="142pt" height="151pt"
 viewBox="0.00 0.00 142.00 151.00" xmlns="http://www.w3.org/2000/svg" xmlns:xlink="http://www.w3.org/1999/xlink">
<g id="graph0" class="graph" transform="scale(1 1) rotate(0) translate(4 147)">
<title>muq::Modeling::ReplicateOperator</title>
<polygon fill="white" stroke="transparent" points="-4,4 -4,-147 138,-147 138,4 -4,4"/>
<!-- Node1 -->
<g id="node1" class="node">
<title>Node1</title>
<g id="a_node1"><a xlink:title="A muq::Modeling::ModPiece that replicates a single input vector &#160;times.">
<polygon fill="#bfbfbf" stroke="black" points="3,-0.5 3,-30.5 131,-30.5 131,-0.5 3,-0.5"/>
<text text-anchor="start" x="11" y="-18.5" font-family="FreeSans.ttf" font-size="10.00">muq::Modeling::Replicate</text>
<text text-anchor="middle" x="67" y="-7.5" font-family="FreeSans.ttf" font-size="10.00">Operator</text>
</a>
</g>
</g>
<!-- Node2 -->
<g id="node2" class="node">
<title>Node2</title>
<g id="a_node2"><a xlink:href="classmuq_1_1Modeling_1_1ModPiece.html" target="_top" xlink:title="Provides an abstract interface for defining vector&#45;valued model components.">
<polygon fill="white" stroke="black" points="2,-67.5 2,-86.5 132,-86.5 132,-67.5 2,-67.5"/>
<text text-anchor="middle" x="67" y="-74.5" font-family="FreeSans.ttf" font-size="10.00">muq::Modeling::ModPiece</text>
</a>
</g>
</g>
<!-- Node2&#45;&gt;Node1 -->
<g id="edge1" class="edge">
<title>Node2&#45;&gt;Node1</title>
<path fill="none" stroke="midnightblue" d="M67,-57.23C67,-48.59 67,-38.5 67,-30.52"/>
<polygon fill="midnightblue" stroke="midnightblue" points="63.5,-57.48 67,-67.48 70.5,-57.48 63.5,-57.48"/>
</g>
<!-- Node3 -->
<g id="node3" class="node">
<title>Node3</title>
<g id="a_node3"><a xlink:href="classmuq_1_1Modeling_1_1WorkPiece.html" target="_top" xlink:title="Base class for MUQ&#39;s modelling envronment.">
<polygon fill="white" stroke="black" points="0,-123.5 0,-142.5 134,-142.5 134,-123.5 0,-123.5"/>
<text text-anchor="middle" x="67" y="-130.5" font-family="FreeSans.ttf" font-size="10.00">muq::Modeling::WorkPiece</text>
</a>
</g>
</g>
<!-- Node3&#45;&gt;Node2 -->
<g id="edge2" class="edge">
<title>Node3&#45;&gt;Node2</title>
<path fill="none" stroke="midnightblue" d="M67,-112.8C67,-103.91 67,-93.78 67,-86.75"/>
<polygon fill="midnightblue" stroke="midnightblue" points="63.5,-113.08 67,-123.08 70.5,-113.08 63.5,-113.08"/>
</g>
</g>
</svg>
