<?xml version="1.0" encoding="UTF-8" standalone="no"?>
<!DOCTYPE svg PUBLIC "-//W3C//DTD SVG 1.1//EN"
 "http://www.w3.org/Graphics/SVG/1.1/DTD/svg11.dtd">
<!-- Generated by graphviz version 2.47.3 (20210619.1520)
 -->
<!-- Title: muq::Approximation::GaussPattersonQuadrature Pages: 1 -->
<svg width="149pt" height="106pt"
 viewBox="0.00 0.00 149.00 106.00" xmlns="http://www.w3.org/2000/svg" xmlns:xlink="http://www.w3.org/1999/xlink">
<g id="graph0" class="graph" transform="scale(1 1) rotate(0) translate(4 102)">
<title>muq::Approximation::GaussPattersonQuadrature</title>
<polygon fill="white" stroke="transparent" points="-4,4 -4,-102 145,-102 145,4 -4,4"/>
<!-- Node1 -->
<g id="node1" class="node">
<title>Node1</title>
<g id="a_node1"><a xlink:title="1d Gauss Patterson nested quadrature rule">
<polygon fill="#bfbfbf" stroke="black" points="0,-0.5 0,-30.5 141,-30.5 141,-0.5 0,-0.5"/>
<text text-anchor="start" x="8" y="-18.5" font-family="FreeSans.ttf" font-size="10.00">muq::Approximation</text>
<text text-anchor="middle" x="70.5" y="-7.5" font-family="FreeSans.ttf" font-size="10.00">::GaussPattersonQuadrature</text>
</a>
</g>
</g>
<!-- Node2 -->
<g id="node2" class="node">
<title>Node2</title>
<g id="a_node2"><a xlink:href="classmuq_1_1Approximation_1_1Quadrature.html" target="_top" xlink:title="Base class for multivariate quadrature rules. @detail An abstract class for computing nodes and weigh...">
<polygon fill="white" stroke="black" points="18.5,-67.5 18.5,-97.5 122.5,-97.5 122.5,-67.5 18.5,-67.5"/>
<text text-anchor="start" x="26.5" y="-85.5" font-family="FreeSans.ttf" font-size="10.00">muq::Approximation</text>
<text text-anchor="middle" x="70.5" y="-74.5" font-family="FreeSans.ttf" font-size="10.00">::Quadrature</text>
</a>
</g>
</g>
<!-- Node2&#45;&gt;Node1 -->
<g id="edge1" class="edge">
<title>Node2&#45;&gt;Node1</title>
<path fill="none" stroke="midnightblue" d="M70.5,-57.11C70.5,-48.15 70.5,-38.32 70.5,-30.58"/>
<polygon fill="midnightblue" stroke="midnightblue" points="67,-57.4 70.5,-67.4 74,-57.4 67,-57.4"/>
</g>
</g>
</svg>
