<?xml version="1.0" encoding="UTF-8" standalone="no"?>
<!DOCTYPE svg PUBLIC "-//W3C//DTD SVG 1.1//EN"
 "http://www.w3.org/Graphics/SVG/1.1/DTD/svg11.dtd">
<!-- Generated by graphviz version 2.47.3 (20210619.1520)
 -->
<!-- Title: muq::SamplingAlgorithms::MCMCProposal Pages: 1 -->
<svg width="650pt" height="333pt"
 viewBox="0.00 0.00 650.00 333.00" xmlns="http://www.w3.org/2000/svg" xmlns:xlink="http://www.w3.org/1999/xlink">
<g id="graph0" class="graph" transform="scale(1 1) rotate(0) translate(4 329)">
<title>muq::SamplingAlgorithms::MCMCProposal</title>
<polygon fill="white" stroke="transparent" points="-4,4 -4,-329 646,-329 646,4 -4,4"/>
<!-- Node1 -->
<g id="node1" class="node">
<title>Node1</title>
<g id="a_node1"><a xlink:title=" ">
<polygon fill="#bfbfbf" stroke="black" points="186,-147.5 186,-177.5 314,-177.5 314,-147.5 186,-147.5"/>
<text text-anchor="start" x="194" y="-165.5" font-family="FreeSans.ttf" font-size="10.00">muq::SamplingAlgorithms</text>
<text text-anchor="middle" x="250" y="-154.5" font-family="FreeSans.ttf" font-size="10.00">::MCMCProposal</text>
</a>
</g>
</g>
<!-- Node3 -->
<g id="node3" class="node">
<title>Node3</title>
<g id="a_node3"><a xlink:href="classmuq_1_1SamplingAlgorithms_1_1AMProposal.html" target="_top" xlink:title="An implemental of the Adaptive Metropolis algorithm.">
<polygon fill="white" stroke="black" points="350,-294.5 350,-324.5 478,-324.5 478,-294.5 350,-294.5"/>
<text text-anchor="start" x="358" y="-312.5" font-family="FreeSans.ttf" font-size="10.00">muq::SamplingAlgorithms</text>
<text text-anchor="middle" x="414" y="-301.5" font-family="FreeSans.ttf" font-size="10.00">::AMProposal</text>
</a>
</g>
</g>
<!-- Node1&#45;&gt;Node3 -->
<g id="edge2" class="edge">
<title>Node1&#45;&gt;Node3</title>
<path fill="none" stroke="midnightblue" d="M265.18,-186.57C282.24,-213.69 313.22,-257.49 350,-284.5 355.12,-288.26 360.89,-291.55 366.79,-294.39"/>
<polygon fill="midnightblue" stroke="midnightblue" points="267.96,-184.41 259.74,-177.73 262,-188.08 267.96,-184.41"/>
</g>
<!-- Node5 -->
<g id="node5" class="node">
<title>Node5</title>
<g id="a_node5"><a xlink:href="classmuq_1_1SamplingAlgorithms_1_1CrankNicolsonProposal.html" target="_top" xlink:title="An implement of the dimension&#45;independent pCN proposal.">
<polygon fill="white" stroke="black" points="350,-245.5 350,-275.5 478,-275.5 478,-245.5 350,-245.5"/>
<text text-anchor="start" x="358" y="-263.5" font-family="FreeSans.ttf" font-size="10.00">muq::SamplingAlgorithms</text>
<text text-anchor="middle" x="414" y="-252.5" font-family="FreeSans.ttf" font-size="10.00">::CrankNicolsonProposal</text>
</a>
</g>
</g>
<!-- Node1&#45;&gt;Node5 -->
<g id="edge4" class="edge">
<title>Node1&#45;&gt;Node5</title>
<path fill="none" stroke="midnightblue" d="M276.38,-184.08C295.68,-199.75 323.37,-220.72 350,-235.5 356.48,-239.1 363.59,-242.44 370.62,-245.43"/>
<polygon fill="midnightblue" stroke="midnightblue" points="278.6,-181.37 268.65,-177.72 274.15,-186.77 278.6,-181.37"/>
</g>
<!-- Node7 -->
<g id="node7" class="node">
<title>Node7</title>
<g id="a_node7"><a xlink:href="classmuq_1_1SamplingAlgorithms_1_1InverseGammaProposal.html" target="_top" xlink:title="Defines a proposal using the analytic conditional Inverse Gamma distribution for the variance of a Ga...">
<polygon fill="white" stroke="black" points="350,-196.5 350,-226.5 478,-226.5 478,-196.5 350,-196.5"/>
<text text-anchor="start" x="358" y="-214.5" font-family="FreeSans.ttf" font-size="10.00">muq::SamplingAlgorithms</text>
<text text-anchor="middle" x="414" y="-203.5" font-family="FreeSans.ttf" font-size="10.00">::InverseGammaProposal</text>
</a>
</g>
</g>
<!-- Node1&#45;&gt;Node7 -->
<g id="edge6" class="edge">
<title>Node1&#45;&gt;Node7</title>
<path fill="none" stroke="midnightblue" d="M310.88,-180.61C328.11,-185.82 346.7,-191.45 363.24,-196.45"/>
<polygon fill="midnightblue" stroke="midnightblue" points="311.51,-177.15 300.93,-177.6 309.49,-183.85 311.51,-177.15"/>
</g>
<!-- Node8 -->
<g id="node8" class="node">
<title>Node8</title>
<g id="a_node8"><a xlink:href="classmuq_1_1SamplingAlgorithms_1_1MALAProposal.html" target="_top" xlink:title="Implementation preconditioned Langevin proposal used in the MALA algorithm.">
<polygon fill="white" stroke="black" points="350,-147.5 350,-177.5 478,-177.5 478,-147.5 350,-147.5"/>
<text text-anchor="start" x="358" y="-165.5" font-family="FreeSans.ttf" font-size="10.00">muq::SamplingAlgorithms</text>
<text text-anchor="middle" x="414" y="-154.5" font-family="FreeSans.ttf" font-size="10.00">::MALAProposal</text>
</a>
</g>
</g>
<!-- Node1&#45;&gt;Node8 -->
<g id="edge7" class="edge">
<title>Node1&#45;&gt;Node8</title>
<path fill="none" stroke="midnightblue" d="M324.37,-162.5C332.86,-162.5 341.47,-162.5 349.81,-162.5"/>
<polygon fill="midnightblue" stroke="midnightblue" points="324.1,-159 314.1,-162.5 324.1,-166 324.1,-159"/>
</g>
<!-- Node9 -->
<g id="node9" class="node">
<title>Node9</title>
<g id="a_node9"><a xlink:href="classmuq_1_1SamplingAlgorithms_1_1MHProposal.html" target="_top" xlink:title="Implementation of the classic Random Walk Metropolis proposal.">
<polygon fill="white" stroke="black" points="350,-98.5 350,-128.5 478,-128.5 478,-98.5 350,-98.5"/>
<text text-anchor="start" x="358" y="-116.5" font-family="FreeSans.ttf" font-size="10.00">muq::SamplingAlgorithms</text>
<text text-anchor="middle" x="414" y="-105.5" font-family="FreeSans.ttf" font-size="10.00">::MHProposal</text>
</a>
</g>
</g>
<!-- Node1&#45;&gt;Node9 -->
<g id="edge8" class="edge">
<title>Node1&#45;&gt;Node9</title>
<path fill="none" stroke="midnightblue" d="M310.88,-144.39C328.11,-139.18 346.7,-133.55 363.24,-128.55"/>
<polygon fill="midnightblue" stroke="midnightblue" points="309.49,-141.15 300.93,-147.4 311.51,-147.85 309.49,-141.15"/>
</g>
<!-- Node10 -->
<g id="node10" class="node">
<title>Node10</title>
<g id="a_node10"><a xlink:href="classmuq_1_1SamplingAlgorithms_1_1MixtureProposal.html" target="_top" xlink:title="This class implements a weighted mixture of other proposals.">
<polygon fill="white" stroke="black" points="350,-49.5 350,-79.5 478,-79.5 478,-49.5 350,-49.5"/>
<text text-anchor="start" x="358" y="-67.5" font-family="FreeSans.ttf" font-size="10.00">muq::SamplingAlgorithms</text>
<text text-anchor="middle" x="414" y="-56.5" font-family="FreeSans.ttf" font-size="10.00">::MixtureProposal</text>
</a>
</g>
</g>
<!-- Node1&#45;&gt;Node10 -->
<g id="edge9" class="edge">
<title>Node1&#45;&gt;Node10</title>
<path fill="none" stroke="midnightblue" d="M275.92,-140.79C295.18,-124.8 323.02,-103.34 350,-88.5 355.85,-85.28 362.21,-82.31 368.58,-79.63"/>
<polygon fill="midnightblue" stroke="midnightblue" points="273.62,-138.15 268.22,-147.27 278.13,-143.51 273.62,-138.15"/>
</g>
<!-- Node11 -->
<g id="node11" class="node">
<title>Node11</title>
<g id="a_node11"><a xlink:href="classmuq_1_1SamplingAlgorithms_1_1SubsamplingMIProposal.html" target="_top" xlink:title="Subsampling Multiindex proposal.">
<polygon fill="white" stroke="black" points="350,-0.5 350,-30.5 478,-30.5 478,-0.5 350,-0.5"/>
<text text-anchor="start" x="358" y="-18.5" font-family="FreeSans.ttf" font-size="10.00">muq::SamplingAlgorithms</text>
<text text-anchor="middle" x="414" y="-7.5" font-family="FreeSans.ttf" font-size="10.00">::SubsamplingMIProposal</text>
</a>
</g>
</g>
<!-- Node1&#45;&gt;Node11 -->
<g id="edge10" class="edge">
<title>Node1&#45;&gt;Node11</title>
<path fill="none" stroke="midnightblue" d="M264.8,-138.57C281.69,-111.18 312.71,-66.6 350,-39.5 354.64,-36.13 359.81,-33.17 365.14,-30.58"/>
<polygon fill="midnightblue" stroke="midnightblue" points="261.59,-137.12 259.42,-147.49 267.58,-140.73 261.59,-137.12"/>
</g>
<!-- Node2 -->
<g id="node2" class="node">
<title>Node2</title>
<g id="a_node2"><a xlink:title=" ">
<polygon fill="white" stroke="#bfbfbf" points="0,-147.5 0,-177.5 150,-177.5 150,-147.5 0,-147.5"/>
<text text-anchor="start" x="8" y="-165.5" font-family="FreeSans.ttf" font-size="10.00">std::enable_shared</text>
<text text-anchor="middle" x="75" y="-154.5" font-family="FreeSans.ttf" font-size="10.00">_from_this&lt; MCMCProposal &gt;</text>
</a>
</g>
</g>
<!-- Node2&#45;&gt;Node1 -->
<g id="edge1" class="edge">
<title>Node2&#45;&gt;Node1</title>
<path fill="none" stroke="midnightblue" d="M160.24,-162.5C168.88,-162.5 177.56,-162.5 185.92,-162.5"/>
<polygon fill="midnightblue" stroke="midnightblue" points="160.12,-159 150.12,-162.5 160.12,-166 160.12,-159"/>
</g>
<!-- Node4 -->
<g id="node4" class="node">
<title>Node4</title>
<g id="a_node4"><a xlink:href="classmuq_1_1SamplingAlgorithms_1_1ParallelAMProposal.html" target="_top" xlink:title=" ">
<polygon fill="white" stroke="black" points="514,-294.5 514,-324.5 642,-324.5 642,-294.5 514,-294.5"/>
<text text-anchor="start" x="522" y="-312.5" font-family="FreeSans.ttf" font-size="10.00">muq::SamplingAlgorithms</text>
<text text-anchor="middle" x="578" y="-301.5" font-family="FreeSans.ttf" font-size="10.00">::ParallelAMProposal</text>
</a>
</g>
</g>
<!-- Node3&#45;&gt;Node4 -->
<g id="edge3" class="edge">
<title>Node3&#45;&gt;Node4</title>
<path fill="none" stroke="midnightblue" d="M488.37,-309.5C496.86,-309.5 505.47,-309.5 513.81,-309.5"/>
<polygon fill="midnightblue" stroke="midnightblue" points="488.1,-306 478.1,-309.5 488.1,-313 488.1,-306"/>
</g>
<!-- Node6 -->
<g id="node6" class="node">
<title>Node6</title>
<g id="a_node6"><a xlink:href="classmuq_1_1SamplingAlgorithms_1_1InfMALAProposal.html" target="_top" xlink:title="An implement of the dimension&#45;independent MALA (or Inf&#45;MALA) proposal.">
<polygon fill="white" stroke="black" points="514,-245.5 514,-275.5 642,-275.5 642,-245.5 514,-245.5"/>
<text text-anchor="start" x="522" y="-263.5" font-family="FreeSans.ttf" font-size="10.00">muq::SamplingAlgorithms</text>
<text text-anchor="middle" x="578" y="-252.5" font-family="FreeSans.ttf" font-size="10.00">::InfMALAProposal</text>
</a>
</g>
</g>
<!-- Node5&#45;&gt;Node6 -->
<g id="edge5" class="edge">
<title>Node5&#45;&gt;Node6</title>
<path fill="none" stroke="midnightblue" d="M488.37,-260.5C496.86,-260.5 505.47,-260.5 513.81,-260.5"/>
<polygon fill="midnightblue" stroke="midnightblue" points="488.1,-257 478.1,-260.5 488.1,-264 488.1,-257"/>
</g>
</g>
</svg>
