<?xml version="1.0" encoding="UTF-8" standalone="no"?>
<!DOCTYPE svg PUBLIC "-//W3C//DTD SVG 1.1//EN"
 "http://www.w3.org/Graphics/SVG/1.1/DTD/svg11.dtd">
<!-- Generated by graphviz version 2.47.3 (20210619.1520)
 -->
<!-- Title: muq::Modeling::RandomVariable Pages: 1 -->
<svg width="294pt" height="151pt"
 viewBox="0.00 0.00 294.00 151.00" xmlns="http://www.w3.org/2000/svg" xmlns:xlink="http://www.w3.org/1999/xlink">
<g id="graph0" class="graph" transform="scale(1 1) rotate(0) translate(4 147)">
<title>muq::Modeling::RandomVariable</title>
<polygon fill="white" stroke="transparent" points="-4,4 -4,-147 290,-147 290,4 -4,4"/>
<!-- Node1 -->
<g id="node1" class="node">
<title>Node1</title>
<g id="a_node1"><a xlink:title=" ">
<polygon fill="#bfbfbf" stroke="black" points="64,-0.5 64,-19.5 222,-19.5 222,-0.5 64,-0.5"/>
<text text-anchor="middle" x="143" y="-7.5" font-family="FreeSans.ttf" font-size="10.00">muq::Modeling::RandomVariable</text>
</a>
</g>
</g>
<!-- Node2 -->
<g id="node2" class="node">
<title>Node2</title>
<g id="a_node2"><a xlink:href="classmuq_1_1Modeling_1_1Distribution.html" target="_top" xlink:title=" ">
<polygon fill="white" stroke="black" points="0,-56.5 0,-75.5 136,-75.5 136,-56.5 0,-56.5"/>
<text text-anchor="middle" x="68" y="-63.5" font-family="FreeSans.ttf" font-size="10.00">muq::Modeling::Distribution</text>
</a>
</g>
</g>
<!-- Node2&#45;&gt;Node1 -->
<g id="edge1" class="edge">
<title>Node2&#45;&gt;Node1</title>
<path fill="none" stroke="midnightblue" d="M88.31,-50.38C101.86,-40.62 119.24,-28.11 130.73,-19.83"/>
<polygon fill="midnightblue" stroke="midnightblue" points="86.12,-47.64 80.05,-56.32 90.21,-53.32 86.12,-47.64"/>
</g>
<!-- Node3 -->
<g id="node3" class="node">
<title>Node3</title>
<g id="a_node3"><a xlink:title=" ">
<polygon fill="white" stroke="#bfbfbf" points="3,-112.5 3,-142.5 133,-142.5 133,-112.5 3,-112.5"/>
<text text-anchor="start" x="11" y="-130.5" font-family="FreeSans.ttf" font-size="10.00">std::enable_shared</text>
<text text-anchor="middle" x="68" y="-119.5" font-family="FreeSans.ttf" font-size="10.00">_from_this&lt; Distribution &gt;</text>
</a>
</g>
</g>
<!-- Node3&#45;&gt;Node2 -->
<g id="edge2" class="edge">
<title>Node3&#45;&gt;Node2</title>
<path fill="none" stroke="midnightblue" d="M68,-102.29C68,-92.86 68,-82.65 68,-75.66"/>
<polygon fill="midnightblue" stroke="midnightblue" points="64.5,-102.4 68,-112.4 71.5,-102.4 64.5,-102.4"/>
</g>
<!-- Node4 -->
<g id="node4" class="node">
<title>Node4</title>
<g id="a_node4"><a xlink:href="classmuq_1_1Modeling_1_1ModPiece.html" target="_top" xlink:title="Provides an abstract interface for defining vector&#45;valued model components.">
<polygon fill="white" stroke="black" points="154,-56.5 154,-75.5 284,-75.5 284,-56.5 154,-56.5"/>
<text text-anchor="middle" x="219" y="-63.5" font-family="FreeSans.ttf" font-size="10.00">muq::Modeling::ModPiece</text>
</a>
</g>
</g>
<!-- Node4&#45;&gt;Node1 -->
<g id="edge3" class="edge">
<title>Node4&#45;&gt;Node1</title>
<path fill="none" stroke="midnightblue" d="M198.42,-50.38C184.69,-40.62 167.07,-28.11 155.43,-19.83"/>
<polygon fill="midnightblue" stroke="midnightblue" points="196.61,-53.38 206.79,-56.32 200.66,-47.68 196.61,-53.38"/>
</g>
<!-- Node5 -->
<g id="node5" class="node">
<title>Node5</title>
<g id="a_node5"><a xlink:href="classmuq_1_1Modeling_1_1WorkPiece.html" target="_top" xlink:title="Base class for MUQ&#39;s modelling envronment.">
<polygon fill="white" stroke="black" points="152,-118 152,-137 286,-137 286,-118 152,-118"/>
<text text-anchor="middle" x="219" y="-125" font-family="FreeSans.ttf" font-size="10.00">muq::Modeling::WorkPiece</text>
</a>
</g>
</g>
<!-- Node5&#45;&gt;Node4 -->
<g id="edge4" class="edge">
<title>Node5&#45;&gt;Node4</title>
<path fill="none" stroke="midnightblue" d="M219,-107.82C219,-97 219,-83.9 219,-75.51"/>
<polygon fill="midnightblue" stroke="midnightblue" points="215.5,-107.98 219,-117.98 222.5,-107.98 215.5,-107.98"/>
</g>
</g>
</svg>
