<?xml version="1.0" encoding="UTF-8" standalone="no"?>
<!DOCTYPE svg PUBLIC "-//W3C//DTD SVG 1.1//EN"
 "http://www.w3.org/Graphics/SVG/1.1/DTD/svg11.dtd">
<!-- Generated by graphviz version 2.47.3 (20210619.1520)
 -->
<!-- Title: muq::Modeling::ModPiece Pages: 1 -->
<svg width="723pt" height="1072pt"
 viewBox="0.00 0.00 723.00 1072.00" xmlns="http://www.w3.org/2000/svg" xmlns:xlink="http://www.w3.org/1999/xlink">
<g id="graph0" class="graph" transform="scale(1 1) rotate(0) translate(4 1068)">
<title>muq::Modeling::ModPiece</title>
<polygon fill="white" stroke="transparent" points="-4,4 -4,-1068 719,-1068 719,4 -4,4"/>
<!-- Node1 -->
<g id="node1" class="node">
<title>Node1</title>
<g id="a_node1"><a xlink:title="Provides an abstract interface for defining vector&#45;valued model components.">
<polygon fill="#bfbfbf" stroke="black" points="170,-523.5 170,-542.5 300,-542.5 300,-523.5 170,-523.5"/>
<text text-anchor="middle" x="235" y="-530.5" font-family="FreeSans.ttf" font-size="10.00">muq::Modeling::ModPiece</text>
</a>
</g>
</g>
<!-- Node3 -->
<g id="node3" class="node">
<title>Node3</title>
<g id="a_node3"><a xlink:title=" ">
<polygon fill="white" stroke="#bfbfbf" points="386.5,-1044.5 386.5,-1063.5 459.5,-1063.5 459.5,-1044.5 386.5,-1044.5"/>
<text text-anchor="middle" x="423" y="-1051.5" font-family="FreeSans.ttf" font-size="10.00">SimpleModel</text>
</a>
</g>
</g>
<!-- Node1&#45;&gt;Node3 -->
<g id="edge2" class="edge">
<title>Node1&#45;&gt;Node3</title>
<path fill="none" stroke="midnightblue" d="M237.13,-552.87C242.35,-637.2 266.81,-964.36 336,-1035 348.95,-1048.22 368.87,-1053.19 386.28,-1054.75"/>
<polygon fill="midnightblue" stroke="midnightblue" points="240.61,-552.41 236.52,-542.64 233.62,-552.83 240.61,-552.41"/>
</g>
<!-- Node4 -->
<g id="node4" class="node">
<title>Node4</title>
<g id="a_node4"><a xlink:href="classmuq_1_1Approximation_1_1BasisExpansion.html" target="_top" xlink:title="Class for defining expansions of basis functions defined by a MultiIndexSet and collection of IndexSc...">
<polygon fill="white" stroke="black" points="371,-995 371,-1025 475,-1025 475,-995 371,-995"/>
<text text-anchor="start" x="379" y="-1013" font-family="FreeSans.ttf" font-size="10.00">muq::Approximation</text>
<text text-anchor="middle" x="423" y="-1002" font-family="FreeSans.ttf" font-size="10.00">::BasisExpansion</text>
</a>
</g>
</g>
<!-- Node1&#45;&gt;Node4 -->
<g id="edge3" class="edge">
<title>Node1&#45;&gt;Node4</title>
<path fill="none" stroke="midnightblue" d="M237.7,-552.84C244.84,-631.65 274.92,-921.47 336,-986 345.16,-995.68 357.88,-1001.57 370.72,-1005.11"/>
<polygon fill="midnightblue" stroke="midnightblue" points="241.18,-552.45 236.81,-542.79 234.21,-553.06 241.18,-552.45"/>
</g>
<!-- Node6 -->
<g id="node6" class="node">
<title>Node6</title>
<g id="a_node6"><a xlink:href="classmuq_1_1Approximation_1_1LocalRegression.html" target="_top" xlink:title=" ">
<polygon fill="white" stroke="black" points="371,-946 371,-976 475,-976 475,-946 371,-946"/>
<text text-anchor="start" x="379" y="-964" font-family="FreeSans.ttf" font-size="10.00">muq::Approximation</text>
<text text-anchor="middle" x="423" y="-953" font-family="FreeSans.ttf" font-size="10.00">::LocalRegression</text>
</a>
</g>
</g>
<!-- Node1&#45;&gt;Node6 -->
<g id="edge5" class="edge">
<title>Node1&#45;&gt;Node6</title>
<path fill="none" stroke="midnightblue" d="M238.29,-553C247.1,-626.52 281.06,-880.41 336,-937 345.29,-946.56 358.04,-952.41 370.88,-955.96"/>
<polygon fill="midnightblue" stroke="midnightblue" points="241.74,-552.33 237.09,-542.81 234.78,-553.15 241.74,-552.33"/>
</g>
<!-- Node7 -->
<g id="node7" class="node">
<title>Node7</title>
<g id="a_node7"><a xlink:href="classmuq_1_1Approximation_1_1Regression_1_1PoisednessConstraint.html" target="_top" xlink:title=" ">
<polygon fill="white" stroke="black" points="336,-897 336,-927 510,-927 510,-897 336,-897"/>
<text text-anchor="start" x="344" y="-915" font-family="FreeSans.ttf" font-size="10.00">muq::Approximation</text>
<text text-anchor="middle" x="423" y="-904" font-family="FreeSans.ttf" font-size="10.00">::Regression::PoisednessConstraint</text>
</a>
</g>
</g>
<!-- Node1&#45;&gt;Node7 -->
<g id="edge6" class="edge">
<title>Node1&#45;&gt;Node7</title>
<path fill="none" stroke="midnightblue" d="M235.39,-552.76C234.67,-612.2 240.9,-791.17 336,-887 339.83,-890.86 344.23,-894.14 348.95,-896.91"/>
<polygon fill="midnightblue" stroke="midnightblue" points="238.89,-552.59 235.6,-542.52 231.89,-552.45 238.89,-552.59"/>
</g>
<!-- Node8 -->
<g id="node8" class="node">
<title>Node8</title>
<g id="a_node8"><a xlink:href="classmuq_1_1Modeling_1_1AffineOperator.html" target="_top" xlink:title="Generic affine operator which adds an offset to a linear operator. @seealso LinearOperator.">
<polygon fill="white" stroke="black" points="348.5,-858.5 348.5,-877.5 497.5,-877.5 497.5,-858.5 348.5,-858.5"/>
<text text-anchor="middle" x="423" y="-865.5" font-family="FreeSans.ttf" font-size="10.00">muq::Modeling::AffineOperator</text>
</a>
</g>
</g>
<!-- Node1&#45;&gt;Node8 -->
<g id="edge7" class="edge">
<title>Node1&#45;&gt;Node8</title>
<path fill="none" stroke="midnightblue" d="M235.9,-552.74C236.75,-608.38 247.21,-767.78 336,-849 340.17,-852.82 344.94,-855.93 350.04,-858.46"/>
<polygon fill="midnightblue" stroke="midnightblue" points="239.4,-552.48 235.84,-542.5 232.4,-552.52 239.4,-552.48"/>
</g>
<!-- Node9 -->
<g id="node9" class="node">
<title>Node9</title>
<g id="a_node9"><a xlink:href="classmuq_1_1Modeling_1_1CombineVectors.html" target="_top" xlink:title=" ">
<polygon fill="white" stroke="black" points="343.5,-820.5 343.5,-839.5 502.5,-839.5 502.5,-820.5 343.5,-820.5"/>
<text text-anchor="middle" x="423" y="-827.5" font-family="FreeSans.ttf" font-size="10.00">muq::Modeling::CombineVectors</text>
</a>
</g>
</g>
<!-- Node1&#45;&gt;Node9 -->
<g id="edge8" class="edge">
<title>Node1&#45;&gt;Node9</title>
<path fill="none" stroke="midnightblue" d="M236.88,-552.74C240.27,-603.83 256.69,-741.24 336,-811 340.36,-814.84 345.33,-817.95 350.61,-820.48"/>
<polygon fill="midnightblue" stroke="midnightblue" points="240.37,-552.48 236.31,-542.7 233.38,-552.88 240.37,-552.48"/>
</g>
<!-- Node10 -->
<g id="node10" class="node">
<title>Node10</title>
<g id="a_node10"><a xlink:href="classmuq_1_1Modeling_1_1ConstantVector.html" target="_top" xlink:title="A muq::Modeling::ModPiece with no inputs and a single known vector&#45;valued output.">
<polygon fill="white" stroke="black" points="345.5,-782.5 345.5,-801.5 500.5,-801.5 500.5,-782.5 345.5,-782.5"/>
<text text-anchor="middle" x="423" y="-789.5" font-family="FreeSans.ttf" font-size="10.00">muq::Modeling::ConstantVector</text>
</a>
</g>
</g>
<!-- Node1&#45;&gt;Node10 -->
<g id="edge9" class="edge">
<title>Node1&#45;&gt;Node10</title>
<path fill="none" stroke="midnightblue" d="M238.15,-552.8C244.26,-599.01 266.11,-714.52 336,-773 340.57,-776.83 345.75,-779.93 351.24,-782.44"/>
<polygon fill="midnightblue" stroke="midnightblue" points="241.59,-552.12 236.91,-542.62 234.64,-552.96 241.59,-552.12"/>
</g>
<!-- Node11 -->
<g id="node11" class="node">
<title>Node11</title>
<g id="a_node11"><a xlink:href="classmuq_1_1Modeling_1_1CwiseUnaryOperator.html" target="_top" xlink:title=" ">
<polygon fill="white" stroke="black" points="353,-733 353,-763 493,-763 493,-733 353,-733"/>
<text text-anchor="start" x="361" y="-751" font-family="FreeSans.ttf" font-size="10.00">muq::Modeling::CwiseUnary</text>
<text text-anchor="middle" x="423" y="-740" font-family="FreeSans.ttf" font-size="10.00">Operator&lt; T1, T2, T3 &gt;</text>
</a>
</g>
</g>
<!-- Node1&#45;&gt;Node11 -->
<g id="edge10" class="edge">
<title>Node1&#45;&gt;Node11</title>
<path fill="none" stroke="midnightblue" d="M240.77,-552.53C251.21,-591.05 279.76,-677.09 336,-723 341.06,-727.13 346.77,-730.58 352.79,-733.46"/>
<polygon fill="midnightblue" stroke="midnightblue" points="244.1,-551.4 238.2,-542.59 237.32,-553.15 244.1,-551.4"/>
</g>
<!-- Node12 -->
<g id="node12" class="node">
<title>Node12</title>
<g id="a_node12"><a xlink:href="classmuq_1_1Modeling_1_1DensityBase.html" target="_top" xlink:title=" ">
<polygon fill="white" stroke="black" points="351.5,-694.5 351.5,-713.5 494.5,-713.5 494.5,-694.5 351.5,-694.5"/>
<text text-anchor="middle" x="423" y="-701.5" font-family="FreeSans.ttf" font-size="10.00">muq::Modeling::DensityBase</text>
</a>
</g>
</g>
<!-- Node1&#45;&gt;Node12 -->
<g id="edge11" class="edge">
<title>Node1&#45;&gt;Node12</title>
<path fill="none" stroke="midnightblue" d="M243.11,-552.46C256.16,-585.29 287.15,-651.35 336,-685 341.54,-688.82 347.72,-691.88 354.15,-694.34"/>
<polygon fill="midnightblue" stroke="midnightblue" points="246.22,-550.79 239.38,-542.7 239.68,-553.29 246.22,-550.79"/>
</g>
<!-- Node15 -->
<g id="node15" class="node">
<title>Node15</title>
<g id="a_node15"><a xlink:href="classmuq_1_1Modeling_1_1FlannCache.html" target="_top" xlink:title="Create a cache of model evaluations (input/output pairs)">
<polygon fill="white" stroke="black" points="353.5,-656.5 353.5,-675.5 492.5,-675.5 492.5,-656.5 353.5,-656.5"/>
<text text-anchor="middle" x="423" y="-663.5" font-family="FreeSans.ttf" font-size="10.00">muq::Modeling::FlannCache</text>
</a>
</g>
</g>
<!-- Node1&#45;&gt;Node15 -->
<g id="edge14" class="edge">
<title>Node1&#45;&gt;Node15</title>
<path fill="none" stroke="midnightblue" d="M246.9,-551.56C262.99,-577.23 295.61,-623.11 336,-647 342.58,-650.89 349.87,-653.99 357.34,-656.45"/>
<polygon fill="midnightblue" stroke="midnightblue" points="249.75,-549.51 241.56,-542.79 243.77,-553.16 249.75,-549.51"/>
</g>
<!-- Node16 -->
<g id="node16" class="node">
<title>Node16</title>
<g id="a_node16"><a xlink:href="classmuq_1_1Modeling_1_1GradientPiece.html" target="_top" xlink:title=" ">
<polygon fill="white" stroke="black" points="349,-618.5 349,-637.5 497,-637.5 497,-618.5 349,-618.5"/>
<text text-anchor="middle" x="423" y="-625.5" font-family="FreeSans.ttf" font-size="10.00">muq::Modeling::GradientPiece</text>
</a>
</g>
</g>
<!-- Node1&#45;&gt;Node16 -->
<g id="edge15" class="edge">
<title>Node1&#45;&gt;Node16</title>
<path fill="none" stroke="midnightblue" d="M252.97,-549.64C271.73,-567.09 303.59,-593.99 336,-609 344.33,-612.85 353.47,-615.95 362.6,-618.42"/>
<polygon fill="midnightblue" stroke="midnightblue" points="255.21,-546.94 245.54,-542.59 250.38,-552.02 255.21,-546.94"/>
</g>
<!-- Node17 -->
<g id="node17" class="node">
<title>Node17</title>
<g id="a_node17"><a xlink:href="classmuq_1_1Modeling_1_1JacobianPiece.html" target="_top" xlink:title="A wrapper around another ModPiece that evaluates the action of the other piece&#39;s Jacobian on a vector...">
<polygon fill="white" stroke="black" points="348,-580.5 348,-599.5 498,-599.5 498,-580.5 348,-580.5"/>
<text text-anchor="middle" x="423" y="-587.5" font-family="FreeSans.ttf" font-size="10.00">muq::Modeling::JacobianPiece</text>
</a>
</g>
</g>
<!-- Node1&#45;&gt;Node17 -->
<g id="edge16" class="edge">
<title>Node1&#45;&gt;Node17</title>
<path fill="none" stroke="midnightblue" d="M267.62,-546.37C287.09,-554.27 312.71,-564.04 336,-571 347.87,-574.55 360.83,-577.75 373.02,-580.47"/>
<polygon fill="midnightblue" stroke="midnightblue" points="268.9,-543.11 258.32,-542.55 266.24,-549.59 268.9,-543.11"/>
</g>
<!-- Node18 -->
<g id="node18" class="node">
<title>Node18</title>
<g id="a_node18"><a xlink:href="classmuq_1_1Modeling_1_1LinearOperator.html" target="_top" xlink:title="Generic linear operator base class.">
<polygon fill="white" stroke="red" points="348,-542.5 348,-561.5 498,-561.5 498,-542.5 348,-542.5"/>
<text text-anchor="middle" x="423" y="-549.5" font-family="FreeSans.ttf" font-size="10.00">muq::Modeling::LinearOperator</text>
</a>
</g>
</g>
<!-- Node1&#45;&gt;Node18 -->
<g id="edge17" class="edge">
<title>Node1&#45;&gt;Node18</title>
<path fill="none" stroke="midnightblue" d="M310.3,-540.59C322.7,-541.86 335.56,-543.17 347.96,-544.44"/>
<polygon fill="midnightblue" stroke="midnightblue" points="310.31,-537.07 300.01,-539.54 309.6,-544.04 310.31,-537.07"/>
</g>
<!-- Node39 -->
<g id="node37" class="node">
<title>Node39</title>
<g id="a_node37"><a xlink:href="classmuq_1_1Modeling_1_1ModGraphPiece.html" target="_top" xlink:title="A muq::Modeling::ModPiece created from a muq::Modeling::WorkGraph.">
<polygon fill="white" stroke="black" points="345,-504.5 345,-523.5 501,-523.5 501,-504.5 345,-504.5"/>
<text text-anchor="middle" x="423" y="-511.5" font-family="FreeSans.ttf" font-size="10.00">muq::Modeling::ModGraphPiece</text>
</a>
</g>
</g>
<!-- Node1&#45;&gt;Node39 -->
<g id="edge36" class="edge">
<title>Node1&#45;&gt;Node39</title>
<path fill="none" stroke="midnightblue" d="M310.28,-525.41C321.61,-524.26 333.32,-523.06 344.71,-521.9"/>
<polygon fill="midnightblue" stroke="midnightblue" points="309.6,-521.96 300.01,-526.46 310.31,-528.93 309.6,-521.96"/>
</g>
<!-- Node40 -->
<g id="node38" class="node">
<title>Node40</title>
<g id="a_node38"><a xlink:href="classmuq_1_1Modeling_1_1MultiLogisticLikelihood.html" target="_top" xlink:title="Class that defines the likelihood function for multinomial logistic regression.">
<polygon fill="white" stroke="black" points="352.5,-455 352.5,-485 493.5,-485 493.5,-455 352.5,-455"/>
<text text-anchor="start" x="360.5" y="-473" font-family="FreeSans.ttf" font-size="10.00">muq::Modeling::MultiLogistic</text>
<text text-anchor="middle" x="423" y="-462" font-family="FreeSans.ttf" font-size="10.00">Likelihood</text>
</a>
</g>
</g>
<!-- Node1&#45;&gt;Node40 -->
<g id="edge37" class="edge">
<title>Node1&#45;&gt;Node40</title>
<path fill="none" stroke="midnightblue" d="M268.95,-519.72C288.33,-512.09 313.4,-502.57 336,-495 346.17,-491.59 357.11,-488.21 367.66,-485.08"/>
<polygon fill="midnightblue" stroke="midnightblue" points="267.66,-516.46 259.65,-523.4 270.23,-522.97 267.66,-516.46"/>
</g>
<!-- Node41 -->
<g id="node39" class="node">
<title>Node41</title>
<g id="a_node39"><a xlink:href="classmuq_1_1Modeling_1_1ODE.html" target="_top" xlink:title="A class for integrating ODEs with CVODES.">
<polygon fill="white" stroke="black" points="369,-416.5 369,-435.5 477,-435.5 477,-416.5 369,-416.5"/>
<text text-anchor="middle" x="423" y="-423.5" font-family="FreeSans.ttf" font-size="10.00">muq::Modeling::ODE</text>
</a>
</g>
</g>
<!-- Node1&#45;&gt;Node41 -->
<g id="edge38" class="edge">
<title>Node1&#45;&gt;Node41</title>
<path fill="none" stroke="midnightblue" d="M250.76,-515.5C268.78,-495.32 301.17,-462.67 336,-445 346.09,-439.88 357.53,-436.13 368.7,-433.39"/>
<polygon fill="midnightblue" stroke="midnightblue" points="247.89,-513.47 243.96,-523.3 253.17,-518.07 247.89,-513.47"/>
</g>
<!-- Node42 -->
<g id="node40" class="node">
<title>Node42</title>
<g id="a_node40"><a xlink:href="classmuq_1_1Modeling_1_1OneStepCachePiece.html" target="_top" xlink:title=" ">
<polygon fill="white" stroke="black" points="346.5,-367 346.5,-397 499.5,-397 499.5,-367 346.5,-367"/>
<text text-anchor="start" x="354.5" y="-385" font-family="FreeSans.ttf" font-size="10.00">muq::Modeling::OneStepCache</text>
<text text-anchor="middle" x="423" y="-374" font-family="FreeSans.ttf" font-size="10.00">Piece</text>
</a>
</g>
</g>
<!-- Node1&#45;&gt;Node42 -->
<g id="edge39" class="edge">
<title>Node1&#45;&gt;Node42</title>
<path fill="none" stroke="midnightblue" d="M245.74,-514.46C261.18,-486.89 293.88,-435.29 336,-407 341.81,-403.1 348.23,-399.8 354.88,-397"/>
<polygon fill="midnightblue" stroke="midnightblue" points="242.56,-512.99 240.85,-523.45 248.7,-516.34 242.56,-512.99"/>
</g>
<!-- Node43 -->
<g id="node41" class="node">
<title>Node43</title>
<g id="a_node41"><a xlink:href="classmuq_1_1Modeling_1_1ProductPiece.html" target="_top" xlink:title="Returns the components in a single vector input.">
<polygon fill="white" stroke="black" points="350.5,-328.5 350.5,-347.5 495.5,-347.5 495.5,-328.5 350.5,-328.5"/>
<text text-anchor="middle" x="423" y="-335.5" font-family="FreeSans.ttf" font-size="10.00">muq::Modeling::ProductPiece</text>
</a>
</g>
</g>
<!-- Node1&#45;&gt;Node43 -->
<g id="edge40" class="edge">
<title>Node1&#45;&gt;Node43</title>
<path fill="none" stroke="midnightblue" d="M241.42,-513.08C252.57,-476.14 281.67,-397.09 336,-357 341.17,-353.19 346.95,-350.11 353.02,-347.64"/>
<polygon fill="midnightblue" stroke="midnightblue" points="237.94,-512.53 238.53,-523.11 244.67,-514.47 237.94,-512.53"/>
</g>
<!-- Node44 -->
<g id="node42" class="node">
<title>Node44</title>
<g id="a_node42"><a xlink:href="classmuq_1_1Modeling_1_1PyModPiece.html" target="_top" xlink:title=" ">
<polygon fill="white" stroke="red" points="352,-290.5 352,-309.5 494,-309.5 494,-290.5 352,-290.5"/>
<text text-anchor="middle" x="423" y="-297.5" font-family="FreeSans.ttf" font-size="10.00">muq::Modeling::PyModPiece</text>
</a>
</g>
</g>
<!-- Node1&#45;&gt;Node44 -->
<g id="edge41" class="edge">
<title>Node1&#45;&gt;Node44</title>
<path fill="none" stroke="midnightblue" d="M239.17,-513.61C247.16,-471.24 272.25,-370.08 336,-319 340.77,-315.18 346.15,-312.08 351.84,-309.58"/>
<polygon fill="midnightblue" stroke="midnightblue" points="235.72,-513.03 237.42,-523.49 242.61,-514.25 235.72,-513.03"/>
</g>
<!-- Node47 -->
<g id="node43" class="node">
<title>Node47</title>
<g id="a_node43"><a xlink:href="classmuq_1_1Modeling_1_1RandomVariable.html" target="_top" xlink:title=" ">
<polygon fill="white" stroke="black" points="344,-252.5 344,-271.5 502,-271.5 502,-252.5 344,-252.5"/>
<text text-anchor="middle" x="423" y="-259.5" font-family="FreeSans.ttf" font-size="10.00">muq::Modeling::RandomVariable</text>
</a>
</g>
</g>
<!-- Node1&#45;&gt;Node47 -->
<g id="edge42" class="edge">
<title>Node1&#45;&gt;Node47</title>
<path fill="none" stroke="midnightblue" d="M237.71,-513.2C242.95,-465.39 263.16,-343.01 336,-281 340.42,-277.23 345.43,-274.17 350.75,-271.67"/>
<polygon fill="midnightblue" stroke="midnightblue" points="234.2,-513.14 236.7,-523.43 241.17,-513.83 234.2,-513.14"/>
</g>
<!-- Node48 -->
<g id="node44" class="node">
<title>Node48</title>
<g id="a_node44"><a xlink:href="classmuq_1_1Modeling_1_1ReplicateOperator.html" target="_top" xlink:title="A muq::Modeling::ModPiece that replicates a single input vector &#160;times.">
<polygon fill="white" stroke="black" points="359,-203 359,-233 487,-233 487,-203 359,-203"/>
<text text-anchor="start" x="367" y="-221" font-family="FreeSans.ttf" font-size="10.00">muq::Modeling::Replicate</text>
<text text-anchor="middle" x="423" y="-210" font-family="FreeSans.ttf" font-size="10.00">Operator</text>
</a>
</g>
</g>
<!-- Node1&#45;&gt;Node48 -->
<g id="edge43" class="edge">
<title>Node1&#45;&gt;Node48</title>
<path fill="none" stroke="midnightblue" d="M236.84,-513.09C240.15,-460.87 256.39,-318.79 336,-243 342.53,-236.78 350.52,-232.1 358.96,-228.57"/>
<polygon fill="midnightblue" stroke="midnightblue" points="233.33,-513.15 236.29,-523.33 240.32,-513.53 233.33,-513.15"/>
</g>
<!-- Node49 -->
<g id="node45" class="node">
<title>Node49</title>
<g id="a_node45"><a xlink:href="classmuq_1_1Modeling_1_1ScaleVector.html" target="_top" xlink:title=" ">
<polygon fill="white" stroke="black" points="353,-164.5 353,-183.5 493,-183.5 493,-164.5 353,-164.5"/>
<text text-anchor="middle" x="423" y="-171.5" font-family="FreeSans.ttf" font-size="10.00">muq::Modeling::ScaleVector</text>
</a>
</g>
</g>
<!-- Node1&#45;&gt;Node49 -->
<g id="edge44" class="edge">
<title>Node1&#45;&gt;Node49</title>
<path fill="none" stroke="midnightblue" d="M235.39,-513.34C234.71,-455.02 241.13,-281.57 336,-193 340.92,-188.41 346.69,-184.83 352.87,-182.06"/>
<polygon fill="midnightblue" stroke="midnightblue" points="231.89,-513.48 235.59,-523.41 238.89,-513.34 231.89,-513.48"/>
</g>
<!-- Node50 -->
<g id="node46" class="node">
<title>Node50</title>
<g id="a_node46"><a xlink:href="classmuq_1_1Modeling_1_1SplitVector.html" target="_top" xlink:title="Provides a mechanism for splitting a vector into multiple pieces.">
<polygon fill="white" stroke="black" points="356,-126.5 356,-145.5 490,-145.5 490,-126.5 356,-126.5"/>
<text text-anchor="middle" x="423" y="-133.5" font-family="FreeSans.ttf" font-size="10.00">muq::Modeling::SplitVector</text>
</a>
</g>
</g>
<!-- Node1&#45;&gt;Node50 -->
<g id="edge45" class="edge">
<title>Node1&#45;&gt;Node50</title>
<path fill="none" stroke="midnightblue" d="M238.5,-513.29C247.83,-443 282.76,-206.09 336,-155 341.63,-149.6 348.42,-145.6 355.7,-142.65"/>
<polygon fill="midnightblue" stroke="midnightblue" points="235.01,-513.05 237.19,-523.42 241.95,-513.96 235.01,-513.05"/>
</g>
<!-- Node51 -->
<g id="node47" class="node">
<title>Node51</title>
<g id="a_node47"><a xlink:href="classmuq_1_1Modeling_1_1SumPiece.html" target="_top" xlink:title="Componentwise addition of two or more vectors.">
<polygon fill="white" stroke="black" points="357.5,-88.5 357.5,-107.5 488.5,-107.5 488.5,-88.5 357.5,-88.5"/>
<text text-anchor="middle" x="423" y="-95.5" font-family="FreeSans.ttf" font-size="10.00">muq::Modeling::SumPiece</text>
</a>
</g>
</g>
<!-- Node1&#45;&gt;Node51 -->
<g id="edge46" class="edge">
<title>Node1&#45;&gt;Node51</title>
<path fill="none" stroke="midnightblue" d="M238,-513.26C245.97,-438.5 277.89,-174.04 336,-117 342,-111.11 349.39,-106.87 357.3,-103.85"/>
<polygon fill="midnightblue" stroke="midnightblue" points="234.52,-512.92 236.96,-523.22 241.48,-513.64 234.52,-512.92"/>
</g>
<!-- Node52 -->
<g id="node48" class="node">
<title>Node52</title>
<g id="a_node48"><a xlink:href="classmuq_1_1Optimization_1_1CostFunction.html" target="_top" xlink:title="The cost function for an optimization routine.">
<polygon fill="white" stroke="red" points="372,-39 372,-69 474,-69 474,-39 372,-39"/>
<text text-anchor="start" x="380" y="-57" font-family="FreeSans.ttf" font-size="10.00">muq::Optimization::</text>
<text text-anchor="middle" x="423" y="-46" font-family="FreeSans.ttf" font-size="10.00">CostFunction</text>
</a>
</g>
</g>
<!-- Node1&#45;&gt;Node52 -->
<g id="edge47" class="edge">
<title>Node1&#45;&gt;Node52</title>
<path fill="none" stroke="midnightblue" d="M237.71,-513.14C244.91,-434.22 275.15,-144.01 336,-79 345.35,-69.01 358.43,-62.93 371.58,-59.26"/>
<polygon fill="midnightblue" stroke="midnightblue" points="234.22,-512.92 236.82,-523.2 241.19,-513.54 234.22,-512.92"/>
</g>
<!-- Node55 -->
<g id="node49" class="node">
<title>Node55</title>
<g id="a_node49"><a xlink:href="classmuq_1_1Utilities_1_1LinearOperator.html" target="_top" xlink:title="Generic linear operator base class.">
<polygon fill="white" stroke="black" points="351,-0.5 351,-19.5 495,-19.5 495,-0.5 351,-0.5"/>
<text text-anchor="middle" x="423" y="-7.5" font-family="FreeSans.ttf" font-size="10.00">muq::Utilities::LinearOperator</text>
</a>
</g>
</g>
<!-- Node1&#45;&gt;Node55 -->
<g id="edge48" class="edge">
<title>Node1&#45;&gt;Node55</title>
<path fill="none" stroke="midnightblue" d="M237.11,-513.31C242.24,-429.06 266.51,-100.01 336,-29 340.28,-24.63 345.32,-21.16 350.78,-18.42"/>
<polygon fill="midnightblue" stroke="midnightblue" points="233.61,-513.14 236.52,-523.32 240.6,-513.55 233.61,-513.14"/>
</g>
<!-- Node2 -->
<g id="node2" class="node">
<title>Node2</title>
<g id="a_node2"><a xlink:href="classmuq_1_1Modeling_1_1WorkPiece.html" target="_top" xlink:title="Base class for MUQ&#39;s modelling envronment.">
<polygon fill="white" stroke="black" points="0,-523.5 0,-542.5 134,-542.5 134,-523.5 0,-523.5"/>
<text text-anchor="middle" x="67" y="-530.5" font-family="FreeSans.ttf" font-size="10.00">muq::Modeling::WorkPiece</text>
</a>
</g>
</g>
<!-- Node2&#45;&gt;Node1 -->
<g id="edge1" class="edge">
<title>Node2&#45;&gt;Node1</title>
<path fill="none" stroke="midnightblue" d="M144.09,-533C152.67,-533 161.36,-533 169.77,-533"/>
<polygon fill="midnightblue" stroke="midnightblue" points="144.08,-529.5 134.08,-533 144.08,-536.5 144.08,-529.5"/>
</g>
<!-- Node5 -->
<g id="node5" class="node">
<title>Node5</title>
<g id="a_node5"><a xlink:href="classmuq_1_1Approximation_1_1PolynomialChaosExpansion.html" target="_top" xlink:title="A class for representing and using expansions of orthogonal multivariate polynomials.">
<polygon fill="white" stroke="black" points="558,-995 558,-1025 703,-1025 703,-995 558,-995"/>
<text text-anchor="start" x="566" y="-1013" font-family="FreeSans.ttf" font-size="10.00">muq::Approximation</text>
<text text-anchor="middle" x="630.5" y="-1002" font-family="FreeSans.ttf" font-size="10.00">::PolynomialChaosExpansion</text>
</a>
</g>
</g>
<!-- Node4&#45;&gt;Node5 -->
<g id="edge4" class="edge">
<title>Node4&#45;&gt;Node5</title>
<path fill="none" stroke="midnightblue" d="M485.28,-1010C508.06,-1010 534.11,-1010 557.75,-1010"/>
<polygon fill="midnightblue" stroke="midnightblue" points="485.06,-1006.5 475.06,-1010 485.06,-1013.5 485.06,-1006.5"/>
</g>
<!-- Node13 -->
<g id="node13" class="node">
<title>Node13</title>
<g id="a_node13"><a xlink:href="classmuq_1_1Modeling_1_1Density.html" target="_top" xlink:title=" ">
<polygon fill="white" stroke="black" points="570.5,-946.5 570.5,-965.5 690.5,-965.5 690.5,-946.5 570.5,-946.5"/>
<text text-anchor="middle" x="630.5" y="-953.5" font-family="FreeSans.ttf" font-size="10.00">muq::Modeling::Density</text>
</a>
</g>
</g>
<!-- Node12&#45;&gt;Node13 -->
<g id="edge12" class="edge">
<title>Node12&#45;&gt;Node13</title>
<path fill="none" stroke="midnightblue" d="M503.27,-718.04C505.67,-719.82 507.93,-721.8 510,-724 575.78,-793.93 480.05,-867.23 546,-937 552.54,-943.91 561.02,-948.56 570.08,-951.64"/>
<polygon fill="midnightblue" stroke="midnightblue" points="504.93,-714.96 494.57,-712.73 501.28,-720.93 504.93,-714.96"/>
</g>
<!-- Node14 -->
<g id="node14" class="node">
<title>Node14</title>
<g id="a_node14"><a xlink:href="classmuq_1_1Modeling_1_1DensityProduct.html" target="_top" xlink:title=" ">
<polygon fill="white" stroke="black" points="553.5,-908.5 553.5,-927.5 707.5,-927.5 707.5,-908.5 553.5,-908.5"/>
<text text-anchor="middle" x="630.5" y="-915.5" font-family="FreeSans.ttf" font-size="10.00">muq::Modeling::DensityProduct</text>
</a>
</g>
</g>
<!-- Node12&#45;&gt;Node14 -->
<g id="edge13" class="edge">
<title>Node12&#45;&gt;Node14</title>
<path fill="none" stroke="midnightblue" d="M503.81,-718.61C506.01,-720.24 508.08,-722.03 510,-724 565.43,-780.86 490.44,-842.27 546,-899 549.74,-902.82 554.09,-905.95 558.79,-908.49"/>
<polygon fill="midnightblue" stroke="midnightblue" points="505.16,-715.33 494.81,-713.1 501.51,-721.31 505.16,-715.33"/>
</g>
<!-- Node19 -->
<g id="node19" class="node">
<title>Node19</title>
<g id="a_node19"><a xlink:title=" ">
<polygon fill="white" stroke="#bfbfbf" points="571,-870.5 571,-889.5 690,-889.5 690,-870.5 571,-870.5"/>
<text text-anchor="middle" x="630.5" y="-877.5" font-family="FreeSans.ttf" font-size="10.00">PeriodicKernel_F_block</text>
</a>
</g>
</g>
<!-- Node18&#45;&gt;Node19 -->
<g id="edge18" class="edge">
<title>Node18&#45;&gt;Node19</title>
<path fill="none" stroke="midnightblue" d="M506.66,-567.69C507.82,-568.73 508.94,-569.83 510,-571 597.42,-667.05 458.88,-764.68 546,-861 552.58,-868.28 561.32,-873.06 570.67,-876.16"/>
<polygon fill="midnightblue" stroke="midnightblue" points="508.49,-564.69 498.35,-561.64 504.38,-570.35 508.49,-564.69"/>
</g>
<!-- Node20 -->
<g id="node20" class="node">
<title>Node20</title>
<g id="a_node20"><a xlink:href="classmuq_1_1Modeling_1_1BlockDiagonalOperator.html" target="_top" xlink:title="Defines a block diagonal linear operator in terms of other linear operators.">
<polygon fill="white" stroke="black" points="556,-821 556,-851 705,-851 705,-821 556,-821"/>
<text text-anchor="start" x="564" y="-839" font-family="FreeSans.ttf" font-size="10.00">muq::Modeling::BlockDiagonal</text>
<text text-anchor="middle" x="630.5" y="-828" font-family="FreeSans.ttf" font-size="10.00">Operator</text>
</a>
</g>
</g>
<!-- Node18&#45;&gt;Node20 -->
<g id="edge19" class="edge">
<title>Node18&#45;&gt;Node20</title>
<path fill="none" stroke="midnightblue" d="M506.15,-567.32C507.49,-568.47 508.78,-569.69 510,-571 583.61,-649.84 475.33,-729.51 546,-811 549.37,-814.89 553.32,-818.18 557.63,-820.98"/>
<polygon fill="midnightblue" stroke="midnightblue" points="508.05,-564.37 497.85,-561.51 504.04,-570.11 508.05,-564.37"/>
</g>
<!-- Node21 -->
<g id="node21" class="node">
<title>Node21</title>
<g id="a_node21"><a xlink:href="classmuq_1_1Modeling_1_1BlockRowOperator.html" target="_top" xlink:title="Defines a block row matrix in terms of other linear operators.">
<polygon fill="white" stroke="black" points="546,-782.5 546,-801.5 715,-801.5 715,-782.5 546,-782.5"/>
<text text-anchor="middle" x="630.5" y="-789.5" font-family="FreeSans.ttf" font-size="10.00">muq::Modeling::BlockRowOperator</text>
</a>
</g>
</g>
<!-- Node18&#45;&gt;Node21 -->
<g id="edge20" class="edge">
<title>Node18&#45;&gt;Node21</title>
<path fill="none" stroke="midnightblue" d="M506.1,-567.36C507.46,-568.5 508.76,-569.71 510,-571 573.15,-636.79 483.06,-707.01 546,-773 549.59,-776.77 553.76,-779.86 558.28,-782.39"/>
<polygon fill="midnightblue" stroke="midnightblue" points="507.96,-564.39 497.73,-561.62 504,-570.17 507.96,-564.39"/>
</g>
<!-- Node22 -->
<g id="node22" class="node">
<title>Node22</title>
<g id="a_node22"><a xlink:href="classmuq_1_1Modeling_1_1CompanionMatrix.html" target="_top" xlink:title="Implments a companion matrix as a linear operator.">
<polygon fill="white" stroke="black" points="562.5,-733 562.5,-763 698.5,-763 698.5,-733 562.5,-733"/>
<text text-anchor="start" x="570.5" y="-751" font-family="FreeSans.ttf" font-size="10.00">muq::Modeling::Companion</text>
<text text-anchor="middle" x="630.5" y="-740" font-family="FreeSans.ttf" font-size="10.00">Matrix</text>
</a>
</g>
</g>
<!-- Node18&#45;&gt;Node22 -->
<g id="edge21" class="edge">
<title>Node18&#45;&gt;Node22</title>
<path fill="none" stroke="midnightblue" d="M505.88,-567.36C507.31,-568.5 508.69,-569.71 510,-571 559.73,-620.06 497.82,-673.41 546,-724 550.68,-728.92 556.3,-732.84 562.37,-735.98"/>
<polygon fill="midnightblue" stroke="midnightblue" points="507.39,-564.16 497.1,-561.63 503.56,-570.02 507.39,-564.16"/>
</g>
<!-- Node23 -->
<g id="node23" class="node">
<title>Node23</title>
<g id="a_node23"><a xlink:href="classmuq_1_1Modeling_1_1ConcatenateOperator.html" target="_top" xlink:title="Vertical or horizontal concatenation of other linear operators.">
<polygon fill="white" stroke="black" points="559.5,-684 559.5,-714 701.5,-714 701.5,-684 559.5,-684"/>
<text text-anchor="start" x="567.5" y="-702" font-family="FreeSans.ttf" font-size="10.00">muq::Modeling::Concatenate</text>
<text text-anchor="middle" x="630.5" y="-691" font-family="FreeSans.ttf" font-size="10.00">Operator</text>
</a>
</g>
</g>
<!-- Node18&#45;&gt;Node23 -->
<g id="edge22" class="edge">
<title>Node18&#45;&gt;Node23</title>
<path fill="none" stroke="midnightblue" d="M504.58,-566.76C506.47,-568.06 508.28,-569.47 510,-571 546.27,-603.19 510.94,-640.5 546,-674 550.05,-677.87 554.67,-681.14 559.62,-683.91"/>
<polygon fill="midnightblue" stroke="midnightblue" points="506.25,-563.68 495.84,-561.68 502.73,-569.73 506.25,-563.68"/>
</g>
<!-- Node24 -->
<g id="node24" class="node">
<title>Node24</title>
<g id="a_node24"><a xlink:href="classmuq_1_1Modeling_1_1DiagonalOperator.html" target="_top" xlink:title=" ">
<polygon fill="white" stroke="black" points="549.5,-645.5 549.5,-664.5 711.5,-664.5 711.5,-645.5 549.5,-645.5"/>
<text text-anchor="middle" x="630.5" y="-652.5" font-family="FreeSans.ttf" font-size="10.00">muq::Modeling::DiagonalOperator</text>
</a>
</g>
</g>
<!-- Node18&#45;&gt;Node24 -->
<g id="edge23" class="edge">
<title>Node18&#45;&gt;Node24</title>
<path fill="none" stroke="midnightblue" d="M502.12,-565.93C504.87,-567.45 507.51,-569.14 510,-571 536.46,-590.75 519.6,-616.16 546,-636 551.11,-639.84 556.86,-642.93 562.89,-645.4"/>
<polygon fill="midnightblue" stroke="midnightblue" points="503.56,-562.74 493.03,-561.58 500.54,-569.05 503.56,-562.74"/>
</g>
<!-- Node25 -->
<g id="node25" class="node">
<title>Node25</title>
<g id="a_node25"><a xlink:title=" ">
<polygon fill="white" stroke="#bfbfbf" points="562,-596 562,-626 699,-626 699,-596 562,-596"/>
<text text-anchor="start" x="570" y="-614" font-family="FreeSans.ttf" font-size="10.00">muq::Modeling::EigenLinear</text>
<text text-anchor="middle" x="630.5" y="-603" font-family="FreeSans.ttf" font-size="10.00">Operator&lt; EigenType &gt;</text>
</a>
</g>
</g>
<!-- Node18&#45;&gt;Node25 -->
<g id="edge24" class="edge">
<title>Node18&#45;&gt;Node25</title>
<path fill="none" stroke="midnightblue" d="M485.2,-563.93C493.6,-566.03 502.07,-568.39 510,-571 526.63,-576.47 529.55,-581.01 546,-587 554.65,-590.15 563.91,-593.16 573.01,-595.92"/>
<polygon fill="midnightblue" stroke="midnightblue" points="485.93,-560.51 475.39,-561.58 484.3,-567.31 485.93,-560.51"/>
</g>
<!-- Node26 -->
<g id="node26" class="node">
<title>Node26</title>
<g id="a_node26"><a xlink:href="classmuq_1_1Modeling_1_1GaussNewtonOperator.html" target="_top" xlink:title="Creates a linear operator for the action of a Gauss&#45;Newton Hessian approximation on a vector....">
<polygon fill="white" stroke="black" points="556,-547 556,-577 705,-577 705,-547 556,-547"/>
<text text-anchor="start" x="564" y="-565" font-family="FreeSans.ttf" font-size="10.00">muq::Modeling::GaussNewton</text>
<text text-anchor="middle" x="630.5" y="-554" font-family="FreeSans.ttf" font-size="10.00">Operator</text>
</a>
</g>
</g>
<!-- Node18&#45;&gt;Node26 -->
<g id="edge25" class="edge">
<title>Node18&#45;&gt;Node26</title>
<path fill="none" stroke="midnightblue" d="M508.41,-556.11C524.11,-556.87 540.41,-557.66 555.76,-558.41"/>
<polygon fill="midnightblue" stroke="midnightblue" points="508.35,-552.6 498.19,-555.61 508.01,-559.59 508.35,-552.6"/>
</g>
<!-- Node27 -->
<g id="node27" class="node">
<title>Node27</title>
<g id="a_node27"><a xlink:href="classmuq_1_1Modeling_1_1GaussianOperator.html" target="_top" xlink:title="Creates a linear operator for the action of the covariance or precision matrix of a Gaussian distribu...">
<polygon fill="white" stroke="black" points="548,-508.5 548,-527.5 713,-527.5 713,-508.5 548,-508.5"/>
<text text-anchor="middle" x="630.5" y="-515.5" font-family="FreeSans.ttf" font-size="10.00">muq::Modeling::GaussianOperator</text>
</a>
</g>
</g>
<!-- Node18&#45;&gt;Node27 -->
<g id="edge26" class="edge">
<title>Node18&#45;&gt;Node27</title>
<path fill="none" stroke="midnightblue" d="M491.67,-540.8C517.66,-536.5 547.05,-531.64 572,-527.51"/>
<polygon fill="midnightblue" stroke="midnightblue" points="490.81,-537.4 481.52,-542.48 491.95,-544.3 490.81,-537.4"/>
</g>
<!-- Node28 -->
<g id="node28" class="node">
<title>Node28</title>
<g id="a_node28"><a xlink:href="classmuq_1_1Modeling_1_1HessianOperator.html" target="_top" xlink:title="Creates a linear operator for the action of the Hessian of a ModPiece on a vector....">
<polygon fill="white" stroke="black" points="550.5,-470.5 550.5,-489.5 710.5,-489.5 710.5,-470.5 550.5,-470.5"/>
<text text-anchor="middle" x="630.5" y="-477.5" font-family="FreeSans.ttf" font-size="10.00">muq::Modeling::HessianOperator</text>
</a>
</g>
</g>
<!-- Node18&#45;&gt;Node28 -->
<g id="edge27" class="edge">
<title>Node18&#45;&gt;Node28</title>
<path fill="none" stroke="midnightblue" d="M496.35,-539.09C501.07,-537.31 505.67,-535.29 510,-533 529.45,-522.7 526.58,-509.36 546,-499 553.21,-495.15 561.18,-492.08 569.25,-489.63"/>
<polygon fill="midnightblue" stroke="midnightblue" points="494.87,-535.89 486.51,-542.4 497.1,-542.53 494.87,-535.89"/>
</g>
<!-- Node29 -->
<g id="node29" class="node">
<title>Node29</title>
<g id="a_node29"><a xlink:href="classmuq_1_1Modeling_1_1IdentityOperator.html" target="_top" xlink:title=" ">
<polygon fill="white" stroke="black" points="552.5,-432.5 552.5,-451.5 708.5,-451.5 708.5,-432.5 552.5,-432.5"/>
<text text-anchor="middle" x="630.5" y="-439.5" font-family="FreeSans.ttf" font-size="10.00">muq::Modeling::IdentityOperator</text>
</a>
</g>
</g>
<!-- Node18&#45;&gt;Node29 -->
<g id="edge28" class="edge">
<title>Node18&#45;&gt;Node29</title>
<path fill="none" stroke="midnightblue" d="M502.67,-537.94C505.23,-536.45 507.68,-534.81 510,-533 538.21,-511 517.86,-483.09 546,-461 550.91,-457.14 556.46,-454.04 562.3,-451.55"/>
<polygon fill="midnightblue" stroke="midnightblue" points="501.01,-534.86 493.63,-542.46 504.14,-541.12 501.01,-534.86"/>
</g>
<!-- Node30 -->
<g id="node30" class="node">
<title>Node30</title>
<g id="a_node30"><a xlink:href="classmuq_1_1Modeling_1_1KroneckerProductOperator.html" target="_top" xlink:title="Defines the Kronecker product of two other linear operators.">
<polygon fill="white" stroke="black" points="565,-383 565,-413 696,-413 696,-383 565,-383"/>
<text text-anchor="start" x="573" y="-401" font-family="FreeSans.ttf" font-size="10.00">muq::Modeling::Kronecker</text>
<text text-anchor="middle" x="630.5" y="-390" font-family="FreeSans.ttf" font-size="10.00">ProductOperator</text>
</a>
</g>
</g>
<!-- Node18&#45;&gt;Node30 -->
<g id="edge29" class="edge">
<title>Node18&#45;&gt;Node30</title>
<path fill="none" stroke="midnightblue" d="M504.62,-537.29C506.5,-535.97 508.3,-534.54 510,-533 548.13,-498.47 509.17,-458.91 546,-423 551.42,-417.72 557.9,-413.55 564.84,-410.25"/>
<polygon fill="midnightblue" stroke="midnightblue" points="502.76,-534.32 495.92,-542.41 506.32,-540.35 502.76,-534.32"/>
</g>
<!-- Node31 -->
<g id="node31" class="node">
<title>Node31</title>
<g id="a_node31"><a xlink:href="classmuq_1_1Modeling_1_1ProductOperator.html" target="_top" xlink:title="The product of two linear operators, .">
<polygon fill="white" stroke="black" points="551.5,-344.5 551.5,-363.5 709.5,-363.5 709.5,-344.5 551.5,-344.5"/>
<text text-anchor="middle" x="630.5" y="-351.5" font-family="FreeSans.ttf" font-size="10.00">muq::Modeling::ProductOperator</text>
</a>
</g>
</g>
<!-- Node18&#45;&gt;Node31 -->
<g id="edge30" class="edge">
<title>Node18&#45;&gt;Node31</title>
<path fill="none" stroke="midnightblue" d="M505.9,-536.66C507.33,-535.52 508.7,-534.3 510,-533 561.64,-481.56 494.52,-424.6 546,-373 549.78,-369.21 554.15,-366.11 558.86,-363.58"/>
<polygon fill="midnightblue" stroke="midnightblue" points="503.58,-534 497.14,-542.41 507.42,-539.85 503.58,-534"/>
</g>
<!-- Node32 -->
<g id="node32" class="node">
<title>Node32</title>
<g id="a_node32"><a xlink:href="classmuq_1_1Modeling_1_1SliceOperator.html" target="_top" xlink:title="Defines a &quot;slice&quot; or &quot;range&quot; of an input vector.">
<polygon fill="white" stroke="black" points="557.5,-306.5 557.5,-325.5 703.5,-325.5 703.5,-306.5 557.5,-306.5"/>
<text text-anchor="middle" x="630.5" y="-313.5" font-family="FreeSans.ttf" font-size="10.00">muq::Modeling::SliceOperator</text>
</a>
</g>
</g>
<!-- Node18&#45;&gt;Node32 -->
<g id="edge31" class="edge">
<title>Node18&#45;&gt;Node32</title>
<path fill="none" stroke="midnightblue" d="M506.09,-536.63C507.45,-535.5 508.76,-534.29 510,-533 572.05,-468.58 484.16,-399.62 546,-335 549.6,-331.24 553.77,-328.15 558.3,-325.63"/>
<polygon fill="midnightblue" stroke="midnightblue" points="503.99,-533.83 497.72,-542.36 507.95,-539.6 503.99,-533.83"/>
</g>
<!-- Node33 -->
<g id="node33" class="node">
<title>Node33</title>
<g id="a_node33"><a xlink:href="classmuq_1_1Modeling_1_1SparseLinearOperator.html" target="_top" xlink:title="Wraps a sparse Eigen matrix into a linear operator.">
<polygon fill="white" stroke="black" points="559,-257 559,-287 702,-287 702,-257 559,-257"/>
<text text-anchor="start" x="567" y="-275" font-family="FreeSans.ttf" font-size="10.00">muq::Modeling::SparseLinear</text>
<text text-anchor="middle" x="630.5" y="-264" font-family="FreeSans.ttf" font-size="10.00">Operator</text>
</a>
</g>
</g>
<!-- Node18&#45;&gt;Node33 -->
<g id="edge32" class="edge">
<title>Node18&#45;&gt;Node33</title>
<path fill="none" stroke="midnightblue" d="M506.14,-536.68C507.49,-535.53 508.78,-534.3 510,-533 582.51,-455.54 476.39,-377.07 546,-297 549.67,-292.77 554.03,-289.25 558.79,-286.31"/>
<polygon fill="midnightblue" stroke="midnightblue" points="504.03,-533.88 497.84,-542.48 508.04,-539.62 504.03,-533.88"/>
</g>
<!-- Node34 -->
<g id="node34" class="node">
<title>Node34</title>
<g id="a_node34"><a xlink:href="classmuq_1_1Modeling_1_1SumOperator.html" target="_top" xlink:title=" ">
<polygon fill="white" stroke="black" points="558.5,-218.5 558.5,-237.5 702.5,-237.5 702.5,-218.5 558.5,-218.5"/>
<text text-anchor="middle" x="630.5" y="-225.5" font-family="FreeSans.ttf" font-size="10.00">muq::Modeling::SumOperator</text>
</a>
</g>
</g>
<!-- Node18&#45;&gt;Node34 -->
<g id="edge33" class="edge">
<title>Node18&#45;&gt;Node34</title>
<path fill="none" stroke="midnightblue" d="M506.66,-536.31C507.82,-535.27 508.94,-534.17 510,-533 596.32,-438.33 459.98,-341.94 546,-247 549.59,-243.03 553.83,-239.81 558.45,-237.19"/>
<polygon fill="midnightblue" stroke="midnightblue" points="504.37,-533.64 498.34,-542.35 508.49,-539.31 504.37,-533.64"/>
</g>
<!-- Node35 -->
<g id="node35" class="node">
<title>Node35</title>
<g id="a_node35"><a xlink:href="classmuq_1_1Modeling_1_1ZeroOperator.html" target="_top" xlink:title=" ">
<polygon fill="white" stroke="black" points="559,-180.5 559,-199.5 702,-199.5 702,-180.5 559,-180.5"/>
<text text-anchor="middle" x="630.5" y="-187.5" font-family="FreeSans.ttf" font-size="10.00">muq::Modeling::ZeroOperator</text>
</a>
</g>
</g>
<!-- Node18&#45;&gt;Node35 -->
<g id="edge34" class="edge">
<title>Node18&#45;&gt;Node35</title>
<path fill="none" stroke="midnightblue" d="M506.22,-536.75C507.54,-535.58 508.81,-534.33 510,-533 606.84,-425.23 449.5,-317.08 546,-209 549.66,-204.9 554.01,-201.58 558.77,-198.92"/>
<polygon fill="midnightblue" stroke="midnightblue" points="504.09,-533.96 498.01,-542.64 508.18,-539.65 504.09,-533.96"/>
</g>
<!-- Node36 -->
<g id="node36" class="node">
<title>Node36</title>
<g id="a_node36"><a xlink:href="classmuq_1_1SamplingAlgorithms_1_1AverageHessian.html" target="_top" xlink:title=" ">
<polygon fill="white" stroke="black" points="566.5,-131 566.5,-161 694.5,-161 694.5,-131 566.5,-131"/>
<text text-anchor="start" x="574.5" y="-149" font-family="FreeSans.ttf" font-size="10.00">muq::SamplingAlgorithms</text>
<text text-anchor="middle" x="630.5" y="-138" font-family="FreeSans.ttf" font-size="10.00">::AverageHessian</text>
</a>
</g>
</g>
<!-- Node18&#45;&gt;Node36 -->
<g id="edge35" class="edge">
<title>Node18&#45;&gt;Node36</title>
<path fill="none" stroke="midnightblue" d="M506.24,-536.77C507.56,-535.59 508.81,-534.34 510,-533 563.68,-472.56 494.57,-233.37 546,-171 551.39,-164.46 558.42,-159.59 566.11,-155.96"/>
<polygon fill="midnightblue" stroke="midnightblue" points="504.11,-533.98 498.06,-542.69 508.22,-539.65 504.11,-533.98"/>
</g>
</g>
</svg>
