<?xml version="1.0" encoding="UTF-8" standalone="no"?>
<!DOCTYPE svg PUBLIC "-//W3C//DTD SVG 1.1//EN"
 "http://www.w3.org/Graphics/SVG/1.1/DTD/svg11.dtd">
<!-- Generated by graphviz version 2.47.3 (20210619.1520)
 -->
<!-- Title: muq::SamplingAlgorithms::MALAProposal Pages: 1 -->
<svg width="158pt" height="173pt"
 viewBox="0.00 0.00 158.00 173.00" xmlns="http://www.w3.org/2000/svg" xmlns:xlink="http://www.w3.org/1999/xlink">
<g id="graph0" class="graph" transform="scale(1 1) rotate(0) translate(4 169)">
<title>muq::SamplingAlgorithms::MALAProposal</title>
<polygon fill="white" stroke="transparent" points="-4,4 -4,-169 154,-169 154,4 -4,4"/>
<!-- Node1 -->
<g id="node1" class="node">
<title>Node1</title>
<g id="a_node1"><a xlink:title="Implementation preconditioned Langevin proposal used in the MALA algorithm.">
<polygon fill="#bfbfbf" stroke="black" points="11,-0.5 11,-30.5 139,-30.5 139,-0.5 11,-0.5"/>
<text text-anchor="start" x="19" y="-18.5" font-family="FreeSans.ttf" font-size="10.00">muq::SamplingAlgorithms</text>
<text text-anchor="middle" x="75" y="-7.5" font-family="FreeSans.ttf" font-size="10.00">::MALAProposal</text>
</a>
</g>
</g>
<!-- Node2 -->
<g id="node2" class="node">
<title>Node2</title>
<g id="a_node2"><a xlink:href="classmuq_1_1SamplingAlgorithms_1_1MCMCProposal.html" target="_top" xlink:title=" ">
<polygon fill="white" stroke="black" points="11,-67.5 11,-97.5 139,-97.5 139,-67.5 11,-67.5"/>
<text text-anchor="start" x="19" y="-85.5" font-family="FreeSans.ttf" font-size="10.00">muq::SamplingAlgorithms</text>
<text text-anchor="middle" x="75" y="-74.5" font-family="FreeSans.ttf" font-size="10.00">::MCMCProposal</text>
</a>
</g>
</g>
<!-- Node2&#45;&gt;Node1 -->
<g id="edge1" class="edge">
<title>Node2&#45;&gt;Node1</title>
<path fill="none" stroke="midnightblue" d="M75,-57.11C75,-48.15 75,-38.32 75,-30.58"/>
<polygon fill="midnightblue" stroke="midnightblue" points="71.5,-57.4 75,-67.4 78.5,-57.4 71.5,-57.4"/>
</g>
<!-- Node3 -->
<g id="node3" class="node">
<title>Node3</title>
<g id="a_node3"><a xlink:title=" ">
<polygon fill="white" stroke="#bfbfbf" points="0,-134.5 0,-164.5 150,-164.5 150,-134.5 0,-134.5"/>
<text text-anchor="start" x="8" y="-152.5" font-family="FreeSans.ttf" font-size="10.00">std::enable_shared</text>
<text text-anchor="middle" x="75" y="-141.5" font-family="FreeSans.ttf" font-size="10.00">_from_this&lt; MCMCProposal &gt;</text>
</a>
</g>
</g>
<!-- Node3&#45;&gt;Node2 -->
<g id="edge2" class="edge">
<title>Node3&#45;&gt;Node2</title>
<path fill="none" stroke="midnightblue" d="M75,-124.11C75,-115.15 75,-105.32 75,-97.58"/>
<polygon fill="midnightblue" stroke="midnightblue" points="71.5,-124.4 75,-134.4 78.5,-124.4 71.5,-124.4"/>
</g>
</g>
</svg>
