digraph "muq::SamplingAlgorithms::SamplingAlgorithm"
{
 // LATEX_PDF_SIZE
  edge [fontname="FreeSans.ttf",fontsize="10",labelfontname="FreeSans.ttf",labelfontsize="10"];
  node [fontname="FreeSans.ttf",fontsize="10",shape=record];
  rankdir="LR";
  Node1 [label="muq::SamplingAlgorithms\l::SamplingAlgorithm",height=0.2,width=0.4,color="black", fillcolor="grey75", style="filled", fontcolor="black",tooltip=" "];
  Node1 -> Node2 [dir="back",color="midnightblue",fontsize="10",style="solid",fontname="FreeSans.ttf"];
  Node2 [label="muq::SamplingAlgorithms\l::ImportanceSampling",height=0.2,width=0.4,color="black", fillcolor="white", style="filled",URL="$classmuq_1_1SamplingAlgorithms_1_1ImportanceSampling.html",tooltip="Defines an imporance sampline sampler."];
  Node1 -> Node3 [dir="back",color="midnightblue",fontsize="10",style="solid",fontname="FreeSans.ttf"];
  Node3 [label="muq::SamplingAlgorithms\l::MonteCarlo",height=0.2,width=0.4,color="black", fillcolor="white", style="filled",URL="$classmuq_1_1SamplingAlgorithms_1_1MonteCarlo.html",tooltip=" "];
  Node1 -> Node4 [dir="back",color="midnightblue",fontsize="10",style="solid",fontname="FreeSans.ttf"];
  Node4 [label="muq::SamplingAlgorithms\l::StaticLoadBalancingMIMCMC",height=0.2,width=0.4,color="black", fillcolor="white", style="filled",URL="$classmuq_1_1SamplingAlgorithms_1_1StaticLoadBalancingMIMCMC.html",tooltip="A parallel MIMCMC method."];
}
