digraph "muq::SamplingAlgorithms::InverseGammaProposal"
{
 // LATEX_PDF_SIZE
  edge [fontname="FreeSans.ttf",fontsize="10",labelfontname="FreeSans.ttf",labelfontsize="10"];
  node [fontname="FreeSans.ttf",fontsize="10",shape=record];
  Node1 [label="muq::SamplingAlgorithms\l::InverseGammaProposal",height=0.2,width=0.4,color="black", fillcolor="grey75", style="filled", fontcolor="black",tooltip="Defines a proposal using the analytic conditional Inverse Gamma distribution for the variance of a Ga..."];
  Node2 -> Node1 [dir="back",color="midnightblue",fontsize="10",style="solid",fontname="FreeSans.ttf"];
  Node2 [label="muq::SamplingAlgorithms\l::MCMCProposal",height=0.2,width=0.4,color="black", fillcolor="white", style="filled",URL="$classmuq_1_1SamplingAlgorithms_1_1MCMCProposal.html",tooltip=" "];
  Node3 -> Node2 [dir="back",color="midnightblue",fontsize="10",style="solid",fontname="FreeSans.ttf"];
  Node3 [label="std::enable_shared\l_from_this\< MCMCProposal \>",height=0.2,width=0.4,color="grey75", fillcolor="white", style="filled",tooltip=" "];
}
