digraph "muq::Modeling::GaussianBase"
{
 // LATEX_PDF_SIZE
  edge [fontname="FreeSans.ttf",fontsize="10",labelfontname="FreeSans.ttf",labelfontsize="10"];
  node [fontname="FreeSans.ttf",fontsize="10",shape=record];
  Node1 [label="muq::Modeling::GaussianBase",height=0.2,width=0.4,color="black", fillcolor="grey75", style="filled", fontcolor="black",tooltip="Defines an abstract Gaussian class.@seealso Gaussian."];
  Node2 -> Node1 [dir="back",color="midnightblue",fontsize="10",style="solid",fontname="FreeSans.ttf"];
  Node2 [label="muq::Modeling::Distribution",height=0.2,width=0.4,color="black", fillcolor="white", style="filled",URL="$classmuq_1_1Modeling_1_1Distribution.html",tooltip=" "];
  Node3 -> Node2 [dir="back",color="midnightblue",fontsize="10",style="solid",fontname="FreeSans.ttf"];
  Node3 [label="std::enable_shared\l_from_this\< Distribution \>",height=0.2,width=0.4,color="grey75", fillcolor="white", style="filled",tooltip=" "];
  Node1 -> Node4 [dir="back",color="midnightblue",fontsize="10",style="solid",fontname="FreeSans.ttf"];
  Node4 [label="muq::Modeling::Gaussian",height=0.2,width=0.4,color="black", fillcolor="white", style="filled",URL="$classmuq_1_1Modeling_1_1Gaussian.html",tooltip=" "];
  Node1 -> Node5 [dir="back",color="midnightblue",fontsize="10",style="solid",fontname="FreeSans.ttf"];
  Node5 [label="muq::Modeling::PyGaussianBase",height=0.2,width=0.4,color="black", fillcolor="white", style="filled",URL="$classmuq_1_1Modeling_1_1PyGaussianBase.html",tooltip=" "];
  Node5 -> Node6 [dir="back",color="midnightblue",fontsize="10",style="solid",fontname="FreeSans.ttf"];
  Node6 [label="PyGaussianTramp",height=0.2,width=0.4,color="grey75", fillcolor="white", style="filled",tooltip=" "];
}
