digraph "muq::Modeling::ModPiece"
{
 // LATEX_PDF_SIZE
  edge [fontname="FreeSans.ttf",fontsize="10",labelfontname="FreeSans.ttf",labelfontsize="10"];
  node [fontname="FreeSans.ttf",fontsize="10",shape=record];
  rankdir="LR";
  Node1 [label="muq::Modeling::ModPiece",height=0.2,width=0.4,color="black", fillcolor="grey75", style="filled", fontcolor="black",tooltip="Provides an abstract interface for defining vector-valued model components."];
  Node2 -> Node1 [dir="back",color="midnightblue",fontsize="10",style="solid",fontname="FreeSans.ttf"];
  Node2 [label="muq::Modeling::WorkPiece",height=0.2,width=0.4,color="black", fillcolor="white", style="filled",URL="$classmuq_1_1Modeling_1_1WorkPiece.html",tooltip="Base class for MUQ's modelling envronment."];
  Node1 -> Node3 [dir="back",color="midnightblue",fontsize="10",style="solid",fontname="FreeSans.ttf"];
  Node3 [label="FlowEquation",height=0.2,width=0.4,color="grey75", fillcolor="white", style="filled",tooltip=" "];
  Node1 -> Node3 [dir="back",color="midnightblue",fontsize="10",style="solid",fontname="FreeSans.ttf"];
  Node1 -> Node3 [dir="back",color="midnightblue",fontsize="10",style="solid",fontname="FreeSans.ttf"];
  Node1 -> Node3 [dir="back",color="midnightblue",fontsize="10",style="solid",fontname="FreeSans.ttf"];
  Node1 -> Node4 [dir="back",color="midnightblue",fontsize="10",style="solid",fontname="FreeSans.ttf"];
  Node4 [label="SimpleModel",height=0.2,width=0.4,color="grey75", fillcolor="white", style="filled",tooltip=" "];
  Node1 -> Node5 [dir="back",color="midnightblue",fontsize="10",style="solid",fontname="FreeSans.ttf"];
  Node5 [label="muq::Approximation\l::BasisExpansion",height=0.2,width=0.4,color="black", fillcolor="white", style="filled",URL="$classmuq_1_1Approximation_1_1BasisExpansion.html",tooltip="Class for defining expansions of basis functions defined by a MultiIndexSet and collection of IndexSc..."];
  Node5 -> Node6 [dir="back",color="midnightblue",fontsize="10",style="solid",fontname="FreeSans.ttf"];
  Node6 [label="muq::Approximation\l::PolynomialChaosExpansion",height=0.2,width=0.4,color="black", fillcolor="white", style="filled",URL="$classmuq_1_1Approximation_1_1PolynomialChaosExpansion.html",tooltip="A class for representing and using expansions of orthogonal multivariate polynomials."];
  Node1 -> Node7 [dir="back",color="midnightblue",fontsize="10",style="solid",fontname="FreeSans.ttf"];
  Node7 [label="muq::Approximation\l::LocalRegression",height=0.2,width=0.4,color="black", fillcolor="white", style="filled",URL="$classmuq_1_1Approximation_1_1LocalRegression.html",tooltip=" "];
  Node1 -> Node8 [dir="back",color="midnightblue",fontsize="10",style="solid",fontname="FreeSans.ttf"];
  Node8 [label="muq::Approximation\l::Regression::PoisednessConstraint",height=0.2,width=0.4,color="black", fillcolor="white", style="filled",URL="$classmuq_1_1Approximation_1_1Regression_1_1PoisednessConstraint.html",tooltip=" "];
  Node1 -> Node9 [dir="back",color="midnightblue",fontsize="10",style="solid",fontname="FreeSans.ttf"];
  Node9 [label="muq::Modeling::AffineOperator",height=0.2,width=0.4,color="black", fillcolor="white", style="filled",URL="$classmuq_1_1Modeling_1_1AffineOperator.html",tooltip="Generic affine operator which adds an offset to a linear operator. @seealso LinearOperator."];
  Node1 -> Node10 [dir="back",color="midnightblue",fontsize="10",style="solid",fontname="FreeSans.ttf"];
  Node10 [label="muq::Modeling::CombineVectors",height=0.2,width=0.4,color="black", fillcolor="white", style="filled",URL="$classmuq_1_1Modeling_1_1CombineVectors.html",tooltip=" "];
  Node1 -> Node11 [dir="back",color="midnightblue",fontsize="10",style="solid",fontname="FreeSans.ttf"];
  Node11 [label="muq::Modeling::ConstantVector",height=0.2,width=0.4,color="black", fillcolor="white", style="filled",URL="$classmuq_1_1Modeling_1_1ConstantVector.html",tooltip="A muq::Modeling::ModPiece with no inputs and a single known vector-valued output."];
  Node1 -> Node12 [dir="back",color="midnightblue",fontsize="10",style="solid",fontname="FreeSans.ttf"];
  Node12 [label="muq::Modeling::CwiseUnary\lOperator\< T1, T2, T3 \>",height=0.2,width=0.4,color="black", fillcolor="white", style="filled",URL="$classmuq_1_1Modeling_1_1CwiseUnaryOperator.html",tooltip=" "];
  Node1 -> Node13 [dir="back",color="midnightblue",fontsize="10",style="solid",fontname="FreeSans.ttf"];
  Node13 [label="muq::Modeling::DensityBase",height=0.2,width=0.4,color="black", fillcolor="white", style="filled",URL="$classmuq_1_1Modeling_1_1DensityBase.html",tooltip=" "];
  Node13 -> Node14 [dir="back",color="midnightblue",fontsize="10",style="solid",fontname="FreeSans.ttf"];
  Node14 [label="muq::Modeling::Density",height=0.2,width=0.4,color="black", fillcolor="white", style="filled",URL="$classmuq_1_1Modeling_1_1Density.html",tooltip=" "];
  Node13 -> Node15 [dir="back",color="midnightblue",fontsize="10",style="solid",fontname="FreeSans.ttf"];
  Node15 [label="muq::Modeling::DensityProduct",height=0.2,width=0.4,color="black", fillcolor="white", style="filled",URL="$classmuq_1_1Modeling_1_1DensityProduct.html",tooltip=" "];
  Node1 -> Node16 [dir="back",color="midnightblue",fontsize="10",style="solid",fontname="FreeSans.ttf"];
  Node16 [label="muq::Modeling::FlannCache",height=0.2,width=0.4,color="black", fillcolor="white", style="filled",URL="$classmuq_1_1Modeling_1_1FlannCache.html",tooltip="Create a cache of model evaluations (input/output pairs)"];
  Node1 -> Node17 [dir="back",color="midnightblue",fontsize="10",style="solid",fontname="FreeSans.ttf"];
  Node17 [label="muq::Modeling::GradientPiece",height=0.2,width=0.4,color="black", fillcolor="white", style="filled",URL="$classmuq_1_1Modeling_1_1GradientPiece.html",tooltip=" "];
  Node1 -> Node18 [dir="back",color="midnightblue",fontsize="10",style="solid",fontname="FreeSans.ttf"];
  Node18 [label="muq::Modeling::JacobianPiece",height=0.2,width=0.4,color="black", fillcolor="white", style="filled",URL="$classmuq_1_1Modeling_1_1JacobianPiece.html",tooltip="A wrapper around another ModPiece that evaluates the action of the other piece's Jacobian on a vector..."];
  Node1 -> Node19 [dir="back",color="midnightblue",fontsize="10",style="solid",fontname="FreeSans.ttf"];
  Node19 [label="muq::Modeling::LinearOperator",height=0.2,width=0.4,color="red", fillcolor="white", style="filled",URL="$classmuq_1_1Modeling_1_1LinearOperator.html",tooltip="Generic linear operator base class."];
  Node19 -> Node20 [dir="back",color="midnightblue",fontsize="10",style="solid",fontname="FreeSans.ttf"];
  Node20 [label="PeriodicKernel_F_block",height=0.2,width=0.4,color="grey75", fillcolor="white", style="filled",tooltip=" "];
  Node19 -> Node21 [dir="back",color="midnightblue",fontsize="10",style="solid",fontname="FreeSans.ttf"];
  Node21 [label="muq::Modeling::BlockDiagonal\lOperator",height=0.2,width=0.4,color="black", fillcolor="white", style="filled",URL="$classmuq_1_1Modeling_1_1BlockDiagonalOperator.html",tooltip="Defines a block diagonal linear operator in terms of other linear operators."];
  Node19 -> Node22 [dir="back",color="midnightblue",fontsize="10",style="solid",fontname="FreeSans.ttf"];
  Node22 [label="muq::Modeling::BlockRowOperator",height=0.2,width=0.4,color="black", fillcolor="white", style="filled",URL="$classmuq_1_1Modeling_1_1BlockRowOperator.html",tooltip="Defines a block row matrix in terms of other linear operators."];
  Node19 -> Node23 [dir="back",color="midnightblue",fontsize="10",style="solid",fontname="FreeSans.ttf"];
  Node23 [label="muq::Modeling::Companion\lMatrix",height=0.2,width=0.4,color="black", fillcolor="white", style="filled",URL="$classmuq_1_1Modeling_1_1CompanionMatrix.html",tooltip="Implments a companion matrix as a linear operator."];
  Node19 -> Node24 [dir="back",color="midnightblue",fontsize="10",style="solid",fontname="FreeSans.ttf"];
  Node24 [label="muq::Modeling::Concatenate\lOperator",height=0.2,width=0.4,color="black", fillcolor="white", style="filled",URL="$classmuq_1_1Modeling_1_1ConcatenateOperator.html",tooltip="Vertical or horizontal concatenation of other linear operators."];
  Node19 -> Node25 [dir="back",color="midnightblue",fontsize="10",style="solid",fontname="FreeSans.ttf"];
  Node25 [label="muq::Modeling::DiagonalOperator",height=0.2,width=0.4,color="black", fillcolor="white", style="filled",URL="$classmuq_1_1Modeling_1_1DiagonalOperator.html",tooltip=" "];
  Node19 -> Node26 [dir="back",color="midnightblue",fontsize="10",style="solid",fontname="FreeSans.ttf"];
  Node26 [label="muq::Modeling::EigenLinear\lOperator\< EigenType \>",height=0.2,width=0.4,color="grey75", fillcolor="white", style="filled",tooltip=" "];
  Node19 -> Node27 [dir="back",color="midnightblue",fontsize="10",style="solid",fontname="FreeSans.ttf"];
  Node27 [label="muq::Modeling::GaussNewton\lOperator",height=0.2,width=0.4,color="black", fillcolor="white", style="filled",URL="$classmuq_1_1Modeling_1_1GaussNewtonOperator.html",tooltip="Creates a linear operator for the action of a Gauss-Newton Hessian approximation on a vector...."];
  Node19 -> Node28 [dir="back",color="midnightblue",fontsize="10",style="solid",fontname="FreeSans.ttf"];
  Node28 [label="muq::Modeling::GaussianOperator",height=0.2,width=0.4,color="black", fillcolor="white", style="filled",URL="$classmuq_1_1Modeling_1_1GaussianOperator.html",tooltip="Creates a linear operator for the action of the covariance or precision matrix of a Gaussian distribu..."];
  Node19 -> Node29 [dir="back",color="midnightblue",fontsize="10",style="solid",fontname="FreeSans.ttf"];
  Node29 [label="muq::Modeling::HessianOperator",height=0.2,width=0.4,color="black", fillcolor="white", style="filled",URL="$classmuq_1_1Modeling_1_1HessianOperator.html",tooltip="Creates a linear operator for the action of the Hessian of a ModPiece on a vector...."];
  Node19 -> Node30 [dir="back",color="midnightblue",fontsize="10",style="solid",fontname="FreeSans.ttf"];
  Node30 [label="muq::Modeling::IdentityOperator",height=0.2,width=0.4,color="black", fillcolor="white", style="filled",URL="$classmuq_1_1Modeling_1_1IdentityOperator.html",tooltip=" "];
  Node19 -> Node31 [dir="back",color="midnightblue",fontsize="10",style="solid",fontname="FreeSans.ttf"];
  Node31 [label="muq::Modeling::Kronecker\lProductOperator",height=0.2,width=0.4,color="black", fillcolor="white", style="filled",URL="$classmuq_1_1Modeling_1_1KroneckerProductOperator.html",tooltip="Defines the Kronecker product of two other linear operators."];
  Node19 -> Node32 [dir="back",color="midnightblue",fontsize="10",style="solid",fontname="FreeSans.ttf"];
  Node32 [label="muq::Modeling::ProductOperator",height=0.2,width=0.4,color="black", fillcolor="white", style="filled",URL="$classmuq_1_1Modeling_1_1ProductOperator.html",tooltip="The product of two linear operators, ."];
  Node19 -> Node33 [dir="back",color="midnightblue",fontsize="10",style="solid",fontname="FreeSans.ttf"];
  Node33 [label="muq::Modeling::SliceOperator",height=0.2,width=0.4,color="black", fillcolor="white", style="filled",URL="$classmuq_1_1Modeling_1_1SliceOperator.html",tooltip="Defines a \"slice\" or \"range\" of an input vector."];
  Node19 -> Node34 [dir="back",color="midnightblue",fontsize="10",style="solid",fontname="FreeSans.ttf"];
  Node34 [label="muq::Modeling::SparseLinear\lOperator",height=0.2,width=0.4,color="black", fillcolor="white", style="filled",URL="$classmuq_1_1Modeling_1_1SparseLinearOperator.html",tooltip="Wraps a sparse Eigen matrix into a linear operator."];
  Node19 -> Node35 [dir="back",color="midnightblue",fontsize="10",style="solid",fontname="FreeSans.ttf"];
  Node35 [label="muq::Modeling::SumOperator",height=0.2,width=0.4,color="black", fillcolor="white", style="filled",URL="$classmuq_1_1Modeling_1_1SumOperator.html",tooltip=" "];
  Node19 -> Node36 [dir="back",color="midnightblue",fontsize="10",style="solid",fontname="FreeSans.ttf"];
  Node36 [label="muq::Modeling::ZeroOperator",height=0.2,width=0.4,color="black", fillcolor="white", style="filled",URL="$classmuq_1_1Modeling_1_1ZeroOperator.html",tooltip=" "];
  Node1 -> Node40 [dir="back",color="midnightblue",fontsize="10",style="solid",fontname="FreeSans.ttf"];
  Node40 [label="muq::Modeling::ModGraphPiece",height=0.2,width=0.4,color="black", fillcolor="white", style="filled",URL="$classmuq_1_1Modeling_1_1ModGraphPiece.html",tooltip="A muq::Modeling::ModPiece created from a muq::Modeling::WorkGraph."];
  Node1 -> Node41 [dir="back",color="midnightblue",fontsize="10",style="solid",fontname="FreeSans.ttf"];
  Node41 [label="muq::Modeling::MultiLogistic\lLikelihood",height=0.2,width=0.4,color="black", fillcolor="white", style="filled",URL="$classmuq_1_1Modeling_1_1MultiLogisticLikelihood.html",tooltip="Class that defines the likelihood function for multinomial logistic regression."];
  Node1 -> Node42 [dir="back",color="midnightblue",fontsize="10",style="solid",fontname="FreeSans.ttf"];
  Node42 [label="muq::Modeling::ODE",height=0.2,width=0.4,color="black", fillcolor="white", style="filled",URL="$classmuq_1_1Modeling_1_1ODE.html",tooltip="A class for integrating ODEs with CVODES."];
  Node1 -> Node43 [dir="back",color="midnightblue",fontsize="10",style="solid",fontname="FreeSans.ttf"];
  Node43 [label="muq::Modeling::OneStepCache\lPiece",height=0.2,width=0.4,color="black", fillcolor="white", style="filled",URL="$classmuq_1_1Modeling_1_1OneStepCachePiece.html",tooltip=" "];
  Node1 -> Node44 [dir="back",color="midnightblue",fontsize="10",style="solid",fontname="FreeSans.ttf"];
  Node44 [label="muq::Modeling::ProductPiece",height=0.2,width=0.4,color="black", fillcolor="white", style="filled",URL="$classmuq_1_1Modeling_1_1ProductPiece.html",tooltip="Returns the components in a single vector input."];
  Node1 -> Node45 [dir="back",color="midnightblue",fontsize="10",style="solid",fontname="FreeSans.ttf"];
  Node45 [label="muq::Modeling::PyModPiece",height=0.2,width=0.4,color="red", fillcolor="white", style="filled",URL="$classmuq_1_1Modeling_1_1PyModPiece.html",tooltip=" "];
  Node1 -> Node48 [dir="back",color="midnightblue",fontsize="10",style="solid",fontname="FreeSans.ttf"];
  Node48 [label="muq::Modeling::RandomVariable",height=0.2,width=0.4,color="black", fillcolor="white", style="filled",URL="$classmuq_1_1Modeling_1_1RandomVariable.html",tooltip=" "];
  Node1 -> Node49 [dir="back",color="midnightblue",fontsize="10",style="solid",fontname="FreeSans.ttf"];
  Node49 [label="muq::Modeling::Replicate\lOperator",height=0.2,width=0.4,color="black", fillcolor="white", style="filled",URL="$classmuq_1_1Modeling_1_1ReplicateOperator.html",tooltip="A muq::Modeling::ModPiece that replicates a single input vector  times."];
  Node1 -> Node50 [dir="back",color="midnightblue",fontsize="10",style="solid",fontname="FreeSans.ttf"];
  Node50 [label="muq::Modeling::ScaleVector",height=0.2,width=0.4,color="black", fillcolor="white", style="filled",URL="$classmuq_1_1Modeling_1_1ScaleVector.html",tooltip=" "];
  Node1 -> Node51 [dir="back",color="midnightblue",fontsize="10",style="solid",fontname="FreeSans.ttf"];
  Node51 [label="muq::Modeling::SplitVector",height=0.2,width=0.4,color="black", fillcolor="white", style="filled",URL="$classmuq_1_1Modeling_1_1SplitVector.html",tooltip="Provides a mechanism for splitting a vector into multiple pieces."];
  Node1 -> Node52 [dir="back",color="midnightblue",fontsize="10",style="solid",fontname="FreeSans.ttf"];
  Node52 [label="muq::Modeling::SumPiece",height=0.2,width=0.4,color="black", fillcolor="white", style="filled",URL="$classmuq_1_1Modeling_1_1SumPiece.html",tooltip="Componentwise addition of two or more vectors."];
  Node1 -> Node53 [dir="back",color="midnightblue",fontsize="10",style="solid",fontname="FreeSans.ttf"];
  Node53 [label="muq::Optimization::\lCostFunction",height=0.2,width=0.4,color="red", fillcolor="white", style="filled",URL="$classmuq_1_1Optimization_1_1CostFunction.html",tooltip="The cost function for an optimization routine."];
  Node1 -> Node56 [dir="back",color="midnightblue",fontsize="10",style="solid",fontname="FreeSans.ttf"];
  Node56 [label="muq::Utilities::LinearOperator",height=0.2,width=0.4,color="black", fillcolor="white", style="filled",URL="$classmuq_1_1Utilities_1_1LinearOperator.html",tooltip="Generic linear operator base class."];
}
