digraph "Graph Legend"
{
 // LATEX_PDF_SIZE
  edge [fontname="FreeSans.ttf",fontsize="10",labelfontname="FreeSans.ttf",labelfontsize="10"];
  node [fontname="FreeSans.ttf",fontsize="10",shape=record];
  Node9 [shape="box",label="Inherited",fontsize="10",height=0.2,width=0.4,fontname="FreeSans.ttf",fillcolor="grey75",style="filled" fontcolor="black"];
  Node10 -> Node9 [dir="back",color="midnightblue",fontsize="10",style="solid",fontname="FreeSans.ttf"];
  Node10 [shape="box",label="PublicBase",fontsize="10",height=0.2,width=0.4,fontname="FreeSans.ttf",color="black"];
  Node11 -> Node10 [dir="back",color="midnightblue",fontsize="10",style="solid",fontname="FreeSans.ttf"];
  Node11 [shape="box",label="Truncated",fontsize="10",height=0.2,width=0.4,fontname="FreeSans.ttf",color="red"];
  Node13 -> Node9 [dir="back",color="darkgreen",fontsize="10",style="solid",fontname="FreeSans.ttf"];
  Node13 [shape="box",label="ProtectedBase",fontsize="10",height=0.2,width=0.4,fontname="FreeSans.ttf",color="black"];
  Node14 -> Node9 [dir="back",color="firebrick4",fontsize="10",style="solid",fontname="FreeSans.ttf"];
  Node14 [shape="box",label="PrivateBase",fontsize="10",height=0.2,width=0.4,fontname="FreeSans.ttf",color="black"];
  Node15 -> Node9 [dir="back",color="midnightblue",fontsize="10",style="solid",fontname="FreeSans.ttf"];
  Node15 [shape="box",label="Undocumented",fontsize="10",height=0.2,width=0.4,fontname="FreeSans.ttf",color="grey75"];
  Node16 -> Node9 [dir="back",color="midnightblue",fontsize="10",style="solid",fontname="FreeSans.ttf"];
  Node16 [shape="box",label="Templ< int >",fontsize="10",height=0.2,width=0.4,fontname="FreeSans.ttf",color="black"];
  Node17 -> Node16 [dir="back",color="orange",fontsize="10",style="dashed",label="< int >",fontname="FreeSans.ttf"];
  Node17 [shape="box",label="Templ< T >",fontsize="10",height=0.2,width=0.4,fontname="FreeSans.ttf",color="black"];
  Node18 -> Node9 [dir="back",color="darkorchid3",fontsize="10",style="dashed",label="m_usedClass",fontname="FreeSans.ttf"];
  Node18 [shape="box",label="Used",fontsize="10",height=0.2,width=0.4,fontname="FreeSans.ttf",color="black"];
}
