<?xml version="1.0" encoding="UTF-8" standalone="no"?>
<!DOCTYPE svg PUBLIC "-//W3C//DTD SVG 1.1//EN"
 "http://www.w3.org/Graphics/SVG/1.1/DTD/svg11.dtd">
<!-- Generated by graphviz version 2.40.1 (20161225.0304)
 -->
<!-- Title: muq::SamplingAlgorithms::SamplingProblem Pages: 1 -->
<svg width="145pt" height="102pt"
 viewBox="0.00 0.00 145.16 102.00" xmlns="http://www.w3.org/2000/svg" xmlns:xlink="http://www.w3.org/1999/xlink">
<g id="graph0" class="graph" transform="scale(1 1) rotate(0) translate(4 98)">
<title>muq::SamplingAlgorithms::SamplingProblem</title>
<polygon fill="#ffffff" stroke="transparent" points="-4,4 -4,-98 141.1621,-98 141.1621,4 -4,4"/>
<!-- Node3 -->
<g id="node1" class="node">
<title>Node3</title>
<polygon fill="#bfbfbf" stroke="#000000" points="3.6133,-.5 3.6133,-28.5 133.5488,-28.5 133.5488,-.5 3.6133,-.5"/>
<text text-anchor="start" x="11.6133" y="-16.5" font-family="FreeSans.ttf" font-size="10.00" fill="#000000">muq::SamplingAlgorithms</text>
<text text-anchor="middle" x="68.5811" y="-6.5" font-family="FreeSans.ttf" font-size="10.00" fill="#000000">::SamplingProblem</text>
</g>
<!-- Node4 -->
<g id="node2" class="node">
<title>Node4</title>
<g id="a_node2"><a xlink:href="classmuq_1_1SamplingAlgorithms_1_1AbstractSamplingProblem.html" target="_top" xlink:title="Abstract base class for MCMC and Importance Sampling problems. ">
<polygon fill="#ffffff" stroke="#000000" points="0,-65.5 0,-93.5 137.1621,-93.5 137.1621,-65.5 0,-65.5"/>
<text text-anchor="start" x="8" y="-81.5" font-family="FreeSans.ttf" font-size="10.00" fill="#000000">muq::SamplingAlgorithms</text>
<text text-anchor="middle" x="68.5811" y="-71.5" font-family="FreeSans.ttf" font-size="10.00" fill="#000000">::AbstractSamplingProblem</text>
</a>
</g>
</g>
<!-- Node4&#45;&gt;Node3 -->
<g id="edge1" class="edge">
<title>Node4&#45;&gt;Node3</title>
<path fill="none" stroke="#191970" d="M68.5811,-55.1081C68.5811,-46.1539 68.5811,-36.3227 68.5811,-28.5765"/>
<polygon fill="#191970" stroke="#191970" points="65.0812,-55.3959 68.5811,-65.396 72.0812,-55.396 65.0812,-55.3959"/>
</g>
</g>
</svg>
