<?xml version="1.0" encoding="UTF-8" standalone="no"?>
<!DOCTYPE svg PUBLIC "-//W3C//DTD SVG 1.1//EN"
 "http://www.w3.org/Graphics/SVG/1.1/DTD/svg11.dtd">
<!-- Generated by graphviz version 2.40.1 (20161225.0304)
 -->
<!-- Title: muq::Approximation::SmolyakQuadrature Pages: 1 -->
<svg width="340pt" height="94pt"
 viewBox="0.00 0.00 340.29 94.00" xmlns="http://www.w3.org/2000/svg" xmlns:xlink="http://www.w3.org/1999/xlink">
<g id="graph0" class="graph" transform="scale(1 1) rotate(0) translate(4 90)">
<title>muq::Approximation::SmolyakQuadrature</title>
<polygon fill="#ffffff" stroke="transparent" points="-4,4 -4,-90 336.2871,-90 336.2871,4 -4,4"/>
<!-- Node2 -->
<g id="node1" class="node">
<title>Node2</title>
<polygon fill="#bfbfbf" stroke="#000000" points="221.7998,-31.5 221.7998,-59.5 332.2871,-59.5 332.2871,-31.5 221.7998,-31.5"/>
<text text-anchor="start" x="229.7998" y="-47.5" font-family="FreeSans.ttf" font-size="10.00" fill="#000000">muq::Approximation</text>
<text text-anchor="middle" x="277.0435" y="-37.5" font-family="FreeSans.ttf" font-size="10.00" fill="#000000">::SmolyakQuadrature</text>
</g>
<!-- Node3 -->
<g id="node2" class="node">
<title>Node3</title>
<g id="a_node2"><a xlink:href="classmuq_1_1Approximation_1_1Quadrature.html" target="_top" xlink:title="Base class for multivariate quadrature rules. &#160;An abstract class for computing nodes and weights of g...">
<polygon fill="#ffffff" stroke="#000000" points="12.9248,-57.5 12.9248,-85.5 117.8555,-85.5 117.8555,-57.5 12.9248,-57.5"/>
<text text-anchor="start" x="20.9248" y="-73.5" font-family="FreeSans.ttf" font-size="10.00" fill="#000000">muq::Approximation</text>
<text text-anchor="middle" x="65.3901" y="-63.5" font-family="FreeSans.ttf" font-size="10.00" fill="#000000">::Quadrature</text>
</a>
</g>
</g>
<!-- Node3&#45;&gt;Node2 -->
<g id="edge1" class="edge">
<title>Node3&#45;&gt;Node2</title>
<path fill="none" stroke="#191970" d="M128.2411,-63.7792C157.9453,-60.1303 193.0911,-55.8129 221.7655,-52.2905"/>
<polygon fill="#191970" stroke="#191970" points="127.4795,-60.3464 117.9809,-65.0396 128.333,-67.2942 127.4795,-60.3464"/>
</g>
<!-- Node4 -->
<g id="node3" class="node">
<title>Node4</title>
<polygon fill="#ffffff" stroke="#bfbfbf" points="0,-.5 0,-38.5 130.7803,-38.5 130.7803,-.5 0,-.5"/>
<text text-anchor="start" x="8" y="-26.5" font-family="FreeSans.ttf" font-size="10.00" fill="#000000">std::vector&lt; std::shared</text>
<text text-anchor="start" x="8" y="-16.5" font-family="FreeSans.ttf" font-size="10.00" fill="#000000">_ptr&lt; muq::Approximation</text>
<text text-anchor="middle" x="65.3901" y="-6.5" font-family="FreeSans.ttf" font-size="10.00" fill="#000000">::Quadrature &gt; &gt;</text>
</g>
<!-- Node4&#45;&gt;Node2 -->
<g id="edge2" class="edge">
<title>Node4&#45;&gt;Node2</title>
<path fill="none" stroke="#9a32cd" stroke-dasharray="5,2" d="M140.9374,-28.7804C167.4992,-32.0433 196.8398,-35.6476 221.4573,-38.6717"/>
<polygon fill="#9a32cd" stroke="#9a32cd" points="141.2613,-25.294 130.9091,-27.5485 140.4077,-32.2417 141.2613,-25.294"/>
<text text-anchor="middle" x="176.29" y="-37.5" font-family="FreeSans.ttf" font-size="10.00" fill="#000000"> scalarRules</text>
</g>
</g>
</svg>
