<?xml version="1.0" encoding="UTF-8" standalone="no"?>
<!DOCTYPE svg PUBLIC "-//W3C//DTD SVG 1.1//EN"
 "http://www.w3.org/Graphics/SVG/1.1/DTD/svg11.dtd">
<!-- Generated by graphviz version 2.40.1 (20161225.0304)
 -->
<!-- Title: muq::Modeling::ModPiece Pages: 1 -->
<svg width="729pt" height="1010pt"
 viewBox="0.00 0.00 728.97 1010.00" xmlns="http://www.w3.org/2000/svg" xmlns:xlink="http://www.w3.org/1999/xlink">
<g id="graph0" class="graph" transform="scale(1 1) rotate(0) translate(4 1006)">
<title>muq::Modeling::ModPiece</title>
<polygon fill="#ffffff" stroke="transparent" points="-4,4 -4,-1006 724.9697,-1006 724.9697,4 -4,4"/>
<!-- Node0 -->
<g id="node1" class="node">
<title>Node0</title>
<polygon fill="#bfbfbf" stroke="#000000" points="171.3164,-484.5 171.3164,-502.5 302.9316,-502.5 302.9316,-484.5 171.3164,-484.5"/>
<text text-anchor="middle" x="237.124" y="-490.5" font-family="FreeSans.ttf" font-size="10.00" fill="#000000">muq::Modeling::ModPiece</text>
</g>
<!-- Node2 -->
<g id="node3" class="node">
<title>Node2</title>
<g id="a_node3"><a xlink:href="classmuq_1_1Approximation_1_1BasisExpansion.html" target="_top" xlink:title="Class for defining expansions of basis functions defined by a MultiIndexSet and collection of IndexSc...">
<polygon fill="#ffffff" stroke="#000000" points="373.9512,-968.5 373.9512,-996.5 478.8818,-996.5 478.8818,-968.5 373.9512,-968.5"/>
<text text-anchor="start" x="381.9512" y="-984.5" font-family="FreeSans.ttf" font-size="10.00" fill="#000000">muq::Approximation</text>
<text text-anchor="middle" x="426.4165" y="-974.5" font-family="FreeSans.ttf" font-size="10.00" fill="#000000">::BasisExpansion</text>
</a>
</g>
</g>
<!-- Node0&#45;&gt;Node2 -->
<g id="edge2" class="edge">
<title>Node0&#45;&gt;Node2</title>
<path fill="none" stroke="#191970" d="M239.0019,-512.788C246.9486,-590.7674 280.136,-881.7663 338.9316,-949.5 347.9766,-959.9199 360.6598,-967.0584 373.5682,-971.9459"/>
<polygon fill="#191970" stroke="#191970" points="242.4532,-512.1251 237.9776,-502.522 235.4878,-512.8201 242.4532,-512.1251"/>
</g>
<!-- Node4 -->
<g id="node5" class="node">
<title>Node4</title>
<g id="a_node5"><a xlink:href="classmuq_1_1Approximation_1_1LocalRegression.html" target="_top" xlink:title="muq::Approximation\l::LocalRegression">
<polygon fill="#ffffff" stroke="#000000" points="373.9512,-911.5 373.9512,-939.5 478.8818,-939.5 478.8818,-911.5 373.9512,-911.5"/>
<text text-anchor="start" x="381.9512" y="-927.5" font-family="FreeSans.ttf" font-size="10.00" fill="#000000">muq::Approximation</text>
<text text-anchor="middle" x="426.4165" y="-917.5" font-family="FreeSans.ttf" font-size="10.00" fill="#000000">::LocalRegression</text>
</a>
</g>
</g>
<!-- Node0&#45;&gt;Node4 -->
<g id="edge4" class="edge">
<title>Node0&#45;&gt;Node4</title>
<path fill="none" stroke="#191970" d="M239.3298,-512.8167C248.0716,-586.061 282.5783,-845.4022 338.9316,-902.5 348.1982,-911.889 360.8027,-917.5928 373.557,-921.0189"/>
<polygon fill="#191970" stroke="#191970" points="242.7868,-512.2444 238.1486,-502.7188 235.8342,-513.0577 242.7868,-512.2444"/>
</g>
<!-- Node5 -->
<g id="node6" class="node">
<title>Node5</title>
<g id="a_node6"><a xlink:href="classmuq_1_1Approximation_1_1Regression_1_1PoisednessConstraint.html" target="_top" xlink:title="muq::Approximation\l::Regression::PoisednessConstraint">
<polygon fill="#ffffff" stroke="#000000" points="338.9316,-864.5 338.9316,-892.5 513.9014,-892.5 513.9014,-864.5 338.9316,-864.5"/>
<text text-anchor="start" x="346.9316" y="-880.5" font-family="FreeSans.ttf" font-size="10.00" fill="#000000">muq::Approximation</text>
<text text-anchor="middle" x="426.4165" y="-870.5" font-family="FreeSans.ttf" font-size="10.00" fill="#000000">::Regression::PoisednessConstraint</text>
</a>
</g>
</g>
<!-- Node0&#45;&gt;Node5 -->
<g id="edge5" class="edge">
<title>Node0&#45;&gt;Node5</title>
<path fill="none" stroke="#191970" d="M239.9828,-512.7347C250.4077,-580.3707 288.4302,-805.8533 338.9316,-855.5 342.4034,-858.913 346.3171,-861.8366 350.515,-864.3394"/>
<polygon fill="#191970" stroke="#191970" points="243.4128,-512.0082 238.4536,-502.6456 236.4918,-513.0573 243.4128,-512.0082"/>
</g>
<!-- Node6 -->
<g id="node7" class="node">
<title>Node6</title>
<g id="a_node7"><a xlink:href="classmuq_1_1Modeling_1_1AffineOperator.html" target="_top" xlink:title="Generic affine operator which adds an offset to a linear operator. &#160;LinearOperator. ">
<polygon fill="#ffffff" stroke="#000000" points="350.3257,-827.5 350.3257,-845.5 502.5073,-845.5 502.5073,-827.5 350.3257,-827.5"/>
<text text-anchor="middle" x="426.4165" y="-833.5" font-family="FreeSans.ttf" font-size="10.00" fill="#000000">muq::Modeling::AffineOperator</text>
</a>
</g>
</g>
<!-- Node0&#45;&gt;Node6 -->
<g id="edge6" class="edge">
<title>Node0&#45;&gt;Node6</title>
<path fill="none" stroke="#191970" d="M240.5516,-512.8757C252.1534,-576.2804 291.8614,-775.9442 338.9316,-818.5 342.8425,-822.0358 347.2577,-824.9498 351.9742,-827.345"/>
<polygon fill="#191970" stroke="#191970" points="243.9344,-511.9121 238.7169,-502.691 237.0453,-513.1531 243.9344,-511.9121"/>
</g>
<!-- Node7 -->
<g id="node8" class="node">
<title>Node7</title>
<g id="a_node8"><a xlink:href="classmuq_1_1Modeling_1_1CombineVectors.html" target="_top" xlink:title="muq::Modeling::CombineVectors">
<polygon fill="#ffffff" stroke="#000000" points="346.1558,-790.5 346.1558,-808.5 506.6772,-808.5 506.6772,-790.5 346.1558,-790.5"/>
<text text-anchor="middle" x="426.4165" y="-796.5" font-family="FreeSans.ttf" font-size="10.00" fill="#000000">muq::Modeling::CombineVectors</text>
</a>
</g>
</g>
<!-- Node0&#45;&gt;Node7 -->
<g id="edge7" class="edge">
<title>Node0&#45;&gt;Node7</title>
<path fill="none" stroke="#191970" d="M241.2934,-512.5418C254.4105,-570.7324 296.4885,-744.502 338.9316,-781.5 343.0227,-785.0663 347.6305,-787.9938 352.537,-790.3907"/>
<polygon fill="#191970" stroke="#191970" points="244.652,-511.5212 239.0646,-502.5195 237.819,-513.0408 244.652,-511.5212"/>
</g>
<!-- Node8 -->
<g id="node9" class="node">
<title>Node8</title>
<g id="a_node9"><a xlink:href="classmuq_1_1Modeling_1_1ConstantVector.html" target="_top" xlink:title="A muq::Modeling::ModPiece with no inputs and a single known vector&#45;valued output. ...">
<polygon fill="#ffffff" stroke="#000000" points="348.6533,-753.5 348.6533,-771.5 504.1797,-771.5 504.1797,-753.5 348.6533,-753.5"/>
<text text-anchor="middle" x="426.4165" y="-759.5" font-family="FreeSans.ttf" font-size="10.00" fill="#000000">muq::Modeling::ConstantVector</text>
</a>
</g>
</g>
<!-- Node0&#45;&gt;Node8 -->
<g id="edge8" class="edge">
<title>Node0&#45;&gt;Node8</title>
<path fill="none" stroke="#191970" d="M238.8798,-512.6491C244.2964,-559.9798 265.1426,-683.0775 338.9316,-744.5 343.2221,-748.0714 348.0359,-750.9943 353.141,-753.3804"/>
<polygon fill="#191970" stroke="#191970" points="242.3469,-512.1493 237.8337,-502.5639 235.3842,-512.8717 242.3469,-512.1493"/>
</g>
<!-- Node9 -->
<g id="node10" class="node">
<title>Node9</title>
<g id="a_node10"><a xlink:href="classmuq_1_1Modeling_1_1CwiseUnaryOperator.html" target="_top" xlink:title="muq::Modeling::CwiseUnary\lOperator\&lt; T1, T2, T3 \&gt;">
<polygon fill="#ffffff" stroke="#000000" points="355.8921,-706.5 355.8921,-734.5 496.9409,-734.5 496.9409,-706.5 355.8921,-706.5"/>
<text text-anchor="start" x="363.8921" y="-722.5" font-family="FreeSans.ttf" font-size="10.00" fill="#000000">muq::Modeling::CwiseUnary</text>
<text text-anchor="middle" x="426.4165" y="-712.5" font-family="FreeSans.ttf" font-size="10.00" fill="#000000">Operator&lt; T1, T2, T3 &gt;</text>
</a>
</g>
</g>
<!-- Node0&#45;&gt;Node9 -->
<g id="edge9" class="edge">
<title>Node0&#45;&gt;Node9</title>
<path fill="none" stroke="#191970" d="M241.1488,-512.9039C250.6293,-553.6066 278.2871,-648.2085 338.9316,-697.5 343.9282,-701.5612 349.5683,-704.9114 355.5176,-707.6744"/>
<polygon fill="#191970" stroke="#191970" points="244.5212,-511.9438 238.9446,-502.9354 237.6863,-513.4552 244.5212,-511.9438"/>
</g>
<!-- Node10 -->
<g id="node11" class="node">
<title>Node10</title>
<g id="a_node11"><a xlink:href="classmuq_1_1Modeling_1_1DensityBase.html" target="_top" xlink:title="muq::Modeling::DensityBase">
<polygon fill="#ffffff" stroke="#000000" points="354.7739,-669.5 354.7739,-687.5 498.0591,-687.5 498.0591,-669.5 354.7739,-669.5"/>
<text text-anchor="middle" x="426.4165" y="-675.5" font-family="FreeSans.ttf" font-size="10.00" fill="#000000">muq::Modeling::DensityBase</text>
</a>
</g>
</g>
<!-- Node0&#45;&gt;Node10 -->
<g id="edge10" class="edge">
<title>Node0&#45;&gt;Node10</title>
<path fill="none" stroke="#191970" d="M242.9967,-512.4501C254.9412,-547.649 285.5561,-622.9461 338.9316,-660.5 344.1313,-664.1584 349.9094,-667.1066 355.9473,-669.4783"/>
<polygon fill="#191970" stroke="#191970" points="246.1914,-510.9563 239.7695,-502.5296 239.5347,-513.1218 246.1914,-510.9563"/>
</g>
<!-- Node13 -->
<g id="node14" class="node">
<title>Node13</title>
<g id="a_node14"><a xlink:href="classmuq_1_1Modeling_1_1FlannCache.html" target="_top" xlink:title="Create a cache of model evaluations (input/output pairs) ">
<polygon fill="#ffffff" stroke="#000000" points="355.8823,-632.5 355.8823,-650.5 496.9507,-650.5 496.9507,-632.5 355.8823,-632.5"/>
<text text-anchor="middle" x="426.4165" y="-638.5" font-family="FreeSans.ttf" font-size="10.00" fill="#000000">muq::Modeling::FlannCache</text>
</a>
</g>
</g>
<!-- Node0&#45;&gt;Node13 -->
<g id="edge13" class="edge">
<title>Node0&#45;&gt;Node13</title>
<path fill="none" stroke="#191970" d="M246.0254,-511.8049C260.9871,-540.5007 294.0054,-595.6659 338.9316,-623.5 344.8634,-627.175 351.413,-630.1142 358.1799,-632.4627"/>
<polygon fill="#191970" stroke="#191970" points="248.9737,-509.8786 241.3416,-502.53 242.7252,-513.0341 248.9737,-509.8786"/>
</g>
<!-- Node14 -->
<g id="node15" class="node">
<title>Node14</title>
<g id="a_node15"><a xlink:href="classmuq_1_1Modeling_1_1GradientPiece.html" target="_top" xlink:title="muq::Modeling::GradientPiece">
<polygon fill="#ffffff" stroke="#000000" points="351.1582,-595.5 351.1582,-613.5 501.6748,-613.5 501.6748,-595.5 351.1582,-595.5"/>
<text text-anchor="middle" x="426.4165" y="-601.5" font-family="FreeSans.ttf" font-size="10.00" fill="#000000">muq::Modeling::GradientPiece</text>
</a>
</g>
</g>
<!-- Node0&#45;&gt;Node14 -->
<g id="edge14" class="edge">
<title>Node0&#45;&gt;Node14</title>
<path fill="none" stroke="#191970" d="M250.6103,-510.5024C268.4581,-531.769 302.0059,-567.6701 338.9316,-586.5 346.115,-590.1631 353.9897,-593.0807 361.9785,-595.4045"/>
<polygon fill="#191970" stroke="#191970" points="253.2044,-508.1459 244.1595,-502.6285 247.7895,-512.5821 253.2044,-508.1459"/>
</g>
<!-- Node15 -->
<g id="node16" class="node">
<title>Node15</title>
<g id="a_node16"><a xlink:href="classmuq_1_1Modeling_1_1JacobianPiece.html" target="_top" xlink:title="A wrapper around another ModPiece that evaluates the action of the other piece&#39;s Jacobian on a vector...">
<polygon fill="#ffffff" stroke="#000000" points="350.3208,-558.5 350.3208,-576.5 502.5122,-576.5 502.5122,-558.5 350.3208,-558.5"/>
<text text-anchor="middle" x="426.4165" y="-564.5" font-family="FreeSans.ttf" font-size="10.00" fill="#000000">muq::Modeling::JacobianPiece</text>
</a>
</g>
</g>
<!-- Node0&#45;&gt;Node15 -->
<g id="edge15" class="edge">
<title>Node0&#45;&gt;Node15</title>
<path fill="none" stroke="#191970" d="M259.3175,-508.2703C279.3415,-520.9601 310.0076,-538.8467 338.9316,-549.5 348.6807,-553.0908 359.3192,-556.035 369.7138,-558.425"/>
<polygon fill="#191970" stroke="#191970" points="260.9544,-505.1613 250.6538,-502.6817 257.1599,-511.0436 260.9544,-505.1613"/>
</g>
<!-- Node16 -->
<g id="node17" class="node">
<title>Node16</title>
<g id="a_node17"><a xlink:href="classmuq_1_1Modeling_1_1LinearOperator.html" target="_top" xlink:title="Generic linear operator base class. ">
<polygon fill="#ffffff" stroke="#ff0000" points="349.2124,-521.5 349.2124,-539.5 503.6206,-539.5 503.6206,-521.5 349.2124,-521.5"/>
<text text-anchor="middle" x="426.4165" y="-527.5" font-family="FreeSans.ttf" font-size="10.00" fill="#000000">muq::Modeling::LinearOperator</text>
</a>
</g>
</g>
<!-- Node0&#45;&gt;Node16 -->
<g id="edge16" class="edge">
<title>Node0&#45;&gt;Node16</title>
<path fill="none" stroke="#191970" d="M293.3749,-504.4951C321.0774,-509.9099 354.0642,-516.3577 380.2607,-521.4782"/>
<polygon fill="#191970" stroke="#191970" points="293.9159,-501.0346 283.4302,-502.5512 292.573,-507.9046 293.9159,-501.0346"/>
</g>
<!-- Node37 -->
<g id="node37" class="node">
<title>Node37</title>
<g id="a_node37"><a xlink:href="classmuq_1_1Modeling_1_1ModGraphPiece.html" target="_top" xlink:title="A muq::Modeling::ModPiece created from a muq::Modeling::WorkGraph. ">
<polygon fill="#ffffff" stroke="#000000" points="346.7124,-484.5 346.7124,-502.5 506.1206,-502.5 506.1206,-484.5 346.7124,-484.5"/>
<text text-anchor="middle" x="426.4165" y="-490.5" font-family="FreeSans.ttf" font-size="10.00" fill="#000000">muq::Modeling::ModGraphPiece</text>
</a>
</g>
</g>
<!-- Node0&#45;&gt;Node37 -->
<g id="edge36" class="edge">
<title>Node0&#45;&gt;Node37</title>
<path fill="none" stroke="#191970" d="M313.1027,-493.5C324.1624,-493.5 335.5763,-493.5 346.7074,-493.5"/>
<polygon fill="#191970" stroke="#191970" points="313.0636,-490.0001 303.0636,-493.5 313.0636,-497.0001 313.0636,-490.0001"/>
</g>
<!-- Node38 -->
<g id="node38" class="node">
<title>Node38</title>
<g id="a_node38"><a xlink:href="classmuq_1_1Modeling_1_1MultiLogisticLikelihood.html" target="_top" xlink:title="Class that defines the likelihood function for multinomial logistic regression. ">
<polygon fill="#ffffff" stroke="#000000" points="355.333,-437.5 355.333,-465.5 497.5,-465.5 497.5,-437.5 355.333,-437.5"/>
<text text-anchor="start" x="363.333" y="-453.5" font-family="FreeSans.ttf" font-size="10.00" fill="#000000">muq::Modeling::MultiLogistic</text>
<text text-anchor="middle" x="426.4165" y="-443.5" font-family="FreeSans.ttf" font-size="10.00" fill="#000000">Likelihood</text>
</a>
</g>
</g>
<!-- Node0&#45;&gt;Node38 -->
<g id="edge37" class="edge">
<title>Node0&#45;&gt;Node38</title>
<path fill="none" stroke="#191970" d="M287.7008,-482.2781C310.8843,-477.1342 338.6094,-470.9825 363.1577,-465.5358"/>
<polygon fill="#191970" stroke="#191970" points="286.7364,-478.9069 277.732,-484.4899 288.2528,-485.7407 286.7364,-478.9069"/>
</g>
<!-- Node39 -->
<g id="node39" class="node">
<title>Node39</title>
<g id="a_node39"><a xlink:href="classmuq_1_1Modeling_1_1ODE.html" target="_top" xlink:title="A class for integrating ODEs with CVODES. ">
<polygon fill="#ffffff" stroke="#000000" points="372.0078,-400.5 372.0078,-418.5 480.8252,-418.5 480.8252,-400.5 372.0078,-400.5"/>
<text text-anchor="middle" x="426.4165" y="-406.5" font-family="FreeSans.ttf" font-size="10.00" fill="#000000">muq::Modeling::ODE</text>
</a>
</g>
</g>
<!-- Node0&#45;&gt;Node39 -->
<g id="edge38" class="edge">
<title>Node0&#45;&gt;Node39</title>
<path fill="none" stroke="#191970" d="M256.0232,-478.132C275.6033,-462.9902 307.6638,-440.3178 338.9316,-427.5 349.262,-423.2652 360.7017,-419.9887 371.8097,-417.4663"/>
<polygon fill="#191970" stroke="#191970" points="253.6375,-475.556 247.9529,-484.4967 257.9722,-481.0524 253.6375,-475.556"/>
</g>
<!-- Node40 -->
<g id="node40" class="node">
<title>Node40</title>
<g id="a_node40"><a xlink:href="classmuq_1_1Modeling_1_1OneStepCachePiece.html" target="_top" xlink:title="muq::Modeling::OneStepCache\lPiece">
<polygon fill="#ffffff" stroke="#000000" points="348.6533,-353.5 348.6533,-381.5 504.1797,-381.5 504.1797,-353.5 348.6533,-353.5"/>
<text text-anchor="start" x="356.6533" y="-369.5" font-family="FreeSans.ttf" font-size="10.00" fill="#000000">muq::Modeling::OneStepCache</text>
<text text-anchor="middle" x="426.4165" y="-359.5" font-family="FreeSans.ttf" font-size="10.00" fill="#000000">Piece</text>
</a>
</g>
</g>
<!-- Node0&#45;&gt;Node40 -->
<g id="edge39" class="edge">
<title>Node0&#45;&gt;Node40</title>
<path fill="none" stroke="#191970" d="M249.3469,-476.3199C266.6517,-453.2838 300.4985,-412.7178 338.9316,-390.5 344.9139,-387.0417 351.4242,-384.0928 358.1042,-381.5802"/>
<polygon fill="#191970" stroke="#191970" points="246.4514,-474.3498 243.358,-484.483 252.0953,-478.4906 246.4514,-474.3498"/>
</g>
<!-- Node41 -->
<g id="node41" class="node">
<title>Node41</title>
<g id="a_node41"><a xlink:href="classmuq_1_1Modeling_1_1ProductPiece.html" target="_top" xlink:title="Returns the components in a single vector input. ">
<polygon fill="#ffffff" stroke="#000000" points="353.104,-316.5 353.104,-334.5 499.729,-334.5 499.729,-316.5 353.104,-316.5"/>
<text text-anchor="middle" x="426.4165" y="-322.5" font-family="FreeSans.ttf" font-size="10.00" fill="#000000">muq::Modeling::ProductPiece</text>
</a>
</g>
</g>
<!-- Node0&#45;&gt;Node41 -->
<g id="edge40" class="edge">
<title>Node0&#45;&gt;Node41</title>
<path fill="none" stroke="#191970" d="M244.298,-474.6736C257.6564,-442.3194 289.5466,-376.4737 338.9316,-343.5 344.348,-339.8836 350.3419,-336.9693 356.5781,-334.6241"/>
<polygon fill="#191970" stroke="#191970" points="240.9262,-473.6806 240.4798,-484.2661 247.43,-476.2695 240.9262,-473.6806"/>
</g>
<!-- Node42 -->
<g id="node42" class="node">
<title>Node42</title>
<g id="a_node42"><a xlink:href="classmuq_1_1Modeling_1_1PyModPiece.html" target="_top" xlink:title="muq::Modeling::PyModPiece">
<polygon fill="#ffffff" stroke="#ff0000" points="354.7739,-279.5 354.7739,-297.5 498.0591,-297.5 498.0591,-279.5 354.7739,-279.5"/>
<text text-anchor="middle" x="426.4165" y="-285.5" font-family="FreeSans.ttf" font-size="10.00" fill="#000000">muq::Modeling::PyModPiece</text>
</a>
</g>
</g>
<!-- Node0&#45;&gt;Node42 -->
<g id="edge41" class="edge">
<title>Node0&#45;&gt;Node42</title>
<path fill="none" stroke="#191970" d="M241.736,-474.4198C252.0575,-436.0518 280.8084,-349.5571 338.9316,-306.5 343.7911,-302.9002 349.2003,-299.9794 354.879,-297.6144"/>
<polygon fill="#191970" stroke="#191970" points="238.2994,-473.7312 239.2076,-484.287 245.0803,-475.4688 238.2994,-473.7312"/>
</g>
<!-- Node45 -->
<g id="node43" class="node">
<title>Node45</title>
<g id="a_node43"><a xlink:href="classmuq_1_1Modeling_1_1RandomVariable.html" target="_top" xlink:title="muq::Modeling::RandomVariable">
<polygon fill="#ffffff" stroke="#000000" points="345.9678,-242.5 345.9678,-260.5 506.8652,-260.5 506.8652,-242.5 345.9678,-242.5"/>
<text text-anchor="middle" x="426.4165" y="-248.5" font-family="FreeSans.ttf" font-size="10.00" fill="#000000">muq::Modeling::RandomVariable</text>
</a>
</g>
</g>
<!-- Node0&#45;&gt;Node45 -->
<g id="edge42" class="edge">
<title>Node0&#45;&gt;Node45</title>
<path fill="none" stroke="#191970" d="M239.9057,-474.364C247.3256,-430.6402 271.8103,-323.0675 338.9316,-269.5 343.416,-265.9212 348.4316,-263.0008 353.7312,-260.6234"/>
<polygon fill="#191970" stroke="#191970" points="236.4123,-474.0479 238.3071,-484.4719 243.3263,-475.1414 236.4123,-474.0479"/>
</g>
<!-- Node46 -->
<g id="node44" class="node">
<title>Node46</title>
<g id="a_node44"><a xlink:href="classmuq_1_1Modeling_1_1ReplicateOperator.html" target="_top" xlink:title="A muq::Modeling::ModPiece that replicates a single input vector &#160;times. ">
<polygon fill="#ffffff" stroke="#000000" points="361.998,-195.5 361.998,-223.5 490.835,-223.5 490.835,-195.5 361.998,-195.5"/>
<text text-anchor="start" x="369.998" y="-211.5" font-family="FreeSans.ttf" font-size="10.00" fill="#000000">muq::Modeling::Replicate</text>
<text text-anchor="middle" x="426.4165" y="-201.5" font-family="FreeSans.ttf" font-size="10.00" fill="#000000">Operator</text>
</a>
</g>
</g>
<!-- Node0&#45;&gt;Node46 -->
<g id="edge43" class="edge">
<title>Node0&#45;&gt;Node46</title>
<path fill="none" stroke="#191970" d="M238.7688,-474.493C243.9783,-426.3748 264.4764,-298.8614 338.9316,-232.5 345.4969,-226.6484 353.3761,-222.2564 361.6803,-218.9652"/>
<polygon fill="#191970" stroke="#191970" points="235.2839,-474.1686 237.7907,-484.4626 242.2505,-474.8521 235.2839,-474.1686"/>
</g>
<!-- Node47 -->
<g id="node45" class="node">
<title>Node47</title>
<g id="a_node45"><a xlink:href="classmuq_1_1Modeling_1_1ScaleVector.html" target="_top" xlink:title="muq::Modeling::ScaleVector">
<polygon fill="#ffffff" stroke="#000000" points="356.1582,-158.5 356.1582,-176.5 496.6748,-176.5 496.6748,-158.5 356.1582,-158.5"/>
<text text-anchor="middle" x="426.4165" y="-164.5" font-family="FreeSans.ttf" font-size="10.00" fill="#000000">muq::Modeling::ScaleVector</text>
</a>
</g>
</g>
<!-- Node0&#45;&gt;Node47 -->
<g id="edge44" class="edge">
<title>Node0&#45;&gt;Node47</title>
<path fill="none" stroke="#191970" d="M240.8579,-474.3502C253.1237,-413.3902 293.9744,-225.51 338.9316,-185.5 343.9126,-181.0672 349.6885,-177.6157 355.8518,-174.9409"/>
<polygon fill="#191970" stroke="#191970" points="237.361,-473.9917 238.8491,-484.4815 244.2273,-475.3532 237.361,-473.9917"/>
</g>
<!-- Node48 -->
<g id="node46" class="node">
<title>Node48</title>
<g id="a_node46"><a xlink:href="classmuq_1_1Modeling_1_1SplitVector.html" target="_top" xlink:title="Provides a mechanism for splitting a vector into multiple pieces. ">
<polygon fill="#ffffff" stroke="#000000" points="358.939,-121.5 358.939,-139.5 493.894,-139.5 493.894,-121.5 358.939,-121.5"/>
<text text-anchor="middle" x="426.4165" y="-127.5" font-family="FreeSans.ttf" font-size="10.00" fill="#000000">muq::Modeling::SplitVector</text>
</a>
</g>
</g>
<!-- Node0&#45;&gt;Node48 -->
<g id="edge45" class="edge">
<title>Node0&#45;&gt;Node48</title>
<path fill="none" stroke="#191970" d="M240.1629,-474.2336C250.9267,-408.4327 289.2728,-194.1519 338.9316,-148.5 344.6395,-143.2527 351.4549,-139.3686 358.7277,-136.5151"/>
<polygon fill="#191970" stroke="#191970" points="236.6584,-473.9825 238.5259,-484.4114 243.5695,-475.0941 236.6584,-473.9825"/>
</g>
<!-- Node49 -->
<g id="node47" class="node">
<title>Node49</title>
<g id="a_node47"><a xlink:href="classmuq_1_1Modeling_1_1SumPiece.html" target="_top" xlink:title="Componentwise addition of two or more vectors. ">
<polygon fill="#ffffff" stroke="#000000" points="360.0547,-84.5 360.0547,-102.5 492.7783,-102.5 492.7783,-84.5 360.0547,-84.5"/>
<text text-anchor="middle" x="426.4165" y="-90.5" font-family="FreeSans.ttf" font-size="10.00" fill="#000000">muq::Modeling::SumPiece</text>
</a>
</g>
</g>
<!-- Node0&#45;&gt;Node49 -->
<g id="edge46" class="edge">
<title>Node0&#45;&gt;Node49</title>
<path fill="none" stroke="#191970" d="M239.6084,-474.0178C248.9972,-403.4721 284.5643,-162.8257 338.9316,-111.5 344.9077,-105.8583 352.1591,-101.781 359.9016,-98.8623"/>
<polygon fill="#191970" stroke="#191970" points="236.1089,-473.7872 238.2851,-484.1561 243.05,-474.6933 236.1089,-473.7872"/>
</g>
<!-- Node50 -->
<g id="node48" class="node">
<title>Node50</title>
<g id="a_node48"><a xlink:href="classmuq_1_1Optimization_1_1CostFunction.html" target="_top" xlink:title="The cost function for an optimization routine. ">
<polygon fill="#ffffff" stroke="#ff0000" points="375.3452,-37.5 375.3452,-65.5 477.4878,-65.5 477.4878,-37.5 375.3452,-37.5"/>
<text text-anchor="start" x="383.3452" y="-53.5" font-family="FreeSans.ttf" font-size="10.00" fill="#000000">muq::Optimization::</text>
<text text-anchor="middle" x="426.4165" y="-43.5" font-family="FreeSans.ttf" font-size="10.00" fill="#000000">CostFunction</text>
</a>
</g>
</g>
<!-- Node0&#45;&gt;Node50 -->
<g id="edge47" class="edge">
<title>Node0&#45;&gt;Node50</title>
<path fill="none" stroke="#191970" d="M239.205,-474.2004C247.6003,-399.8499 281.3194,-133.2014 338.9316,-74.5 348.6119,-64.6368 361.9745,-58.8367 375.3441,-55.4719"/>
<polygon fill="#191970" stroke="#191970" points="235.6952,-474.0968 238.0752,-484.4208 242.6528,-474.8659 235.6952,-474.0968"/>
</g>
<!-- Node53 -->
<g id="node49" class="node">
<title>Node53</title>
<g id="a_node49"><a xlink:href="classmuq_1_1Utilities_1_1LinearOperator.html" target="_top" xlink:title="Generic linear operator base class. ">
<polygon fill="#ffffff" stroke="#000000" points="353.3896,-.5 353.3896,-18.5 499.4434,-18.5 499.4434,-.5 353.3896,-.5"/>
<text text-anchor="middle" x="426.4165" y="-6.5" font-family="FreeSans.ttf" font-size="10.00" fill="#000000">muq::Utilities::LinearOperator</text>
</a>
</g>
</g>
<!-- Node0&#45;&gt;Node53 -->
<g id="edge48" class="edge">
<title>Node0&#45;&gt;Node53</title>
<path fill="none" stroke="#191970" d="M238.6089,-474.013C245.1037,-394.0113 273.6572,-91.9846 338.9316,-27.5 343.1235,-23.3588 347.9986,-20.0505 353.2616,-17.4189"/>
<polygon fill="#191970" stroke="#191970" points="235.1065,-473.9064 237.8089,-484.1508 242.0848,-474.4571 235.1065,-473.9064"/>
</g>
<!-- Node1 -->
<g id="node2" class="node">
<title>Node1</title>
<g id="a_node2"><a xlink:href="classmuq_1_1Modeling_1_1WorkPiece.html" target="_top" xlink:title="Base class for MUQ&#39;s modelling envronment. ">
<polygon fill="#ffffff" stroke="#000000" points="0,-484.5 0,-502.5 135.3164,-502.5 135.3164,-484.5 0,-484.5"/>
<text text-anchor="middle" x="67.6582" y="-490.5" font-family="FreeSans.ttf" font-size="10.00" fill="#000000">muq::Modeling::WorkPiece</text>
</a>
</g>
</g>
<!-- Node1&#45;&gt;Node0 -->
<g id="edge1" class="edge">
<title>Node1&#45;&gt;Node0</title>
<path fill="none" stroke="#191970" d="M145.84,-493.5C154.2809,-493.5 162.809,-493.5 171.0866,-493.5"/>
<polygon fill="#191970" stroke="#191970" points="145.61,-490.0001 135.61,-493.5 145.6099,-497.0001 145.61,-490.0001"/>
</g>
<!-- Node3 -->
<g id="node4" class="node">
<title>Node3</title>
<g id="a_node4"><a xlink:href="classmuq_1_1Approximation_1_1PolynomialChaosExpansion.html" target="_top" xlink:title="A class for representing and using expansions of orthogonal multivariate polynomials. ">
<polygon fill="#ffffff" stroke="#000000" points="562.3989,-973.5 562.3989,-1001.5 708.4722,-1001.5 708.4722,-973.5 562.3989,-973.5"/>
<text text-anchor="start" x="570.3989" y="-989.5" font-family="FreeSans.ttf" font-size="10.00" fill="#000000">muq::Approximation</text>
<text text-anchor="middle" x="635.4355" y="-979.5" font-family="FreeSans.ttf" font-size="10.00" fill="#000000">::PolynomialChaosExpansion</text>
</a>
</g>
</g>
<!-- Node2&#45;&gt;Node3 -->
<g id="edge3" class="edge">
<title>Node2&#45;&gt;Node3</title>
<path fill="none" stroke="#191970" d="M489.1787,-984.0014C512.1043,-984.5498 538.2372,-985.1749 562.0096,-985.7436"/>
<polygon fill="#191970" stroke="#191970" points="488.9719,-980.4955 478.891,-983.7553 488.8044,-987.4935 488.9719,-980.4955"/>
</g>
<!-- Node11 -->
<g id="node12" class="node">
<title>Node11</title>
<g id="a_node12"><a xlink:href="classmuq_1_1Modeling_1_1Density.html" target="_top" xlink:title="muq::Modeling::Density">
<polygon fill="#ffffff" stroke="#000000" points="575.1895,-936.5 575.1895,-954.5 695.6816,-954.5 695.6816,-936.5 575.1895,-936.5"/>
<text text-anchor="middle" x="635.4355" y="-942.5" font-family="FreeSans.ttf" font-size="10.00" fill="#000000">muq::Modeling::Density</text>
</a>
</g>
</g>
<!-- Node10&#45;&gt;Node11 -->
<g id="edge11" class="edge">
<title>Node10&#45;&gt;Node11</title>
<path fill="none" stroke="#191970" d="M507.0621,-691.4894C509.5081,-693.2777 511.802,-695.2739 513.9014,-697.5 584.8888,-772.7739 478.6718,-852.4552 549.9014,-927.5 556.6918,-934.6542 565.5483,-939.3358 574.9838,-942.3393"/>
<polygon fill="#191970" stroke="#191970" points="508.5952,-688.3275 498.2207,-686.1777 504.9902,-694.3278 508.5952,-688.3275"/>
</g>
<!-- Node12 -->
<g id="node13" class="node">
<title>Node12</title>
<g id="a_node13"><a xlink:href="classmuq_1_1Modeling_1_1DensityProduct.html" target="_top" xlink:title="muq::Modeling::DensityProduct">
<polygon fill="#ffffff" stroke="#000000" points="557.958,-899.5 557.958,-917.5 712.9131,-917.5 712.9131,-899.5 557.958,-899.5"/>
<text text-anchor="middle" x="635.4355" y="-905.5" font-family="FreeSans.ttf" font-size="10.00" fill="#000000">muq::Modeling::DensityProduct</text>
</a>
</g>
</g>
<!-- Node10&#45;&gt;Node12 -->
<g id="edge12" class="edge">
<title>Node10&#45;&gt;Node12</title>
<path fill="none" stroke="#191970" d="M506.9797,-691.5683C509.4486,-693.3347 511.7698,-695.3047 513.9014,-697.5 574.6864,-760.102 488.915,-828.0942 549.9014,-890.5 553.4014,-894.0815 557.4204,-897.0387 561.7664,-899.4732"/>
<polygon fill="#191970" stroke="#191970" points="508.4679,-688.3826 498.0766,-686.3156 504.9109,-694.4115 508.4679,-688.3826"/>
</g>
<!-- Node17 -->
<g id="node18" class="node">
<title>Node17</title>
<g id="a_node18"><a xlink:href="classmuq_1_1Modeling_1_1BlockDiagonalOperator.html" target="_top" xlink:title="Defines a block diagonal linear operator in terms of other linear operators. ">
<polygon fill="#ffffff" stroke="#000000" points="559.8989,-852.5 559.8989,-880.5 710.9722,-880.5 710.9722,-852.5 559.8989,-852.5"/>
<text text-anchor="start" x="567.8989" y="-868.5" font-family="FreeSans.ttf" font-size="10.00" fill="#000000">muq::Modeling::BlockDiagonal</text>
<text text-anchor="middle" x="635.4355" y="-858.5" font-family="FreeSans.ttf" font-size="10.00" fill="#000000">Operator</text>
</a>
</g>
</g>
<!-- Node16&#45;&gt;Node17 -->
<g id="edge17" class="edge">
<title>Node16&#45;&gt;Node17</title>
<path fill="none" stroke="#191970" d="M509.5233,-545.2853C511.0632,-546.5901 512.5268,-547.9927 513.9014,-549.5 602.607,-646.7681 463.5965,-744.0956 549.9014,-843.5 552.8249,-846.8673 556.1838,-849.7669 559.8417,-852.2614"/>
<polygon fill="#191970" stroke="#191970" points="511.4591,-542.3685 501.2474,-539.5453 507.4697,-548.1204 511.4591,-542.3685"/>
</g>
<!-- Node18 -->
<g id="node19" class="node">
<title>Node18</title>
<g id="a_node19"><a xlink:href="classmuq_1_1Modeling_1_1BlockRowOperator.html" target="_top" xlink:title="Defines a block row matrix in terms of other linear operators. ">
<polygon fill="#ffffff" stroke="#000000" points="549.9014,-815.5 549.9014,-833.5 720.9697,-833.5 720.9697,-815.5 549.9014,-815.5"/>
<text text-anchor="middle" x="635.4355" y="-821.5" font-family="FreeSans.ttf" font-size="10.00" fill="#000000">muq::Modeling::BlockRowOperator</text>
</a>
</g>
</g>
<!-- Node16&#45;&gt;Node18 -->
<g id="edge18" class="edge">
<title>Node16&#45;&gt;Node18</title>
<path fill="none" stroke="#191970" d="M509.4882,-545.3176C511.0385,-546.6128 512.5138,-548.0047 513.9014,-549.5 592.3555,-634.0439 471.1753,-722.2093 549.9014,-806.5 553.2159,-810.0488 557.0383,-812.9917 561.1898,-815.4247"/>
<polygon fill="#191970" stroke="#191970" points="511.3972,-542.3828 501.1698,-539.6166 507.4399,-548.1569 511.3972,-542.3828"/>
</g>
<!-- Node19 -->
<g id="node20" class="node">
<title>Node19</title>
<g id="a_node20"><a xlink:href="classmuq_1_1Modeling_1_1CompanionMatrix.html" target="_top" xlink:title="Implments a companion matrix as a linear operator. ">
<polygon fill="#ffffff" stroke="#000000" points="566.2905,-768.5 566.2905,-796.5 704.5806,-796.5 704.5806,-768.5 566.2905,-768.5"/>
<text text-anchor="start" x="574.2905" y="-784.5" font-family="FreeSans.ttf" font-size="10.00" fill="#000000">muq::Modeling::Companion</text>
<text text-anchor="middle" x="635.4355" y="-774.5" font-family="FreeSans.ttf" font-size="10.00" fill="#000000">Matrix</text>
</a>
</g>
</g>
<!-- Node16&#45;&gt;Node19 -->
<g id="edge19" class="edge">
<title>Node16&#45;&gt;Node19</title>
<path fill="none" stroke="#191970" d="M509.2922,-545.2661C510.9099,-546.575 512.4508,-547.984 513.9014,-549.5 579.3688,-617.9188 486.1236,-689.5035 549.9014,-759.5 554.4583,-764.5013 559.9755,-768.4628 565.9884,-771.5942"/>
<polygon fill="#191970" stroke="#191970" points="510.896,-542.1301 500.6273,-539.5216 507.0281,-547.9644 510.896,-542.1301"/>
</g>
<!-- Node20 -->
<g id="node21" class="node">
<title>Node20</title>
<g id="a_node21"><a xlink:href="classmuq_1_1Modeling_1_1ConcatenateOperator.html" target="_top" xlink:title="Vertical or horizontal concatenation of other linear operators. ">
<polygon fill="#ffffff" stroke="#000000" points="563.5073,-721.5 563.5073,-749.5 707.3638,-749.5 707.3638,-721.5 563.5073,-721.5"/>
<text text-anchor="start" x="571.5073" y="-737.5" font-family="FreeSans.ttf" font-size="10.00" fill="#000000">muq::Modeling::Concatenate</text>
<text text-anchor="middle" x="635.4355" y="-727.5" font-family="FreeSans.ttf" font-size="10.00" fill="#000000">Operator</text>
</a>
</g>
</g>
<!-- Node16&#45;&gt;Node20 -->
<g id="edge20" class="edge">
<title>Node16&#45;&gt;Node20</title>
<path fill="none" stroke="#191970" d="M508.6333,-544.9279C510.4844,-546.33 512.2465,-547.8509 513.9014,-549.5 566.4538,-601.8683 498.6429,-658.8645 549.9014,-712.5 553.8323,-716.6132 558.4137,-720.0179 563.3754,-722.833"/>
<polygon fill="#191970" stroke="#191970" points="510.3345,-541.8634 500.0039,-539.5121 506.6134,-547.7925 510.3345,-541.8634"/>
</g>
<!-- Node21 -->
<g id="node22" class="node">
<title>Node21</title>
<g id="a_node22"><a xlink:href="classmuq_1_1Modeling_1_1DiagonalOperator.html" target="_top" xlink:title="muq::Modeling::DiagonalOperator">
<polygon fill="#ffffff" stroke="#000000" points="552.394,-684.5 552.394,-702.5 718.4771,-702.5 718.4771,-684.5 552.394,-684.5"/>
<text text-anchor="middle" x="635.4355" y="-690.5" font-family="FreeSans.ttf" font-size="10.00" fill="#000000">muq::Modeling::DiagonalOperator</text>
</a>
</g>
</g>
<!-- Node16&#45;&gt;Node21 -->
<g id="edge21" class="edge">
<title>Node16&#45;&gt;Node21</title>
<path fill="none" stroke="#191970" d="M508.3484,-544.9537C510.2936,-546.3467 512.151,-547.8589 513.9014,-549.5 556.3892,-589.3345 507.2854,-635.8026 549.9014,-675.5 553.6767,-679.0167 557.9579,-681.9168 562.5441,-684.3021"/>
<polygon fill="#191970" stroke="#191970" points="509.701,-541.6858 499.3175,-539.5804 506.1217,-547.7016 509.701,-541.6858"/>
</g>
<!-- Node22 -->
<g id="node23" class="node">
<title>Node22</title>
<polygon fill="#ffffff" stroke="#bfbfbf" points="565.1748,-637.5 565.1748,-665.5 705.6963,-665.5 705.6963,-637.5 565.1748,-637.5"/>
<text text-anchor="start" x="573.1748" y="-653.5" font-family="FreeSans.ttf" font-size="10.00" fill="#000000">muq::Modeling::EigenLinear</text>
<text text-anchor="middle" x="635.4355" y="-643.5" font-family="FreeSans.ttf" font-size="10.00" fill="#000000">Operator&lt; EigenType &gt;</text>
</g>
<!-- Node16&#45;&gt;Node22 -->
<g id="edge22" class="edge">
<title>Node16&#45;&gt;Node22</title>
<path fill="none" stroke="#191970" d="M506.0742,-544.114C508.8171,-545.7263 511.4398,-547.5154 513.9014,-549.5 543.9393,-573.718 520.4635,-603.556 549.9014,-628.5 554.4768,-632.377 559.6433,-635.6064 565.1145,-638.2958"/>
<polygon fill="#191970" stroke="#191970" points="507.4645,-540.8959 496.9562,-539.5443 504.3281,-547.1539 507.4645,-540.8959"/>
</g>
<!-- Node23 -->
<g id="node24" class="node">
<title>Node23</title>
<g id="a_node24"><a xlink:href="classmuq_1_1Modeling_1_1GaussianOperator.html" target="_top" xlink:title="Creates a linear operator for the action of the covariance or precision matrix of a Gaussian distribu...">
<polygon fill="#ffffff" stroke="#000000" points="551.0073,-600.5 551.0073,-618.5 719.8638,-618.5 719.8638,-600.5 551.0073,-600.5"/>
<text text-anchor="middle" x="635.4355" y="-606.5" font-family="FreeSans.ttf" font-size="10.00" fill="#000000">muq::Modeling::GaussianOperator</text>
</a>
</g>
</g>
<!-- Node16&#45;&gt;Node23 -->
<g id="edge23" class="edge">
<title>Node16&#45;&gt;Node23</title>
<path fill="none" stroke="#191970" d="M500.8305,-543.0326C505.3812,-544.8987 509.7806,-547.041 513.9014,-549.5 535.0136,-562.0984 528.7487,-578.9697 549.9014,-591.5 556.0377,-595.135 562.804,-598.042 569.762,-600.3658"/>
<polygon fill="#191970" stroke="#191970" points="501.9116,-539.7016 491.3175,-539.577 499.5216,-546.281 501.9116,-539.7016"/>
</g>
<!-- Node24 -->
<g id="node25" class="node">
<title>Node24</title>
<g id="a_node25"><a xlink:href="classmuq_1_1Modeling_1_1GaussNewtonOperator.html" target="_top" xlink:title="Creates a linear operator for the action of a Gauss&#45;Newton Hessian approximation on a vector...">
<polygon fill="#ffffff" stroke="#000000" points="560.458,-553.5 560.458,-581.5 710.4131,-581.5 710.4131,-553.5 560.458,-553.5"/>
<text text-anchor="start" x="568.458" y="-569.5" font-family="FreeSans.ttf" font-size="10.00" fill="#000000">muq::Modeling::GaussNewton</text>
<text text-anchor="middle" x="635.4355" y="-559.5" font-family="FreeSans.ttf" font-size="10.00" fill="#000000">Operator</text>
</a>
</g>
</g>
<!-- Node16&#45;&gt;Node24 -->
<g id="edge24" class="edge">
<title>Node16&#45;&gt;Node24</title>
<path fill="none" stroke="#191970" d="M487.1671,-541.2539C509.9793,-545.2921 536.186,-549.9311 560.1606,-554.175"/>
<polygon fill="#191970" stroke="#191970" points="487.7381,-537.8006 477.281,-539.5039 486.5178,-544.6935 487.7381,-537.8006"/>
</g>
<!-- Node25 -->
<g id="node26" class="node">
<title>Node25</title>
<g id="a_node26"><a xlink:href="classmuq_1_1Modeling_1_1HessianOperator.html" target="_top" xlink:title="Creates a linear operator for the action of the Hessian of a ModPiece on a vector. Useful for computing the Hessian spectrum with iteratives solvers like LOBPCG. &#160;GaussNewtonOperator. ">
<polygon fill="#ffffff" stroke="#000000" points="554.0664,-516.5 554.0664,-534.5 716.8047,-534.5 716.8047,-516.5 554.0664,-516.5"/>
<text text-anchor="middle" x="635.4355" y="-522.5" font-family="FreeSans.ttf" font-size="10.00" fill="#000000">muq::Modeling::HessianOperator</text>
</a>
</g>
</g>
<!-- Node16&#45;&gt;Node25 -->
<g id="edge25" class="edge">
<title>Node16&#45;&gt;Node25</title>
<path fill="none" stroke="#191970" d="M513.75,-528.4109C527.07,-528.0922 540.7727,-527.7645 553.9605,-527.449"/>
<polygon fill="#191970" stroke="#191970" points="513.567,-524.9142 503.6536,-528.6524 513.7345,-531.9121 513.567,-524.9142"/>
</g>
<!-- Node26 -->
<g id="node27" class="node">
<title>Node26</title>
<g id="a_node27"><a xlink:href="classmuq_1_1Modeling_1_1IdentityOperator.html" target="_top" xlink:title="muq::Modeling::IdentityOperator">
<polygon fill="#ffffff" stroke="#000000" points="556.0098,-479.5 556.0098,-497.5 714.8613,-497.5 714.8613,-479.5 556.0098,-479.5"/>
<text text-anchor="middle" x="635.4355" y="-485.5" font-family="FreeSans.ttf" font-size="10.00" fill="#000000">muq::Modeling::IdentityOperator</text>
</a>
</g>
</g>
<!-- Node16&#45;&gt;Node26 -->
<g id="edge26" class="edge">
<title>Node16&#45;&gt;Node26</title>
<path fill="none" stroke="#191970" d="M481.4761,-519.4364C515.4134,-512.6171 558.3918,-503.9811 590.3097,-497.5675"/>
<polygon fill="#191970" stroke="#191970" points="480.3708,-516.0884 471.2563,-521.4899 481.7499,-522.9513 480.3708,-516.0884"/>
</g>
<!-- Node27 -->
<g id="node28" class="node">
<title>Node27</title>
<g id="a_node28"><a xlink:href="classmuq_1_1Modeling_1_1KroneckerProductOperator.html" target="_top" xlink:title="Defines the Kronecker product of two other linear operators. ">
<polygon fill="#ffffff" stroke="#000000" points="569.0737,-432.5 569.0737,-460.5 701.7974,-460.5 701.7974,-432.5 569.0737,-432.5"/>
<text text-anchor="start" x="577.0737" y="-448.5" font-family="FreeSans.ttf" font-size="10.00" fill="#000000">muq::Modeling::Kronecker</text>
<text text-anchor="middle" x="635.4355" y="-438.5" font-family="FreeSans.ttf" font-size="10.00" fill="#000000">ProductOperator</text>
</a>
</g>
</g>
<!-- Node16&#45;&gt;Node27 -->
<g id="edge27" class="edge">
<title>Node16&#45;&gt;Node27</title>
<path fill="none" stroke="#191970" d="M503.6762,-517.7297C507.2185,-516.1789 510.6479,-514.4429 513.9014,-512.5 535.3006,-499.7207 528.8936,-482.9129 549.9014,-469.5 555.7337,-465.7762 562.1585,-462.6509 568.7873,-460.0287"/>
<polygon fill="#191970" stroke="#191970" points="502.1585,-514.5634 494.0795,-521.4176 504.6695,-521.0975 502.1585,-514.5634"/>
</g>
<!-- Node28 -->
<g id="node29" class="node">
<title>Node28</title>
<g id="a_node29"><a xlink:href="classmuq_1_1Modeling_1_1ProductOperator.html" target="_top" xlink:title="The product of two linear operators, . ">
<polygon fill="#ffffff" stroke="#000000" points="554.8989,-395.5 554.8989,-413.5 715.9722,-413.5 715.9722,-395.5 554.8989,-395.5"/>
<text text-anchor="middle" x="635.4355" y="-401.5" font-family="FreeSans.ttf" font-size="10.00" fill="#000000">muq::Modeling::ProductOperator</text>
</a>
</g>
</g>
<!-- Node16&#45;&gt;Node28 -->
<g id="edge28" class="edge">
<title>Node16&#45;&gt;Node28</title>
<path fill="none" stroke="#191970" d="M508.8748,-516.2606C510.6161,-515.0947 512.2957,-513.8431 513.9014,-512.5 546.9458,-484.8583 516.9191,-450.2159 549.9014,-422.5 554.1999,-418.8878 559.0426,-415.9438 564.1825,-413.5502"/>
<polygon fill="#191970" stroke="#191970" points="506.7187,-513.457 499.7112,-521.4033 510.1447,-519.5614 506.7187,-513.457"/>
</g>
<!-- Node29 -->
<g id="node30" class="node">
<title>Node29</title>
<g id="a_node30"><a xlink:href="classmuq_1_1Modeling_1_1SliceOperator.html" target="_top" xlink:title="Defines a &quot;slice&quot; or &quot;range&quot; of an input vector. ">
<polygon fill="#ffffff" stroke="#000000" points="561.293,-358.5 561.293,-376.5 709.5781,-376.5 709.5781,-358.5 561.293,-358.5"/>
<text text-anchor="middle" x="635.4355" y="-364.5" font-family="FreeSans.ttf" font-size="10.00" fill="#000000">muq::Modeling::SliceOperator</text>
</a>
</g>
</g>
<!-- Node16&#45;&gt;Node29 -->
<g id="edge29" class="edge">
<title>Node16&#45;&gt;Node29</title>
<path fill="none" stroke="#191970" d="M509.7435,-515.98C511.185,-514.8922 512.5738,-513.7337 513.9014,-512.5 556.8784,-472.5632 507.0143,-425.5334 549.9014,-385.5 553.673,-381.9793 557.9515,-379.0763 562.5358,-376.6891"/>
<polygon fill="#191970" stroke="#191970" points="507.5932,-513.1965 500.9687,-521.4649 511.3036,-519.1323 507.5932,-513.1965"/>
</g>
<!-- Node30 -->
<g id="node31" class="node">
<title>Node30</title>
<g id="a_node31"><a xlink:href="classmuq_1_1Modeling_1_1SparseLinearOperator.html" target="_top" xlink:title="Wraps a sparse Eigen matrix into a linear operator. ">
<polygon fill="#ffffff" stroke="#000000" points="562.1206,-311.5 562.1206,-339.5 708.7505,-339.5 708.7505,-311.5 562.1206,-311.5"/>
<text text-anchor="start" x="570.1206" y="-327.5" font-family="FreeSans.ttf" font-size="10.00" fill="#000000">muq::Modeling::SparseLinear</text>
<text text-anchor="middle" x="635.4355" y="-317.5" font-family="FreeSans.ttf" font-size="10.00" fill="#000000">Operator</text>
</a>
</g>
</g>
<!-- Node16&#45;&gt;Node30 -->
<g id="edge30" class="edge">
<title>Node16&#45;&gt;Node30</title>
<path fill="none" stroke="#191970" d="M510.4539,-515.5976C511.6468,-514.6208 512.7977,-513.5892 513.9014,-512.5 567.015,-460.0812 498.3777,-402.4824 549.9014,-348.5 553.405,-344.8292 557.4266,-341.7226 561.7745,-339.0957"/>
<polygon fill="#191970" stroke="#191970" points="508.3636,-512.7858 502.0303,-521.2793 512.2779,-518.5891 508.3636,-512.7858"/>
</g>
<!-- Node31 -->
<g id="node32" class="node">
<title>Node31</title>
<g id="a_node32"><a xlink:href="classmuq_1_1Modeling_1_1SumOperator.html" target="_top" xlink:title="muq::Modeling::SumOperator">
<polygon fill="#ffffff" stroke="#000000" points="561.8496,-274.5 561.8496,-292.5 709.0215,-292.5 709.0215,-274.5 561.8496,-274.5"/>
<text text-anchor="middle" x="635.4355" y="-280.5" font-family="FreeSans.ttf" font-size="10.00" fill="#000000">muq::Modeling::SumOperator</text>
</a>
</g>
</g>
<!-- Node16&#45;&gt;Node31 -->
<g id="edge31" class="edge">
<title>Node16&#45;&gt;Node31</title>
<path fill="none" stroke="#191970" d="M510.5258,-515.6688C511.6966,-514.6702 512.8237,-513.6149 513.9014,-512.5 580.0197,-444.0994 483.937,-370.0491 549.9014,-301.5 553.3737,-297.8916 557.3721,-294.9144 561.7033,-292.4656"/>
<polygon fill="#191970" stroke="#191970" points="508.416,-512.8731 502.221,-521.4681 512.4238,-518.6123 508.416,-512.8731"/>
</g>
<!-- Node32 -->
<g id="node33" class="node">
<title>Node32</title>
<g id="a_node33"><a xlink:href="classmuq_1_1Modeling_1_1ZeroOperator.html" target="_top" xlink:title="muq::Modeling::ZeroOperator">
<polygon fill="#ffffff" stroke="#000000" points="561.8496,-237.5 561.8496,-255.5 709.0215,-255.5 709.0215,-237.5 561.8496,-237.5"/>
<text text-anchor="middle" x="635.4355" y="-243.5" font-family="FreeSans.ttf" font-size="10.00" fill="#000000">muq::Modeling::ZeroOperator</text>
</a>
</g>
</g>
<!-- Node16&#45;&gt;Node32 -->
<g id="edge32" class="edge">
<title>Node16&#45;&gt;Node32</title>
<path fill="none" stroke="#191970" d="M511.0077,-515.3146C512.0081,-514.4212 512.9739,-513.4837 513.9014,-512.5 590.3095,-431.4646 473.6757,-345.707 549.9014,-264.5 553.3286,-260.8488 557.2936,-257.8398 561.6007,-255.3681"/>
<polygon fill="#191970" stroke="#191970" points="508.7555,-512.6246 502.7212,-521.333 512.8692,-518.2884 508.7555,-512.6246"/>
</g>
<!-- Node33 -->
<g id="node34" class="node">
<title>Node33</title>
<g id="a_node34"><a xlink:href="classmuq_1_1SamplingAlgorithms_1_1AverageHessian.html" target="_top" xlink:title="muq::SamplingAlgorithms\l::AverageHessian">
<polygon fill="#ffffff" stroke="#000000" points="570.4678,-190.5 570.4678,-218.5 700.4033,-218.5 700.4033,-190.5 570.4678,-190.5"/>
<text text-anchor="start" x="578.4678" y="-206.5" font-family="FreeSans.ttf" font-size="10.00" fill="#000000">muq::SamplingAlgorithms</text>
<text text-anchor="middle" x="635.4355" y="-196.5" font-family="FreeSans.ttf" font-size="10.00" fill="#000000">::AverageHessian</text>
</a>
</g>
</g>
<!-- Node16&#45;&gt;Node33 -->
<g id="edge33" class="edge">
<title>Node16&#45;&gt;Node33</title>
<path fill="none" stroke="#191970" d="M511.0333,-515.3385C512.0257,-514.4377 512.983,-513.4922 513.9014,-512.5 600.6256,-418.8018 466.0154,-323.7476 549.9014,-227.5 555.4582,-221.1243 562.5754,-216.4265 570.3261,-212.98"/>
<polygon fill="#191970" stroke="#191970" points="508.7739,-512.6557 502.7965,-521.4034 512.9244,-518.2925 508.7739,-512.6557"/>
</g>
<!-- Node34 -->
<g id="node35" class="node">
<title>Node34</title>
<g id="a_node35"><a xlink:href="classmuq_1_1SamplingAlgorithms_1_1CSProjector.html" target="_top" xlink:title="muq::SamplingAlgorithms\l::CSProjector">
<polygon fill="#ffffff" stroke="#000000" points="570.4678,-143.5 570.4678,-171.5 700.4033,-171.5 700.4033,-143.5 570.4678,-143.5"/>
<text text-anchor="start" x="578.4678" y="-159.5" font-family="FreeSans.ttf" font-size="10.00" fill="#000000">muq::SamplingAlgorithms</text>
<text text-anchor="middle" x="635.4355" y="-149.5" font-family="FreeSans.ttf" font-size="10.00" fill="#000000">::CSProjector</text>
</a>
</g>
</g>
<!-- Node16&#45;&gt;Node34 -->
<g id="edge34" class="edge">
<title>Node16&#45;&gt;Node34</title>
<path fill="none" stroke="#191970" d="M511.0579,-515.3611C512.0427,-514.4533 512.9918,-513.5003 513.9014,-512.5 613.7541,-402.6907 453.3742,-293.2438 549.9014,-180.5 555.4018,-174.0755 562.4868,-169.3499 570.2217,-165.8898"/>
<polygon fill="#191970" stroke="#191970" points="508.7916,-512.685 502.8689,-521.4698 512.9772,-518.2959 508.7916,-512.685"/>
</g>
<!-- Node35 -->
<g id="node36" class="node">
<title>Node35</title>
<g id="a_node36"><a xlink:href="classmuq_1_1SamplingAlgorithms_1_1LIS2Full.html" target="_top" xlink:title="muq::SamplingAlgorithms\l::LIS2Full">
<polygon fill="#ffffff" stroke="#000000" points="570.4678,-96.5 570.4678,-124.5 700.4033,-124.5 700.4033,-96.5 570.4678,-96.5"/>
<text text-anchor="start" x="578.4678" y="-112.5" font-family="FreeSans.ttf" font-size="10.00" fill="#000000">muq::SamplingAlgorithms</text>
<text text-anchor="middle" x="635.4355" y="-102.5" font-family="FreeSans.ttf" font-size="10.00" fill="#000000">::LIS2Full</text>
</a>
</g>
</g>
<!-- Node16&#45;&gt;Node35 -->
<g id="edge35" class="edge">
<title>Node16&#45;&gt;Node35</title>
<path fill="none" stroke="#191970" d="M511.485,-514.9924C512.3184,-514.196 513.1247,-513.3656 513.9014,-512.5 570.4007,-449.5301 495.3087,-198.1299 549.9014,-133.5 555.3589,-127.0391 562.4195,-122.2927 570.1424,-118.8223"/>
<polygon fill="#191970" stroke="#191970" points="509.1057,-512.4069 503.315,-521.2792 513.3747,-517.9546 509.1057,-512.4069"/>
</g>
</g>
</svg>
