<?xml version="1.0" encoding="UTF-8" standalone="no"?>
<!DOCTYPE svg PUBLIC "-//W3C//DTD SVG 1.1//EN"
 "http://www.w3.org/Graphics/SVG/1.1/DTD/svg11.dtd">
<!-- Generated by graphviz version 2.40.1 (20161225.0304)
 -->
<!-- Title: muq::Approximation::ExponentialGrowthQuadrature Pages: 1 -->
<svg width="165pt" height="102pt"
 viewBox="0.00 0.00 164.63 102.00" xmlns="http://www.w3.org/2000/svg" xmlns:xlink="http://www.w3.org/1999/xlink">
<g id="graph0" class="graph" transform="scale(1 1) rotate(0) translate(4 98)">
<title>muq::Approximation::ExponentialGrowthQuadrature</title>
<polygon fill="#ffffff" stroke="transparent" points="-4,4 -4,-98 160.6348,-98 160.6348,4 -4,4"/>
<!-- Node2 -->
<g id="node1" class="node">
<title>Node2</title>
<polygon fill="#bfbfbf" stroke="#000000" points="0,-.5 0,-28.5 156.6348,-28.5 156.6348,-.5 0,-.5"/>
<text text-anchor="start" x="8" y="-16.5" font-family="FreeSans.ttf" font-size="10.00" fill="#000000">muq::Approximation</text>
<text text-anchor="middle" x="78.3174" y="-6.5" font-family="FreeSans.ttf" font-size="10.00" fill="#000000">::ExponentialGrowthQuadrature</text>
</g>
<!-- Node3 -->
<g id="node2" class="node">
<title>Node3</title>
<g id="a_node2"><a xlink:href="classmuq_1_1Approximation_1_1Quadrature.html" target="_top" xlink:title="Base class for multivariate quadrature rules. &#160;An abstract class for computing nodes and weights of g...">
<polygon fill="#ffffff" stroke="#000000" points="25.8521,-65.5 25.8521,-93.5 130.7827,-93.5 130.7827,-65.5 25.8521,-65.5"/>
<text text-anchor="start" x="33.8521" y="-81.5" font-family="FreeSans.ttf" font-size="10.00" fill="#000000">muq::Approximation</text>
<text text-anchor="middle" x="78.3174" y="-71.5" font-family="FreeSans.ttf" font-size="10.00" fill="#000000">::Quadrature</text>
</a>
</g>
</g>
<!-- Node3&#45;&gt;Node2 -->
<g id="edge1" class="edge">
<title>Node3&#45;&gt;Node2</title>
<path fill="none" stroke="#191970" d="M78.3174,-55.1081C78.3174,-46.1539 78.3174,-36.3227 78.3174,-28.5765"/>
<polygon fill="#191970" stroke="#191970" points="74.8175,-55.3959 78.3174,-65.396 81.8175,-55.396 74.8175,-55.3959"/>
</g>
</g>
</svg>
