<?xml version="1.0" encoding="UTF-8" standalone="no"?>
<!DOCTYPE svg PUBLIC "-//W3C//DTD SVG 1.1//EN"
 "http://www.w3.org/Graphics/SVG/1.1/DTD/svg11.dtd">
<!-- Generated by graphviz version 2.40.1 (20161225.0304)
 -->
<!-- Title: CustomModPiece.DiffusionEquation Pages: 1 -->
<svg width="144pt" height="92pt"
 viewBox="0.00 0.00 144.43 92.00" xmlns="http://www.w3.org/2000/svg" xmlns:xlink="http://www.w3.org/1999/xlink">
<g id="graph0" class="graph" transform="scale(1 1) rotate(0) translate(4 88)">
<title>CustomModPiece.DiffusionEquation</title>
<polygon fill="#ffffff" stroke="transparent" points="-4,4 -4,-88 140.4297,-88 140.4297,4 -4,4"/>
<!-- Node0 -->
<g id="node1" class="node">
<title>Node0</title>
<polygon fill="#bfbfbf" stroke="#000000" points="0,-.5 0,-28.5 136.4297,-28.5 136.4297,-.5 0,-.5"/>
<text text-anchor="start" x="8" y="-16.5" font-family="FreeSans.ttf" font-size="10.00" fill="#000000">CustomModPiece.Diffusion</text>
<text text-anchor="middle" x="68.2148" y="-6.5" font-family="FreeSans.ttf" font-size="10.00" fill="#000000">Equation</text>
</g>
<!-- Node1 -->
<g id="node2" class="node">
<title>Node1</title>
<polygon fill="#ffffff" stroke="#bfbfbf" points="32.146,-65.5 32.146,-83.5 104.2837,-83.5 104.2837,-65.5 32.146,-65.5"/>
<text text-anchor="middle" x="68.2148" y="-71.5" font-family="FreeSans.ttf" font-size="10.00" fill="#000000">PyModPiece</text>
</g>
<!-- Node1&#45;&gt;Node0 -->
<g id="edge1" class="edge">
<title>Node1&#45;&gt;Node0</title>
<path fill="none" stroke="#191970" d="M68.2148,-55.1865C68.2148,-46.6283 68.2148,-36.7354 68.2148,-28.8477"/>
<polygon fill="#191970" stroke="#191970" points="64.7149,-55.3873 68.2148,-65.3873 71.7149,-55.3873 64.7149,-55.3873"/>
</g>
</g>
</svg>
