<?xml version="1.0" encoding="UTF-8" standalone="no"?>
<!DOCTYPE svg PUBLIC "-//W3C//DTD SVG 1.1//EN"
 "http://www.w3.org/Graphics/SVG/1.1/DTD/svg11.dtd">
<!-- Generated by graphviz version 2.40.1 (20161225.0304)
 -->
<!-- Title: muq::SamplingAlgorithms::GMHKernel Pages: 1 -->
<svg width="138pt" height="167pt"
 viewBox="0.00 0.00 137.94 167.00" xmlns="http://www.w3.org/2000/svg" xmlns:xlink="http://www.w3.org/1999/xlink">
<g id="graph0" class="graph" transform="scale(1 1) rotate(0) translate(4 163)">
<title>muq::SamplingAlgorithms::GMHKernel</title>
<polygon fill="#ffffff" stroke="transparent" points="-4,4 -4,-163 133.9355,-163 133.9355,4 -4,4"/>
<!-- Node0 -->
<g id="node1" class="node">
<title>Node0</title>
<polygon fill="#bfbfbf" stroke="#000000" points="0,-.5 0,-28.5 129.9355,-28.5 129.9355,-.5 0,-.5"/>
<text text-anchor="start" x="8" y="-16.5" font-family="FreeSans.ttf" font-size="10.00" fill="#000000">muq::SamplingAlgorithms</text>
<text text-anchor="middle" x="64.9678" y="-6.5" font-family="FreeSans.ttf" font-size="10.00" fill="#000000">::GMHKernel</text>
</g>
<!-- Node1 -->
<g id="node2" class="node">
<title>Node1</title>
<g id="a_node2"><a xlink:href="classmuq_1_1SamplingAlgorithms_1_1MHKernel.html" target="_top" xlink:title="An implementation of the standard Metropolis&#45;Hastings transition kernel. ">
<polygon fill="#ffffff" stroke="#000000" points="0,-65.5 0,-93.5 129.9355,-93.5 129.9355,-65.5 0,-65.5"/>
<text text-anchor="start" x="8" y="-81.5" font-family="FreeSans.ttf" font-size="10.00" fill="#000000">muq::SamplingAlgorithms</text>
<text text-anchor="middle" x="64.9678" y="-71.5" font-family="FreeSans.ttf" font-size="10.00" fill="#000000">::MHKernel</text>
</a>
</g>
</g>
<!-- Node1&#45;&gt;Node0 -->
<g id="edge1" class="edge">
<title>Node1&#45;&gt;Node0</title>
<path fill="none" stroke="#191970" d="M64.9678,-55.1081C64.9678,-46.1539 64.9678,-36.3227 64.9678,-28.5765"/>
<polygon fill="#191970" stroke="#191970" points="61.4679,-55.3959 64.9678,-65.396 68.4679,-55.396 61.4679,-55.3959"/>
</g>
<!-- Node2 -->
<g id="node3" class="node">
<title>Node2</title>
<g id="a_node3"><a xlink:href="classmuq_1_1SamplingAlgorithms_1_1TransitionKernel.html" target="_top" xlink:title="Defines the transition kernel used by an MCMC algorithm. ">
<polygon fill="#ffffff" stroke="#000000" points="0,-130.5 0,-158.5 129.9355,-158.5 129.9355,-130.5 0,-130.5"/>
<text text-anchor="start" x="8" y="-146.5" font-family="FreeSans.ttf" font-size="10.00" fill="#000000">muq::SamplingAlgorithms</text>
<text text-anchor="middle" x="64.9678" y="-136.5" font-family="FreeSans.ttf" font-size="10.00" fill="#000000">::TransitionKernel</text>
</a>
</g>
</g>
<!-- Node2&#45;&gt;Node1 -->
<g id="edge2" class="edge">
<title>Node2&#45;&gt;Node1</title>
<path fill="none" stroke="#191970" d="M64.9678,-120.1081C64.9678,-111.1539 64.9678,-101.3227 64.9678,-93.5765"/>
<polygon fill="#191970" stroke="#191970" points="61.4679,-120.3959 64.9678,-130.396 68.4679,-120.396 61.4679,-120.3959"/>
</g>
</g>
</svg>
