<?xml version="1.0" encoding="UTF-8" standalone="no"?>
<!DOCTYPE svg PUBLIC "-//W3C//DTD SVG 1.1//EN"
 "http://www.w3.org/Graphics/SVG/1.1/DTD/svg11.dtd">
<!-- Generated by graphviz version 2.40.1 (20161225.0304)
 -->
<!-- Title: muq::SamplingAlgorithms::ExpectedModPieceValue Pages: 1 -->
<svg width="141pt" height="233pt"
 viewBox="0.00 0.00 140.56 233.00" xmlns="http://www.w3.org/2000/svg" xmlns:xlink="http://www.w3.org/1999/xlink">
<g id="graph0" class="graph" transform="scale(1 1) rotate(0) translate(4 229)">
<title>muq::SamplingAlgorithms::ExpectedModPieceValue</title>
<polygon fill="#ffffff" stroke="transparent" points="-4,4 -4,-229 136.5576,-229 136.5576,4 -4,4"/>
<!-- Node1 -->
<g id="node1" class="node">
<title>Node1</title>
<polygon fill="#bfbfbf" stroke="#000000" points="0,-.5 0,-28.5 132.5576,-28.5 132.5576,-.5 0,-.5"/>
<text text-anchor="start" x="8" y="-16.5" font-family="FreeSans.ttf" font-size="10.00" fill="#000000">muq::SamplingAlgorithms</text>
<text text-anchor="middle" x="66.2788" y="-6.5" font-family="FreeSans.ttf" font-size="10.00" fill="#000000">::ExpectedModPieceValue</text>
</g>
<!-- Node2 -->
<g id="node2" class="node">
<title>Node2</title>
<polygon fill="#ffffff" stroke="#bfbfbf" points="4.9219,-75.5 4.9219,-93.5 127.6357,-93.5 127.6357,-75.5 4.9219,-75.5"/>
<text text-anchor="middle" x="66.2788" y="-81.5" font-family="FreeSans.ttf" font-size="10.00" fill="#000000">std::vector&lt; std::string &gt;</text>
</g>
<!-- Node2&#45;&gt;Node1 -->
<g id="edge1" class="edge">
<title>Node2&#45;&gt;Node1</title>
<path fill="none" stroke="#9a32cd" stroke-dasharray="5,2" d="M66.2788,-65.0243C66.2788,-53.5169 66.2788,-39.2016 66.2788,-28.7499"/>
<polygon fill="#9a32cd" stroke="#9a32cd" points="62.7789,-65.3487 66.2788,-75.3487 69.7789,-65.3488 62.7789,-65.3487"/>
<text text-anchor="middle" x="85.1753" y="-49" font-family="FreeSans.ttf" font-size="10.00" fill="#000000"> metains</text>
</g>
<!-- Node3 -->
<g id="node3" class="node">
<title>Node3</title>
<g id="a_node3"><a xlink:title="STL class. ">
<polygon fill="#ffffff" stroke="#bfbfbf" points="36.604,-140.5 36.604,-158.5 95.9536,-158.5 95.9536,-140.5 36.604,-140.5"/>
<text text-anchor="middle" x="66.2788" y="-146.5" font-family="FreeSans.ttf" font-size="10.00" fill="#000000">std::string</text>
</a>
</g>
</g>
<!-- Node3&#45;&gt;Node2 -->
<g id="edge2" class="edge">
<title>Node3&#45;&gt;Node2</title>
<path fill="none" stroke="#9a32cd" stroke-dasharray="5,2" d="M66.2788,-130.1265C66.2788,-118.1522 66.2788,-103.3205 66.2788,-93.8821"/>
<polygon fill="#9a32cd" stroke="#9a32cd" points="62.7789,-130.462 66.2788,-140.462 69.7789,-130.4621 62.7789,-130.462"/>
<text text-anchor="middle" x="87.9561" y="-114" font-family="FreeSans.ttf" font-size="10.00" fill="#000000"> elements</text>
</g>
<!-- Node4 -->
<g id="node4" class="node">
<title>Node4</title>
<g id="a_node4"><a xlink:title="STL class. ">
<polygon fill="#ffffff" stroke="#bfbfbf" points="19.231,-196.5 19.231,-224.5 113.3267,-224.5 113.3267,-196.5 19.231,-196.5"/>
<text text-anchor="start" x="27.231" y="-212.5" font-family="FreeSans.ttf" font-size="10.00" fill="#000000">std::basic_string&lt;</text>
<text text-anchor="middle" x="66.2788" y="-202.5" font-family="FreeSans.ttf" font-size="10.00" fill="#000000"> char &gt;</text>
</a>
</g>
</g>
<!-- Node4&#45;&gt;Node3 -->
<g id="edge3" class="edge">
<title>Node4&#45;&gt;Node3</title>
<path fill="none" stroke="#191970" d="M66.2788,-186.1001C66.2788,-176.5157 66.2788,-166.0935 66.2788,-158.831"/>
<polygon fill="#191970" stroke="#191970" points="62.7789,-186.352 66.2788,-196.3521 69.7789,-186.3521 62.7789,-186.352"/>
</g>
</g>
</svg>
