<?xml version="1.0" encoding="UTF-8" standalone="no"?>
<!DOCTYPE svg PUBLIC "-//W3C//DTD SVG 1.1//EN"
 "http://www.w3.org/Graphics/SVG/1.1/DTD/svg11.dtd">
<!-- Generated by graphviz version 2.40.1 (20161225.0304)
 -->
<!-- Title: muq::Optimization::Optimization Pages: 1 -->
<svg width="143pt" height="92pt"
 viewBox="0.00 0.00 143.32 92.00" xmlns="http://www.w3.org/2000/svg" xmlns:xlink="http://www.w3.org/1999/xlink">
<g id="graph0" class="graph" transform="scale(1 1) rotate(0) translate(4 88)">
<title>muq::Optimization::Optimization</title>
<polygon fill="#ffffff" stroke="transparent" points="-4,4 -4,-88 139.3164,-88 139.3164,4 -4,4"/>
<!-- Node0 -->
<g id="node1" class="node">
<title>Node0</title>
<polygon fill="#bfbfbf" stroke="#000000" points="16.5869,-.5 16.5869,-28.5 118.7295,-28.5 118.7295,-.5 16.5869,-.5"/>
<text text-anchor="start" x="24.5869" y="-16.5" font-family="FreeSans.ttf" font-size="10.00" fill="#000000">muq::Optimization::</text>
<text text-anchor="middle" x="67.6582" y="-6.5" font-family="FreeSans.ttf" font-size="10.00" fill="#000000">Optimization</text>
</g>
<!-- Node1 -->
<g id="node2" class="node">
<title>Node1</title>
<g id="a_node2"><a xlink:href="classmuq_1_1Modeling_1_1WorkPiece.html" target="_top" xlink:title="Base class for MUQ&#39;s modelling envronment. ">
<polygon fill="#ffffff" stroke="#000000" points="0,-65.5 0,-83.5 135.3164,-83.5 135.3164,-65.5 0,-65.5"/>
<text text-anchor="middle" x="67.6582" y="-71.5" font-family="FreeSans.ttf" font-size="10.00" fill="#000000">muq::Modeling::WorkPiece</text>
</a>
</g>
</g>
<!-- Node1&#45;&gt;Node0 -->
<g id="edge1" class="edge">
<title>Node1&#45;&gt;Node0</title>
<path fill="none" stroke="#191970" d="M67.6582,-55.1865C67.6582,-46.6283 67.6582,-36.7354 67.6582,-28.8477"/>
<polygon fill="#191970" stroke="#191970" points="64.1583,-55.3873 67.6582,-65.3873 71.1583,-55.3873 64.1583,-55.3873"/>
</g>
</g>
</svg>
