<?xml version="1.0" encoding="UTF-8" standalone="no"?>
<!DOCTYPE svg PUBLIC "-//W3C//DTD SVG 1.1//EN"
 "http://www.w3.org/Graphics/SVG/1.1/DTD/svg11.dtd">
<!-- Generated by graphviz version 2.40.1 (20161225.0304)
 -->
<!-- Title: muq::SamplingAlgorithms::CrankNicolsonProposal Pages: 1 -->
<svg width="158pt" height="232pt"
 viewBox="0.00 0.00 158.49 232.00" xmlns="http://www.w3.org/2000/svg" xmlns:xlink="http://www.w3.org/1999/xlink">
<g id="graph0" class="graph" transform="scale(1 1) rotate(0) translate(4 228)">
<title>muq::SamplingAlgorithms::CrankNicolsonProposal</title>
<polygon fill="#ffffff" stroke="transparent" points="-4,4 -4,-228 154.4922,-228 154.4922,4 -4,4"/>
<!-- Node0 -->
<g id="node1" class="node">
<title>Node0</title>
<polygon fill="#bfbfbf" stroke="#000000" points="10.2783,-65.5 10.2783,-93.5 140.2139,-93.5 140.2139,-65.5 10.2783,-65.5"/>
<text text-anchor="start" x="18.2783" y="-81.5" font-family="FreeSans.ttf" font-size="10.00" fill="#000000">muq::SamplingAlgorithms</text>
<text text-anchor="middle" x="75.2461" y="-71.5" font-family="FreeSans.ttf" font-size="10.00" fill="#000000">::CrankNicolsonProposal</text>
</g>
<!-- Node3 -->
<g id="node4" class="node">
<title>Node3</title>
<g id="a_node4"><a xlink:href="classmuq_1_1SamplingAlgorithms_1_1InfMALAProposal.html" target="_top" xlink:title="An implement of the dimension&#45;independent MALA (or Inf&#45;MALA) proposal. ">
<polygon fill="#ffffff" stroke="#000000" points="10.2783,-.5 10.2783,-28.5 140.2139,-28.5 140.2139,-.5 10.2783,-.5"/>
<text text-anchor="start" x="18.2783" y="-16.5" font-family="FreeSans.ttf" font-size="10.00" fill="#000000">muq::SamplingAlgorithms</text>
<text text-anchor="middle" x="75.2461" y="-6.5" font-family="FreeSans.ttf" font-size="10.00" fill="#000000">::InfMALAProposal</text>
</a>
</g>
</g>
<!-- Node0&#45;&gt;Node3 -->
<g id="edge3" class="edge">
<title>Node0&#45;&gt;Node3</title>
<path fill="none" stroke="#191970" d="M75.2461,-55.1081C75.2461,-46.1539 75.2461,-36.3227 75.2461,-28.5765"/>
<polygon fill="#191970" stroke="#191970" points="71.7462,-55.3959 75.2461,-65.396 78.7462,-55.396 71.7462,-55.3959"/>
</g>
<!-- Node1 -->
<g id="node2" class="node">
<title>Node1</title>
<g id="a_node2"><a xlink:href="classmuq_1_1SamplingAlgorithms_1_1MCMCProposal.html" target="_top" xlink:title="muq::SamplingAlgorithms\l::MCMCProposal">
<polygon fill="#ffffff" stroke="#000000" points="10.2783,-130.5 10.2783,-158.5 140.2139,-158.5 140.2139,-130.5 10.2783,-130.5"/>
<text text-anchor="start" x="18.2783" y="-146.5" font-family="FreeSans.ttf" font-size="10.00" fill="#000000">muq::SamplingAlgorithms</text>
<text text-anchor="middle" x="75.2461" y="-136.5" font-family="FreeSans.ttf" font-size="10.00" fill="#000000">::MCMCProposal</text>
</a>
</g>
</g>
<!-- Node1&#45;&gt;Node0 -->
<g id="edge1" class="edge">
<title>Node1&#45;&gt;Node0</title>
<path fill="none" stroke="#191970" d="M75.2461,-120.1081C75.2461,-111.1539 75.2461,-101.3227 75.2461,-93.5765"/>
<polygon fill="#191970" stroke="#191970" points="71.7462,-120.3959 75.2461,-130.396 78.7462,-120.396 71.7462,-120.3959"/>
</g>
<!-- Node2 -->
<g id="node3" class="node">
<title>Node2</title>
<polygon fill="#ffffff" stroke="#bfbfbf" points="0,-195.5 0,-223.5 150.4922,-223.5 150.4922,-195.5 0,-195.5"/>
<text text-anchor="start" x="8" y="-211.5" font-family="FreeSans.ttf" font-size="10.00" fill="#000000">std::enable_shared</text>
<text text-anchor="middle" x="75.2461" y="-201.5" font-family="FreeSans.ttf" font-size="10.00" fill="#000000">_from_this&lt; MCMCProposal &gt;</text>
</g>
<!-- Node2&#45;&gt;Node1 -->
<g id="edge2" class="edge">
<title>Node2&#45;&gt;Node1</title>
<path fill="none" stroke="#191970" d="M75.2461,-185.1081C75.2461,-176.1539 75.2461,-166.3227 75.2461,-158.5765"/>
<polygon fill="#191970" stroke="#191970" points="71.7462,-185.3959 75.2461,-195.396 78.7462,-185.396 71.7462,-185.3959"/>
</g>
</g>
</svg>
