<?xml version="1.0" encoding="UTF-8" standalone="no"?>
<!DOCTYPE svg PUBLIC "-//W3C//DTD SVG 1.1//EN"
 "http://www.w3.org/Graphics/SVG/1.1/DTD/svg11.dtd">
<!-- Generated by graphviz version 2.40.1 (20161225.0304)
 -->
<!-- Title: muq::NotImplementedError Pages: 1 -->
<svg width="145pt" height="137pt"
 viewBox="0.00 0.00 144.60 137.00" xmlns="http://www.w3.org/2000/svg" xmlns:xlink="http://www.w3.org/1999/xlink">
<g id="graph0" class="graph" transform="scale(1 1) rotate(0) translate(4 133)">
<title>muq::NotImplementedError</title>
<polygon fill="#ffffff" stroke="transparent" points="-4,4 -4,-133 140.6006,-133 140.6006,4 -4,4"/>
<!-- Node3 -->
<g id="node1" class="node">
<title>Node3</title>
<polygon fill="#bfbfbf" stroke="#000000" points="0,-.5 0,-18.5 136.6006,-18.5 136.6006,-.5 0,-.5"/>
<text text-anchor="middle" x="68.3003" y="-6.5" font-family="FreeSans.ttf" font-size="10.00" fill="#000000">muq::NotImplementedError</text>
</g>
<!-- Node4 -->
<g id="node2" class="node">
<title>Node4</title>
<g id="a_node2"><a xlink:title="STL class. ">
<polygon fill="#ffffff" stroke="#bfbfbf" points="27.2314,-55.5 27.2314,-73.5 109.3691,-73.5 109.3691,-55.5 27.2314,-55.5"/>
<text text-anchor="middle" x="68.3003" y="-61.5" font-family="FreeSans.ttf" font-size="10.00" fill="#000000">std::logic_error</text>
</a>
</g>
</g>
<!-- Node4&#45;&gt;Node3 -->
<g id="edge1" class="edge">
<title>Node4&#45;&gt;Node3</title>
<path fill="none" stroke="#191970" d="M68.3003,-45.383C68.3003,-36.3738 68.3003,-26.0373 68.3003,-18.7795"/>
<polygon fill="#191970" stroke="#191970" points="64.8004,-45.4178 68.3003,-55.4179 71.8004,-45.4179 64.8004,-45.4178"/>
</g>
<!-- Node5 -->
<g id="node3" class="node">
<title>Node5</title>
<g id="a_node3"><a xlink:title="STL class. ">
<polygon fill="#ffffff" stroke="#bfbfbf" points="29.4482,-110.5 29.4482,-128.5 107.1523,-128.5 107.1523,-110.5 29.4482,-110.5"/>
<text text-anchor="middle" x="68.3003" y="-116.5" font-family="FreeSans.ttf" font-size="10.00" fill="#000000">std::exception</text>
</a>
</g>
</g>
<!-- Node5&#45;&gt;Node4 -->
<g id="edge2" class="edge">
<title>Node5&#45;&gt;Node4</title>
<path fill="none" stroke="#191970" d="M68.3003,-100.383C68.3003,-91.3738 68.3003,-81.0373 68.3003,-73.7795"/>
<polygon fill="#191970" stroke="#191970" points="64.8004,-100.4178 68.3003,-110.4179 71.8004,-100.4179 64.8004,-100.4178"/>
</g>
</g>
</svg>
