<?xml version="1.0" encoding="UTF-8" standalone="no"?>
<!DOCTYPE svg PUBLIC "-//W3C//DTD SVG 1.1//EN"
 "http://www.w3.org/Graphics/SVG/1.1/DTD/svg11.dtd">
<!-- Generated by graphviz version 2.40.1 (20161225.0304)
 -->
<!-- Title: muq::SamplingAlgorithms::GMHKernel Pages: 1 -->
<svg width="569pt" height="94pt"
 viewBox="0.00 0.00 569.48 94.00" xmlns="http://www.w3.org/2000/svg" xmlns:xlink="http://www.w3.org/1999/xlink">
<g id="graph0" class="graph" transform="scale(1 1) rotate(0) translate(4 90)">
<title>muq::SamplingAlgorithms::GMHKernel</title>
<polygon fill="#ffffff" stroke="transparent" points="-4,4 -4,-90 565.4834,-90 565.4834,4 -4,4"/>
<!-- Node3 -->
<g id="node1" class="node">
<title>Node3</title>
<polygon fill="#bfbfbf" stroke="#000000" points="431.5479,-17.5 431.5479,-45.5 561.4834,-45.5 561.4834,-17.5 431.5479,-17.5"/>
<text text-anchor="start" x="439.5479" y="-33.5" font-family="FreeSans.ttf" font-size="10.00" fill="#000000">muq::SamplingAlgorithms</text>
<text text-anchor="middle" x="496.5156" y="-23.5" font-family="FreeSans.ttf" font-size="10.00" fill="#000000">::GMHKernel</text>
</g>
<!-- Node4 -->
<g id="node2" class="node">
<title>Node4</title>
<g id="a_node2"><a xlink:href="classmuq_1_1SamplingAlgorithms_1_1MHKernel.html" target="_top" xlink:title="An implementation of the standard Metropolis&#45;Hastings transition kernel. ">
<polygon fill="#ffffff" stroke="#000000" points="179.8604,-57.5 179.8604,-85.5 309.7959,-85.5 309.7959,-57.5 179.8604,-57.5"/>
<text text-anchor="start" x="187.8604" y="-73.5" font-family="FreeSans.ttf" font-size="10.00" fill="#000000">muq::SamplingAlgorithms</text>
<text text-anchor="middle" x="244.8281" y="-63.5" font-family="FreeSans.ttf" font-size="10.00" fill="#000000">::MHKernel</text>
</a>
</g>
</g>
<!-- Node4&#45;&gt;Node3 -->
<g id="edge1" class="edge">
<title>Node4&#45;&gt;Node3</title>
<path fill="none" stroke="#191970" d="M320.2341,-59.5159C355.5629,-53.9012 397.2468,-47.2765 431.2087,-41.8791"/>
<polygon fill="#191970" stroke="#191970" points="319.2979,-56.1207 309.9712,-61.147 320.3967,-63.034 319.2979,-56.1207"/>
</g>
<!-- Node5 -->
<g id="node3" class="node">
<title>Node5</title>
<g id="a_node3"><a xlink:href="classmuq_1_1SamplingAlgorithms_1_1TransitionKernel.html" target="_top" xlink:title="Defines the transition kernel used by an MCMC algorithm. ">
<polygon fill="#ffffff" stroke="#000000" points="0,-57.5 0,-85.5 129.9355,-85.5 129.9355,-57.5 0,-57.5"/>
<text text-anchor="start" x="8" y="-73.5" font-family="FreeSans.ttf" font-size="10.00" fill="#000000">muq::SamplingAlgorithms</text>
<text text-anchor="middle" x="64.9678" y="-63.5" font-family="FreeSans.ttf" font-size="10.00" fill="#000000">::TransitionKernel</text>
</a>
</g>
</g>
<!-- Node5&#45;&gt;Node4 -->
<g id="edge2" class="edge">
<title>Node5&#45;&gt;Node4</title>
<path fill="none" stroke="#191970" d="M140.4662,-71.5C153.4594,-71.5 166.8653,-71.5 179.5606,-71.5"/>
<polygon fill="#191970" stroke="#191970" points="140.1558,-68.0001 130.1558,-71.5 140.1558,-75.0001 140.1558,-68.0001"/>
</g>
<!-- Node6 -->
<g id="node4" class="node">
<title>Node6</title>
<polygon fill="#ffffff" stroke="#bfbfbf" points="166.9355,-.5 166.9355,-38.5 322.7207,-38.5 322.7207,-.5 166.9355,-.5"/>
<text text-anchor="start" x="174.9355" y="-26.5" font-family="FreeSans.ttf" font-size="10.00" fill="#000000">std::vector&lt; std::shared</text>
<text text-anchor="start" x="174.9355" y="-16.5" font-family="FreeSans.ttf" font-size="10.00" fill="#000000">_ptr&lt; muq::SamplingAlgorithms</text>
<text text-anchor="middle" x="244.8281" y="-6.5" font-family="FreeSans.ttf" font-size="10.00" fill="#000000">::SamplingState &gt; &gt;</text>
</g>
<!-- Node6&#45;&gt;Node3 -->
<g id="edge3" class="edge">
<title>Node6&#45;&gt;Node3</title>
<path fill="none" stroke="#9a32cd" stroke-dasharray="5,2" d="M333.0856,-23.708C365.3812,-25.2478 401.3132,-26.9609 431.2426,-28.3879"/>
<polygon fill="#9a32cd" stroke="#9a32cd" points="332.8954,-20.195 322.74,-23.2147 332.5619,-27.1871 332.8954,-20.195"/>
<text text-anchor="middle" x="377.1343" y="-29.5" font-family="FreeSans.ttf" font-size="10.00" fill="#000000"> proposedStates</text>
</g>
</g>
</svg>
