<?xml version="1.0" encoding="UTF-8" standalone="no"?>
<!DOCTYPE svg PUBLIC "-//W3C//DTD SVG 1.1//EN"
 "http://www.w3.org/Graphics/SVG/1.1/DTD/svg11.dtd">
<!-- Generated by graphviz version 2.40.1 (20161225.0304)
 -->
<!-- Title: CrankNicolson.MyGauss Pages: 1 -->
<svg width="134pt" height="82pt"
 viewBox="0.00 0.00 134.03 82.00" xmlns="http://www.w3.org/2000/svg" xmlns:xlink="http://www.w3.org/1999/xlink">
<g id="graph0" class="graph" transform="scale(1 1) rotate(0) translate(4 78)">
<title>CrankNicolson.MyGauss</title>
<polygon fill="#ffffff" stroke="transparent" points="-4,4 -4,-78 130.0342,-78 130.0342,4 -4,4"/>
<!-- Node0 -->
<g id="node1" class="node">
<title>Node0</title>
<polygon fill="#bfbfbf" stroke="#000000" points="0,-.5 0,-18.5 126.0342,-18.5 126.0342,-.5 0,-.5"/>
<text text-anchor="middle" x="63.0171" y="-6.5" font-family="FreeSans.ttf" font-size="10.00" fill="#000000">CrankNicolson.MyGauss</text>
</g>
<!-- Node1 -->
<g id="node2" class="node">
<title>Node1</title>
<polygon fill="#ffffff" stroke="#bfbfbf" points="5.5542,-55.5 5.5542,-73.5 120.48,-73.5 120.48,-55.5 5.5542,-55.5"/>
<text text-anchor="middle" x="63.0171" y="-61.5" font-family="FreeSans.ttf" font-size="10.00" fill="#000000">mm::PyGaussianBase</text>
</g>
<!-- Node1&#45;&gt;Node0 -->
<g id="edge1" class="edge">
<title>Node1&#45;&gt;Node0</title>
<path fill="none" stroke="#191970" d="M63.0171,-45.383C63.0171,-36.3738 63.0171,-26.0373 63.0171,-18.7795"/>
<polygon fill="#191970" stroke="#191970" points="59.5172,-45.4178 63.0171,-55.4179 66.5172,-45.4179 59.5172,-45.4178"/>
</g>
</g>
</svg>
