<?xml version="1.0" encoding="UTF-8" standalone="no"?>
<!DOCTYPE svg PUBLIC "-//W3C//DTD SVG 1.1//EN"
 "http://www.w3.org/Graphics/SVG/1.1/DTD/svg11.dtd">
<!-- Generated by graphviz version 2.40.1 (20161225.0304)
 -->
<!-- Title: muq::Modeling::ZeroOperator Pages: 1 -->
<svg width="162pt" height="192pt"
 viewBox="0.00 0.00 162.41 192.00" xmlns="http://www.w3.org/2000/svg" xmlns:xlink="http://www.w3.org/1999/xlink">
<g id="graph0" class="graph" transform="scale(1 1) rotate(0) translate(4 188)">
<title>muq::Modeling::ZeroOperator</title>
<polygon fill="#ffffff" stroke="transparent" points="-4,4 -4,-188 158.4082,-188 158.4082,4 -4,4"/>
<!-- Node0 -->
<g id="node1" class="node">
<title>Node0</title>
<polygon fill="#bfbfbf" stroke="#000000" points="3.6182,-.5 3.6182,-18.5 150.79,-18.5 150.79,-.5 3.6182,-.5"/>
<text text-anchor="middle" x="77.2041" y="-6.5" font-family="FreeSans.ttf" font-size="10.00" fill="#000000">muq::Modeling::ZeroOperator</text>
</g>
<!-- Node1 -->
<g id="node2" class="node">
<title>Node1</title>
<g id="a_node2"><a xlink:href="classmuq_1_1Modeling_1_1LinearOperator.html" target="_top" xlink:title="Generic linear operator base class. ">
<polygon fill="#ffffff" stroke="#000000" points="0,-55.5 0,-73.5 154.4082,-73.5 154.4082,-55.5 0,-55.5"/>
<text text-anchor="middle" x="77.2041" y="-61.5" font-family="FreeSans.ttf" font-size="10.00" fill="#000000">muq::Modeling::LinearOperator</text>
</a>
</g>
</g>
<!-- Node1&#45;&gt;Node0 -->
<g id="edge1" class="edge">
<title>Node1&#45;&gt;Node0</title>
<path fill="none" stroke="#191970" d="M77.2041,-45.383C77.2041,-36.3738 77.2041,-26.0373 77.2041,-18.7795"/>
<polygon fill="#191970" stroke="#191970" points="73.7042,-45.4178 77.2041,-55.4179 80.7042,-45.4179 73.7042,-45.4178"/>
</g>
<!-- Node2 -->
<g id="node3" class="node">
<title>Node2</title>
<g id="a_node3"><a xlink:href="classmuq_1_1Modeling_1_1ModPiece.html" target="_top" xlink:title="Provides an abstract interface for defining vector&#45;valued model components. ">
<polygon fill="#ffffff" stroke="#000000" points="11.3965,-110.5 11.3965,-128.5 143.0117,-128.5 143.0117,-110.5 11.3965,-110.5"/>
<text text-anchor="middle" x="77.2041" y="-116.5" font-family="FreeSans.ttf" font-size="10.00" fill="#000000">muq::Modeling::ModPiece</text>
</a>
</g>
</g>
<!-- Node2&#45;&gt;Node1 -->
<g id="edge2" class="edge">
<title>Node2&#45;&gt;Node1</title>
<path fill="none" stroke="#191970" d="M77.2041,-100.383C77.2041,-91.3738 77.2041,-81.0373 77.2041,-73.7795"/>
<polygon fill="#191970" stroke="#191970" points="73.7042,-100.4178 77.2041,-110.4179 80.7042,-100.4179 73.7042,-100.4178"/>
</g>
<!-- Node3 -->
<g id="node4" class="node">
<title>Node3</title>
<g id="a_node4"><a xlink:href="classmuq_1_1Modeling_1_1WorkPiece.html" target="_top" xlink:title="Base class for MUQ&#39;s modelling envronment. ">
<polygon fill="#ffffff" stroke="#000000" points="9.5459,-165.5 9.5459,-183.5 144.8623,-183.5 144.8623,-165.5 9.5459,-165.5"/>
<text text-anchor="middle" x="77.2041" y="-171.5" font-family="FreeSans.ttf" font-size="10.00" fill="#000000">muq::Modeling::WorkPiece</text>
</a>
</g>
</g>
<!-- Node3&#45;&gt;Node2 -->
<g id="edge3" class="edge">
<title>Node3&#45;&gt;Node2</title>
<path fill="none" stroke="#191970" d="M77.2041,-155.383C77.2041,-146.3738 77.2041,-136.0373 77.2041,-128.7795"/>
<polygon fill="#191970" stroke="#191970" points="73.7042,-155.4178 77.2041,-165.4179 80.7042,-155.4179 73.7042,-155.4178"/>
</g>
</g>
</svg>
