<?xml version="1.0" encoding="UTF-8" standalone="no"?>
<!DOCTYPE svg PUBLIC "-//W3C//DTD SVG 1.1//EN"
 "http://www.w3.org/Graphics/SVG/1.1/DTD/svg11.dtd">
<!-- Generated by graphviz version 2.40.1 (20161225.0304)
 -->
<!-- Title: muq::Approximation::KarhunenLoeveBase Pages: 1 -->
<svg width="147pt" height="102pt"
 viewBox="0.00 0.00 146.87 102.00" xmlns="http://www.w3.org/2000/svg" xmlns:xlink="http://www.w3.org/1999/xlink">
<g id="graph0" class="graph" transform="scale(1 1) rotate(0) translate(4 98)">
<title>muq::Approximation::KarhunenLoeveBase</title>
<polygon fill="#ffffff" stroke="transparent" points="-4,4 -4,-98 142.8711,-98 142.8711,4 -4,4"/>
<!-- Node0 -->
<g id="node1" class="node">
<title>Node0</title>
<polygon fill="#bfbfbf" stroke="#000000" points="11.9531,-65.5 11.9531,-93.5 126.918,-93.5 126.918,-65.5 11.9531,-65.5"/>
<text text-anchor="start" x="19.9531" y="-81.5" font-family="FreeSans.ttf" font-size="10.00" fill="#000000">muq::Approximation</text>
<text text-anchor="middle" x="69.4355" y="-71.5" font-family="FreeSans.ttf" font-size="10.00" fill="#000000">::KarhunenLoeveBase</text>
</g>
<!-- Node1 -->
<g id="node2" class="node">
<title>Node1</title>
<g id="a_node2"><a xlink:href="classmuq_1_1Approximation_1_1KarhunenLoeveExpansion.html" target="_top" xlink:title="Used to compute and evaluate the Karhunen&#45;Loeve decomposition of a zero mean Gaussian process...">
<polygon fill="#ffffff" stroke="#000000" points="0,-.5 0,-28.5 138.8711,-28.5 138.8711,-.5 0,-.5"/>
<text text-anchor="start" x="8" y="-16.5" font-family="FreeSans.ttf" font-size="10.00" fill="#000000">muq::Approximation</text>
<text text-anchor="middle" x="69.4355" y="-6.5" font-family="FreeSans.ttf" font-size="10.00" fill="#000000">::KarhunenLoeveExpansion</text>
</a>
</g>
</g>
<!-- Node0&#45;&gt;Node1 -->
<g id="edge1" class="edge">
<title>Node0&#45;&gt;Node1</title>
<path fill="none" stroke="#191970" d="M69.4355,-55.1081C69.4355,-46.1539 69.4355,-36.3227 69.4355,-28.5765"/>
<polygon fill="#191970" stroke="#191970" points="65.9356,-55.3959 69.4355,-65.396 72.9356,-55.396 65.9356,-55.3959"/>
</g>
</g>
</svg>
