<?xml version="1.0" encoding="UTF-8" standalone="no"?>
<!DOCTYPE svg PUBLIC "-//W3C//DTD SVG 1.1//EN"
 "http://www.w3.org/Graphics/SVG/1.1/DTD/svg11.dtd">
<!-- Generated by graphviz version 2.40.1 (20161225.0304)
 -->
<!-- Title: muq::SamplingAlgorithms::MIMCMCBox Pages: 1 -->
<svg width="164pt" height="132pt"
 viewBox="0.00 0.00 163.79 132.00" xmlns="http://www.w3.org/2000/svg" xmlns:xlink="http://www.w3.org/1999/xlink">
<g id="graph0" class="graph" transform="scale(1 1) rotate(0) translate(4 128)">
<title>muq::SamplingAlgorithms::MIMCMCBox</title>
<polygon fill="#ffffff" stroke="transparent" points="-4,4 -4,-128 159.7852,-128 159.7852,4 -4,4"/>
<!-- Node1 -->
<g id="node1" class="node">
<title>Node1</title>
<polygon fill="#bfbfbf" stroke="#000000" points="12.9248,-.5 12.9248,-28.5 142.8604,-28.5 142.8604,-.5 12.9248,-.5"/>
<text text-anchor="start" x="20.9248" y="-16.5" font-family="FreeSans.ttf" font-size="10.00" fill="#000000">muq::SamplingAlgorithms</text>
<text text-anchor="middle" x="77.8926" y="-6.5" font-family="FreeSans.ttf" font-size="10.00" fill="#000000">::MIMCMCBox</text>
</g>
<!-- Node2 -->
<g id="node2" class="node">
<title>Node2</title>
<polygon fill="#ffffff" stroke="#bfbfbf" points="0,-85.5 0,-123.5 155.7852,-123.5 155.7852,-85.5 0,-85.5"/>
<text text-anchor="start" x="8" y="-111.5" font-family="FreeSans.ttf" font-size="10.00" fill="#000000">std::vector&lt; std::shared</text>
<text text-anchor="start" x="8" y="-101.5" font-family="FreeSans.ttf" font-size="10.00" fill="#000000">_ptr&lt; muq::SamplingAlgorithms</text>
<text text-anchor="middle" x="77.8926" y="-91.5" font-family="FreeSans.ttf" font-size="10.00" fill="#000000">::SingleChainMCMC &gt; &gt;</text>
</g>
<!-- Node2&#45;&gt;Node1 -->
<g id="edge1" class="edge">
<title>Node2&#45;&gt;Node1</title>
<path fill="none" stroke="#9a32cd" stroke-dasharray="5,2" d="M77.8926,-75.1537C77.8926,-59.5093 77.8926,-40.9815 77.8926,-28.5563"/>
<polygon fill="#9a32cd" stroke="#9a32cd" points="74.3927,-75.4133 77.8926,-85.4133 81.3927,-75.4133 74.3927,-75.4133"/>
<text text-anchor="middle" x="102.9072" y="-59" font-family="FreeSans.ttf" font-size="10.00" fill="#000000"> boxChains</text>
<text text-anchor="middle" x="102.9072" y="-49" font-family="FreeSans.ttf" font-size="10.00" fill="#000000">tailChains</text>
</g>
</g>
</svg>
