<?xml version="1.0" encoding="UTF-8" standalone="no"?>
<!DOCTYPE svg PUBLIC "-//W3C//DTD SVG 1.1//EN"
 "http://www.w3.org/Graphics/SVG/1.1/DTD/svg11.dtd">
<!-- Generated by graphviz version 2.40.1 (20161225.0304)
 -->
<!-- Title: muq::Modeling::WorkGraphPiece Pages: 1 -->
<svg width="929pt" height="416pt"
 viewBox="0.00 0.00 929.28 416.00" xmlns="http://www.w3.org/2000/svg" xmlns:xlink="http://www.w3.org/1999/xlink">
<g id="graph0" class="graph" transform="scale(1 1) rotate(0) translate(4 412)">
<title>muq::Modeling::WorkGraphPiece</title>
<polygon fill="#ffffff" stroke="transparent" points="-4,4 -4,-412 925.2842,-412 925.2842,4 -4,4"/>
<!-- Node2 -->
<g id="node1" class="node">
<title>Node2</title>
<polygon fill="#bfbfbf" stroke="#000000" points="783.1895,-127.5 783.1895,-155.5 921.2842,-155.5 921.2842,-127.5 783.1895,-127.5"/>
<text text-anchor="start" x="791.1895" y="-143.5" font-family="FreeSans.ttf" font-size="10.00" fill="#000000">muq::Modeling::WorkGraph</text>
<text text-anchor="middle" x="852.2368" y="-133.5" font-family="FreeSans.ttf" font-size="10.00" fill="#000000">Piece</text>
</g>
<!-- Node3 -->
<g id="node2" class="node">
<title>Node3</title>
<g id="a_node2"><a xlink:href="classmuq_1_1Modeling_1_1WorkPiece.html" target="_top" xlink:title="Base class for MUQ&#39;s modelling envronment. ">
<polygon fill="#ffffff" stroke="#000000" points="508.5356,-290.5 508.5356,-308.5 643.8521,-308.5 643.8521,-290.5 508.5356,-290.5"/>
<text text-anchor="middle" x="576.1938" y="-296.5" font-family="FreeSans.ttf" font-size="10.00" fill="#000000">muq::Modeling::WorkPiece</text>
</a>
</g>
</g>
<!-- Node3&#45;&gt;Node2 -->
<g id="edge1" class="edge">
<title>Node3&#45;&gt;Node2</title>
<path fill="none" stroke="#191970" d="M641.7447,-288.2674C679.9838,-279.5464 727.8792,-264.7356 765.1895,-240.5 800.1205,-217.8099 829.3805,-177.3445 843.3777,-155.8464"/>
<polygon fill="#191970" stroke="#191970" points="640.7572,-284.9007 631.7392,-290.4619 642.2569,-291.7382 640.7572,-284.9007"/>
</g>
<!-- Node4 -->
<g id="node3" class="node">
<title>Node4</title>
<polygon fill="#ffffff" stroke="#bfbfbf" points="275.7666,-379.5 275.7666,-407.5 379.3252,-407.5 379.3252,-379.5 275.7666,-379.5"/>
<text text-anchor="start" x="283.7666" y="-395.5" font-family="FreeSans.ttf" font-size="10.00" fill="#000000">std::map&lt; unsigned</text>
<text text-anchor="middle" x="327.5459" y="-385.5" font-family="FreeSans.ttf" font-size="10.00" fill="#000000"> int, int &gt;</text>
</g>
<!-- Node4&#45;&gt;Node3 -->
<g id="edge2" class="edge">
<title>Node4&#45;&gt;Node3</title>
<path fill="none" stroke="#9a32cd" stroke-dasharray="5,2" d="M389.3372,-383.9922C412.1532,-379.4569 437.9462,-373.0983 460.5576,-364.5 499.9505,-349.5203 542.1142,-322.7418 562.9574,-308.6877"/>
<polygon fill="#9a32cd" stroke="#9a32cd" points="388.5886,-380.5719 379.4236,-385.8872 389.903,-387.4474 388.5886,-380.5719"/>
<text text-anchor="middle" x="431.9248" y="-382.5" font-family="FreeSans.ttf" font-size="10.00" fill="#000000"> inputSizes</text>
</g>
<!-- Node5 -->
<g id="node4" class="node">
<title>Node5</title>
<g id="a_node4"><a xlink:title="STL class. ">
<polygon fill="#ffffff" stroke="#bfbfbf" points="131.0957,-315.5 131.0957,-333.5 190.4453,-333.5 190.4453,-315.5 131.0957,-315.5"/>
<text text-anchor="middle" x="160.7705" y="-321.5" font-family="FreeSans.ttf" font-size="10.00" fill="#000000">std::string</text>
</a>
</g>
</g>
<!-- Node5&#45;&gt;Node3 -->
<g id="edge3" class="edge">
<title>Node5&#45;&gt;Node3</title>
<path fill="none" stroke="#9a32cd" stroke-dasharray="5,2" d="M200.6331,-329.8913C203.2735,-330.1327 205.8955,-330.3402 208.4453,-330.5 227.6762,-331.7054 232.5338,-330.8229 251.7998,-330.5 344.6202,-328.9442 368.3816,-334.5285 460.5576,-323.5 487.6342,-320.2604 517.7883,-313.909 540.5137,-308.5536"/>
<polygon fill="#9a32cd" stroke="#9a32cd" points="200.7829,-326.3878 190.4712,-328.821 200.0495,-333.3493 200.7829,-326.3878"/>
<text text-anchor="middle" x="327.5459" y="-332.5" font-family="FreeSans.ttf" font-size="10.00" fill="#000000"> name</text>
</g>
<!-- Node8 -->
<g id="node7" class="node">
<title>Node8</title>
<polygon fill="#ffffff" stroke="#bfbfbf" points="275.7666,-285.5 275.7666,-313.5 379.3252,-313.5 379.3252,-285.5 275.7666,-285.5"/>
<text text-anchor="start" x="283.7666" y="-301.5" font-family="FreeSans.ttf" font-size="10.00" fill="#000000">std::map&lt; unsigned</text>
<text text-anchor="middle" x="327.5459" y="-291.5" font-family="FreeSans.ttf" font-size="10.00" fill="#000000"> int, std::string &gt;</text>
</g>
<!-- Node5&#45;&gt;Node8 -->
<g id="edge7" class="edge">
<title>Node5&#45;&gt;Node8</title>
<path fill="none" stroke="#9a32cd" stroke-dasharray="5,2" d="M200.4834,-318.5469C223.0099,-315.1702 251.4607,-310.9053 275.727,-307.2678"/>
<polygon fill="#9a32cd" stroke="#9a32cd" points="199.9572,-315.0866 190.5866,-320.0305 200.995,-322.0093 199.9572,-315.0866"/>
<text text-anchor="middle" x="230.1226" y="-318.5" font-family="FreeSans.ttf" font-size="10.00" fill="#000000"> elements</text>
</g>
<!-- Node6 -->
<g id="node5" class="node">
<title>Node6</title>
<g id="a_node5"><a xlink:title="STL class. ">
<polygon fill="#ffffff" stroke="#bfbfbf" points="0,-310.5 0,-338.5 94.0957,-338.5 94.0957,-310.5 0,-310.5"/>
<text text-anchor="start" x="8" y="-326.5" font-family="FreeSans.ttf" font-size="10.00" fill="#000000">std::basic_string&lt;</text>
<text text-anchor="middle" x="47.0479" y="-316.5" font-family="FreeSans.ttf" font-size="10.00" fill="#000000"> char &gt;</text>
</a>
</g>
</g>
<!-- Node6&#45;&gt;Node5 -->
<g id="edge4" class="edge">
<title>Node6&#45;&gt;Node5</title>
<path fill="none" stroke="#191970" d="M104.2966,-324.5C113.5577,-324.5 122.8051,-324.5 131.056,-324.5"/>
<polygon fill="#191970" stroke="#191970" points="104.2886,-321.0001 94.2885,-324.5 104.2885,-328.0001 104.2886,-321.0001"/>
</g>
<!-- Node7 -->
<g id="node6" class="node">
<title>Node7</title>
<polygon fill="#ffffff" stroke="#bfbfbf" points="279.9414,-238.5 279.9414,-266.5 375.1504,-266.5 375.1504,-238.5 279.9414,-238.5"/>
<text text-anchor="start" x="287.9414" y="-254.5" font-family="FreeSans.ttf" font-size="10.00" fill="#000000">std::vector&lt; boost</text>
<text text-anchor="middle" x="327.5459" y="-244.5" font-family="FreeSans.ttf" font-size="10.00" fill="#000000">::any &gt;</text>
</g>
<!-- Node7&#45;&gt;Node3 -->
<g id="edge5" class="edge">
<title>Node7&#45;&gt;Node3</title>
<path fill="none" stroke="#9a32cd" stroke-dasharray="5,2" d="M385.0453,-263.3687C428.4772,-271.5783 487.3901,-282.7141 528.2842,-290.444"/>
<polygon fill="#9a32cd" stroke="#9a32cd" points="385.6696,-259.9248 375.1935,-261.5065 384.3694,-266.803 385.6696,-259.9248"/>
<text text-anchor="middle" x="431.9248" y="-278.5" font-family="FreeSans.ttf" font-size="10.00" fill="#000000"> outputs</text>
</g>
<!-- Node8&#45;&gt;Node3 -->
<g id="edge6" class="edge">
<title>Node8&#45;&gt;Node3</title>
<path fill="none" stroke="#9a32cd" stroke-dasharray="5,2" d="M389.7663,-299.5C425.8654,-299.5 471.3643,-299.5 508.3761,-299.5"/>
<polygon fill="#9a32cd" stroke="#9a32cd" points="389.368,-296.0001 379.368,-299.5 389.368,-303.0001 389.368,-296.0001"/>
<text text-anchor="middle" x="431.9248" y="-311.5" font-family="FreeSans.ttf" font-size="10.00" fill="#000000"> outputTypes</text>
<text text-anchor="middle" x="431.9248" y="-301.5" font-family="FreeSans.ttf" font-size="10.00" fill="#000000">inputTypes</text>
</g>
<!-- Node9 -->
<g id="node8" class="node">
<title>Node9</title>
<polygon fill="#ffffff" stroke="#bfbfbf" points="495.9331,-151.5 495.9331,-189.5 656.4546,-189.5 656.4546,-151.5 495.9331,-151.5"/>
<text text-anchor="start" x="503.9331" y="-177.5" font-family="FreeSans.ttf" font-size="10.00" fill="#000000">std::vector&lt; std::deque</text>
<text text-anchor="start" x="503.9331" y="-167.5" font-family="FreeSans.ttf" font-size="10.00" fill="#000000">&lt; boost::graph_traits</text>
<text text-anchor="middle" x="576.1938" y="-157.5" font-family="FreeSans.ttf" font-size="10.00" fill="#000000">&lt; Graph &gt;::vertex_descriptor &gt; &gt;</text>
</g>
<!-- Node9&#45;&gt;Node2 -->
<g id="edge8" class="edge">
<title>Node9&#45;&gt;Node2</title>
<path fill="none" stroke="#9a32cd" stroke-dasharray="5,2" d="M666.7569,-160.9858C704.4934,-157.0214 747.6191,-152.4907 782.7842,-148.7964"/>
<polygon fill="#9a32cd" stroke="#9a32cd" points="666.3585,-157.5083 656.779,-162.034 667.09,-164.47 666.3585,-157.5083"/>
<text text-anchor="middle" x="728.5098" y="-159.5" font-family="FreeSans.ttf" font-size="10.00" fill="#000000"> derivRunOrders</text>
</g>
<!-- Node10 -->
<g id="node9" class="node">
<title>Node10</title>
<polygon fill="#ffffff" stroke="#bfbfbf" points="269.7998,-170.5 269.7998,-208.5 385.292,-208.5 385.292,-170.5 269.7998,-170.5"/>
<text text-anchor="start" x="277.7998" y="-196.5" font-family="FreeSans.ttf" font-size="10.00" fill="#000000">std::deque&lt; boost::</text>
<text text-anchor="start" x="277.7998" y="-186.5" font-family="FreeSans.ttf" font-size="10.00" fill="#000000">graph_traits&lt; Graph</text>
<text text-anchor="middle" x="327.5459" y="-176.5" font-family="FreeSans.ttf" font-size="10.00" fill="#000000"> &gt;::vertex_descriptor &gt;</text>
</g>
<!-- Node10&#45;&gt;Node2 -->
<g id="edge10" class="edge">
<title>Node10&#45;&gt;Node2</title>
<path fill="none" stroke="#9a32cd" stroke-dasharray="5,2" d="M395.5494,-198.5247C465.6836,-206.1844 578.0206,-213.8525 673.8301,-199.5 726.6539,-191.5869 785.0154,-170.0092 820.1405,-155.5223"/>
<polygon fill="#9a32cd" stroke="#9a32cd" points="395.8432,-195.0358 385.5149,-197.3972 395.0615,-201.992 395.8432,-195.0358"/>
<text text-anchor="middle" x="576.1938" y="-209.5" font-family="FreeSans.ttf" font-size="10.00" fill="#000000"> runOrder</text>
</g>
<!-- Node10&#45;&gt;Node9 -->
<g id="edge9" class="edge">
<title>Node10&#45;&gt;Node9</title>
<path fill="none" stroke="#9a32cd" stroke-dasharray="5,2" d="M395.7513,-184.2882C426.5975,-181.9311 463.2765,-179.1284 495.4838,-176.6673"/>
<polygon fill="#9a32cd" stroke="#9a32cd" points="395.2332,-180.8175 385.529,-185.0693 395.7666,-187.7971 395.2332,-180.8175"/>
<text text-anchor="middle" x="431.9248" y="-184.5" font-family="FreeSans.ttf" font-size="10.00" fill="#000000"> elements</text>
</g>
<!-- Node11 -->
<g id="node10" class="node">
<title>Node11</title>
<polygon fill="#ffffff" stroke="#bfbfbf" points="515.7988,-94.5 515.7988,-132.5 636.5889,-132.5 636.5889,-94.5 515.7988,-94.5"/>
<text text-anchor="start" x="523.7988" y="-120.5" font-family="FreeSans.ttf" font-size="10.00" fill="#000000">std::unordered_map</text>
<text text-anchor="start" x="523.7988" y="-110.5" font-family="FreeSans.ttf" font-size="10.00" fill="#000000">&lt; unsigned int, ref</text>
<text text-anchor="middle" x="576.1938" y="-100.5" font-family="FreeSans.ttf" font-size="10.00" fill="#000000">_vector&lt; boost::any &gt; &gt;</text>
</g>
<!-- Node11&#45;&gt;Node2 -->
<g id="edge11" class="edge">
<title>Node11&#45;&gt;Node2</title>
<path fill="none" stroke="#9a32cd" stroke-dasharray="5,2" d="M647.0494,-116.6585C682.592,-118.6782 726.2558,-121.8188 765.1895,-126.5 770.9751,-127.1956 776.9612,-128.0153 782.9606,-128.9067"/>
<polygon fill="#9a32cd" stroke="#9a32cd" points="646.951,-113.1479 636.7737,-116.0928 646.5661,-120.1373 646.951,-113.1479"/>
<text text-anchor="middle" x="728.5098" y="-128.5" font-family="FreeSans.ttf" font-size="10.00" fill="#000000"> valMap</text>
</g>
<!-- Node12 -->
<g id="node11" class="node">
<title>Node12</title>
<polygon fill="#ffffff" stroke="#bfbfbf" points="478.5576,-47.5 478.5576,-75.5 673.8301,-75.5 673.8301,-47.5 478.5576,-47.5"/>
<text text-anchor="start" x="486.5576" y="-63.5" font-family="FreeSans.ttf" font-size="10.00" fill="#000000">std::vector&lt; std::shared</text>
<text text-anchor="middle" x="576.1938" y="-53.5" font-family="FreeSans.ttf" font-size="10.00" fill="#000000">_ptr&lt; muq::Modeling::ConstantPiece &gt; &gt;</text>
</g>
<!-- Node12&#45;&gt;Node2 -->
<g id="edge12" class="edge">
<title>Node12&#45;&gt;Node2</title>
<path fill="none" stroke="#9a32cd" stroke-dasharray="5,2" d="M659.3378,-77.7804C692.589,-85.0865 731.0305,-94.5413 765.1895,-105.5 784.3431,-111.6448 805.1862,-120.1954 821.6737,-127.4215"/>
<polygon fill="#9a32cd" stroke="#9a32cd" points="659.71,-74.2799 649.1956,-75.5828 658.2275,-81.1212 659.71,-74.2799"/>
<text text-anchor="middle" x="728.5098" y="-107.5" font-family="FreeSans.ttf" font-size="10.00" fill="#000000"> constantPieces</text>
</g>
<!-- Node13 -->
<g id="node12" class="node">
<title>Node13</title>
<polygon fill="#ffffff" stroke="#bfbfbf" points="516.082,-.5 516.082,-28.5 636.3057,-28.5 636.3057,-.5 516.082,-.5"/>
<text text-anchor="start" x="524.082" y="-16.5" font-family="FreeSans.ttf" font-size="10.00" fill="#000000">std::vector&lt; std::shared</text>
<text text-anchor="middle" x="576.1938" y="-6.5" font-family="FreeSans.ttf" font-size="10.00" fill="#000000">_ptr&lt; FilteredGraph &gt; &gt;</text>
</g>
<!-- Node13&#45;&gt;Node2 -->
<g id="edge13" class="edge">
<title>Node13&#45;&gt;Node2</title>
<path fill="none" stroke="#9a32cd" stroke-dasharray="5,2" d="M646.6022,-27.8171C683.5217,-36.7139 728.5575,-50.6826 765.1895,-71.5 793.0089,-87.3094 821.1286,-111.819 837.6048,-127.246"/>
<polygon fill="#9a32cd" stroke="#9a32cd" points="646.9517,-24.3047 636.4179,-25.4407 645.361,-31.1216 646.9517,-24.3047"/>
<text text-anchor="middle" x="728.5098" y="-73.5" font-family="FreeSans.ttf" font-size="10.00" fill="#000000"> filtered_graphs</text>
</g>
</g>
</svg>
