<?xml version="1.0" encoding="UTF-8" standalone="no"?>
<!DOCTYPE svg PUBLIC "-//W3C//DTD SVG 1.1//EN"
 "http://www.w3.org/Graphics/SVG/1.1/DTD/svg11.dtd">
<!-- Generated by graphviz version 2.40.1 (20161225.0304)
 -->
<!-- Title: muq::Approximation::OrthogonalPolynomial Pages: 1 -->
<svg width="586pt" height="225pt"
 viewBox="0.00 0.00 586.13 225.00" xmlns="http://www.w3.org/2000/svg" xmlns:xlink="http://www.w3.org/1999/xlink">
<g id="graph0" class="graph" transform="scale(1 1) rotate(0) translate(4 221)">
<title>muq::Approximation::OrthogonalPolynomial</title>
<polygon fill="#ffffff" stroke="transparent" points="-4,4 -4,-221 582.1328,-221 582.1328,4 -4,4"/>
<!-- Node0 -->
<g id="node1" class="node">
<title>Node0</title>
<polygon fill="#bfbfbf" stroke="#000000" points="317.2568,-94.5 317.2568,-122.5 437.2021,-122.5 437.2021,-94.5 317.2568,-94.5"/>
<text text-anchor="start" x="325.2568" y="-110.5" font-family="FreeSans.ttf" font-size="10.00" fill="#000000">muq::Approximation</text>
<text text-anchor="middle" x="377.2295" y="-100.5" font-family="FreeSans.ttf" font-size="10.00" fill="#000000">::OrthogonalPolynomial</text>
</g>
<!-- Node3 -->
<g id="node4" class="node">
<title>Node3</title>
<g id="a_node4"><a xlink:href="classmuq_1_1Approximation_1_1Jacobi.html" target="_top" xlink:title="Family of Jacobi orthogonal polynomials. ">
<polygon fill="#ffffff" stroke="#000000" points="473.2021,-188.5 473.2021,-216.5 578.1328,-216.5 578.1328,-188.5 473.2021,-188.5"/>
<text text-anchor="start" x="481.2021" y="-204.5" font-family="FreeSans.ttf" font-size="10.00" fill="#000000">muq::Approximation</text>
<text text-anchor="middle" x="525.6675" y="-194.5" font-family="FreeSans.ttf" font-size="10.00" fill="#000000">::Jacobi</text>
</a>
</g>
</g>
<!-- Node0&#45;&gt;Node3 -->
<g id="edge3" class="edge">
<title>Node0&#45;&gt;Node3</title>
<path fill="none" stroke="#191970" d="M401.5417,-128.8733C420.3405,-144.0223 447.4254,-164.568 473.2021,-179.5 478.7098,-182.6905 484.7427,-185.7232 490.6941,-188.4777"/>
<polygon fill="#191970" stroke="#191970" points="403.7337,-126.1446 393.7715,-122.5382 399.3103,-131.5699 403.7337,-126.1446"/>
</g>
<!-- Node4 -->
<g id="node5" class="node">
<title>Node4</title>
<g id="a_node5"><a xlink:href="classmuq_1_1Approximation_1_1Laguerre.html" target="_top" xlink:title="Family of Laguerre orthogonal polynomials. ">
<polygon fill="#ffffff" stroke="#000000" points="473.2021,-141.5 473.2021,-169.5 578.1328,-169.5 578.1328,-141.5 473.2021,-141.5"/>
<text text-anchor="start" x="481.2021" y="-157.5" font-family="FreeSans.ttf" font-size="10.00" fill="#000000">muq::Approximation</text>
<text text-anchor="middle" x="525.6675" y="-147.5" font-family="FreeSans.ttf" font-size="10.00" fill="#000000">::Laguerre</text>
</a>
</g>
</g>
<!-- Node0&#45;&gt;Node4 -->
<g id="edge4" class="edge">
<title>Node0&#45;&gt;Node4</title>
<path fill="none" stroke="#191970" d="M431.7375,-125.7589C448.0884,-130.9361 465.8155,-136.549 481.4186,-141.4894"/>
<polygon fill="#191970" stroke="#191970" points="432.3558,-122.2835 421.7658,-122.6015 430.2428,-128.957 432.3558,-122.2835"/>
</g>
<!-- Node5 -->
<g id="node6" class="node">
<title>Node5</title>
<g id="a_node6"><a xlink:href="classmuq_1_1Approximation_1_1Legendre.html" target="_top" xlink:title="Family of Legendre orthogonal polynomials. ">
<polygon fill="#ffffff" stroke="#000000" points="473.2021,-94.5 473.2021,-122.5 578.1328,-122.5 578.1328,-94.5 473.2021,-94.5"/>
<text text-anchor="start" x="481.2021" y="-110.5" font-family="FreeSans.ttf" font-size="10.00" fill="#000000">muq::Approximation</text>
<text text-anchor="middle" x="525.6675" y="-100.5" font-family="FreeSans.ttf" font-size="10.00" fill="#000000">::Legendre</text>
</a>
</g>
</g>
<!-- Node0&#45;&gt;Node5 -->
<g id="edge5" class="edge">
<title>Node0&#45;&gt;Node5</title>
<path fill="none" stroke="#191970" d="M447.8573,-108.5C456.3121,-108.5 464.8291,-108.5 472.9681,-108.5"/>
<polygon fill="#191970" stroke="#191970" points="447.6049,-105.0001 437.6049,-108.5 447.6049,-112.0001 447.6049,-105.0001"/>
</g>
<!-- Node6 -->
<g id="node7" class="node">
<title>Node6</title>
<g id="a_node7"><a xlink:href="classmuq_1_1Approximation_1_1PhysicistHermite.html" target="_top" xlink:title="muq::Approximation\l::PhysicistHermite">
<polygon fill="#ffffff" stroke="#000000" points="473.2021,-47.5 473.2021,-75.5 578.1328,-75.5 578.1328,-47.5 473.2021,-47.5"/>
<text text-anchor="start" x="481.2021" y="-63.5" font-family="FreeSans.ttf" font-size="10.00" fill="#000000">muq::Approximation</text>
<text text-anchor="middle" x="525.6675" y="-53.5" font-family="FreeSans.ttf" font-size="10.00" fill="#000000">::PhysicistHermite</text>
</a>
</g>
</g>
<!-- Node0&#45;&gt;Node6 -->
<g id="edge6" class="edge">
<title>Node0&#45;&gt;Node6</title>
<path fill="none" stroke="#191970" d="M431.7375,-91.2411C448.0884,-86.0639 465.8155,-80.451 481.4186,-75.5106"/>
<polygon fill="#191970" stroke="#191970" points="430.2428,-88.043 421.7658,-94.3985 432.3558,-94.7165 430.2428,-88.043"/>
</g>
<!-- Node7 -->
<g id="node8" class="node">
<title>Node7</title>
<g id="a_node8"><a xlink:href="classmuq_1_1Approximation_1_1ProbabilistHermite.html" target="_top" xlink:title="muq::Approximation\l::ProbabilistHermite">
<polygon fill="#ffffff" stroke="#000000" points="473.2021,-.5 473.2021,-28.5 578.1328,-28.5 578.1328,-.5 473.2021,-.5"/>
<text text-anchor="start" x="481.2021" y="-16.5" font-family="FreeSans.ttf" font-size="10.00" fill="#000000">muq::Approximation</text>
<text text-anchor="middle" x="525.6675" y="-6.5" font-family="FreeSans.ttf" font-size="10.00" fill="#000000">::ProbabilistHermite</text>
</a>
</g>
</g>
<!-- Node0&#45;&gt;Node7 -->
<g id="edge7" class="edge">
<title>Node0&#45;&gt;Node7</title>
<path fill="none" stroke="#191970" d="M401.5417,-88.1267C420.3405,-72.9777 447.4254,-52.432 473.2021,-37.5 478.7098,-34.3095 484.7427,-31.2768 490.6941,-28.5223"/>
<polygon fill="#191970" stroke="#191970" points="399.3103,-85.4301 393.7715,-94.4618 403.7337,-90.8554 399.3103,-85.4301"/>
</g>
<!-- Node1 -->
<g id="node2" class="node">
<title>Node1</title>
<g id="a_node2"><a xlink:href="classmuq_1_1Approximation_1_1IndexedScalarBasis.html" target="_top" xlink:title="muq::Approximation\l::IndexedScalarBasis">
<polygon fill="#ffffff" stroke="#000000" points="171.3164,-94.5 171.3164,-122.5 281.2568,-122.5 281.2568,-94.5 171.3164,-94.5"/>
<text text-anchor="start" x="179.3164" y="-110.5" font-family="FreeSans.ttf" font-size="10.00" fill="#000000">muq::Approximation</text>
<text text-anchor="middle" x="226.2866" y="-100.5" font-family="FreeSans.ttf" font-size="10.00" fill="#000000">::IndexedScalarBasis</text>
</a>
</g>
</g>
<!-- Node1&#45;&gt;Node0 -->
<g id="edge1" class="edge">
<title>Node1&#45;&gt;Node0</title>
<path fill="none" stroke="#191970" d="M291.7718,-108.5C300.174,-108.5 308.7443,-108.5 317.0561,-108.5"/>
<polygon fill="#191970" stroke="#191970" points="291.6351,-105.0001 281.6351,-108.5 291.635,-112.0001 291.6351,-105.0001"/>
</g>
<!-- Node2 -->
<g id="node3" class="node">
<title>Node2</title>
<g id="a_node3"><a xlink:href="classmuq_1_1Modeling_1_1WorkPiece.html" target="_top" xlink:title="Base class for MUQ&#39;s modelling envronment. ">
<polygon fill="#ffffff" stroke="#000000" points="0,-99.5 0,-117.5 135.3164,-117.5 135.3164,-99.5 0,-99.5"/>
<text text-anchor="middle" x="67.6582" y="-105.5" font-family="FreeSans.ttf" font-size="10.00" fill="#000000">muq::Modeling::WorkPiece</text>
</a>
</g>
</g>
<!-- Node2&#45;&gt;Node1 -->
<g id="edge2" class="edge">
<title>Node2&#45;&gt;Node1</title>
<path fill="none" stroke="#191970" d="M145.5406,-108.5C154.2166,-108.5 162.9155,-108.5 171.2217,-108.5"/>
<polygon fill="#191970" stroke="#191970" points="145.3911,-105.0001 135.3911,-108.5 145.391,-112.0001 145.3911,-105.0001"/>
</g>
</g>
</svg>
