<?xml version="1.0" encoding="UTF-8" standalone="no"?>
<!DOCTYPE svg PUBLIC "-//W3C//DTD SVG 1.1//EN"
 "http://www.w3.org/Graphics/SVG/1.1/DTD/svg11.dtd">
<!-- Generated by graphviz version 2.40.1 (20161225.0304)
 -->
<!-- Title: muq::Approximation::StateSpaceGP Pages: 1 -->
<svg width="151pt" height="188pt"
 viewBox="0.00 0.00 150.73 188.00" xmlns="http://www.w3.org/2000/svg" xmlns:xlink="http://www.w3.org/1999/xlink">
<g id="graph0" class="graph" transform="scale(1 1) rotate(0) translate(4 184)">
<title>muq::Approximation::StateSpaceGP</title>
<polygon fill="#ffffff" stroke="transparent" points="-4,4 -4,-184 146.7334,-184 146.7334,4 -4,4"/>
<!-- Node2 -->
<g id="node1" class="node">
<title>Node2</title>
<polygon fill="#bfbfbf" stroke="#000000" points="18.9014,-.5 18.9014,-28.5 123.832,-28.5 123.832,-.5 18.9014,-.5"/>
<text text-anchor="start" x="26.9014" y="-16.5" font-family="FreeSans.ttf" font-size="10.00" fill="#000000">muq::Approximation</text>
<text text-anchor="middle" x="71.3667" y="-6.5" font-family="FreeSans.ttf" font-size="10.00" fill="#000000">::StateSpaceGP</text>
</g>
<!-- Node3 -->
<g id="node2" class="node">
<title>Node3</title>
<g id="a_node2"><a xlink:href="classmuq_1_1Approximation_1_1GaussianProcess.html" target="_top" xlink:title="muq::Approximation\l::GaussianProcess">
<polygon fill="#ffffff" stroke="#000000" points="18.9014,-66.5 18.9014,-94.5 123.832,-94.5 123.832,-66.5 18.9014,-66.5"/>
<text text-anchor="start" x="26.9014" y="-82.5" font-family="FreeSans.ttf" font-size="10.00" fill="#000000">muq::Approximation</text>
<text text-anchor="middle" x="71.3667" y="-72.5" font-family="FreeSans.ttf" font-size="10.00" fill="#000000">::GaussianProcess</text>
</a>
</g>
</g>
<!-- Node3&#45;&gt;Node2 -->
<g id="edge1" class="edge">
<title>Node3&#45;&gt;Node2</title>
<path fill="none" stroke="#191970" d="M71.3667,-56.0322C71.3667,-46.8606 71.3667,-36.7449 71.3667,-28.7931"/>
<polygon fill="#191970" stroke="#191970" points="67.8668,-56.1789 71.3667,-66.179 74.8668,-56.179 67.8668,-56.1789"/>
</g>
<!-- Node4 -->
<g id="node3" class="node">
<title>Node4</title>
<polygon fill="#ffffff" stroke="#bfbfbf" points="0,-141.5 0,-179.5 142.7334,-179.5 142.7334,-141.5 0,-141.5"/>
<text text-anchor="start" x="8" y="-167.5" font-family="FreeSans.ttf" font-size="10.00" fill="#000000">std::vector&lt; std::shared</text>
<text text-anchor="start" x="8" y="-157.5" font-family="FreeSans.ttf" font-size="10.00" fill="#000000">_ptr&lt; muq::Approximation</text>
<text text-anchor="middle" x="71.3667" y="-147.5" font-family="FreeSans.ttf" font-size="10.00" fill="#000000">::ObservationInformation &gt; &gt;</text>
</g>
<!-- Node4&#45;&gt;Node3 -->
<g id="edge2" class="edge">
<title>Node4&#45;&gt;Node3</title>
<path fill="none" stroke="#9a32cd" stroke-dasharray="5,2" d="M71.3667,-130.7707C71.3667,-118.4196 71.3667,-104.6672 71.3667,-94.6728"/>
<polygon fill="#9a32cd" stroke="#9a32cd" points="67.8668,-131.1342 71.3667,-141.1342 74.8668,-131.1343 67.8668,-131.1342"/>
<text text-anchor="middle" x="101.1055" y="-115" font-family="FreeSans.ttf" font-size="10.00" fill="#000000"> observations</text>
</g>
</g>
</svg>
