<?xml version="1.0" encoding="UTF-8" standalone="no"?>
<!DOCTYPE svg PUBLIC "-//W3C//DTD SVG 1.1//EN"
 "http://www.w3.org/Graphics/SVG/1.1/DTD/svg11.dtd">
<!-- Generated by graphviz version 2.40.1 (20161225.0304)
 -->
<!-- Title: muq::Utilities::AndLimiter Pages: 1 -->
<svg width="135pt" height="92pt"
 viewBox="0.00 0.00 134.59 92.00" xmlns="http://www.w3.org/2000/svg" xmlns:xlink="http://www.w3.org/1999/xlink">
<g id="graph0" class="graph" transform="scale(1 1) rotate(0) translate(4 88)">
<title>muq::Utilities::AndLimiter</title>
<polygon fill="#ffffff" stroke="transparent" points="-4,4 -4,-88 130.5908,-88 130.5908,4 -4,4"/>
<!-- Node2 -->
<g id="node1" class="node">
<title>Node2</title>
<polygon fill="#bfbfbf" stroke="#000000" points="0,-.5 0,-18.5 126.5908,-18.5 126.5908,-.5 0,-.5"/>
<text text-anchor="middle" x="63.2954" y="-6.5" font-family="FreeSans.ttf" font-size="10.00" fill="#000000">muq::Utilities::AndLimiter</text>
</g>
<!-- Node3 -->
<g id="node2" class="node">
<title>Node3</title>
<g id="a_node2"><a xlink:href="classmuq_1_1Utilities_1_1MultiIndexLimiter.html" target="_top" xlink:title="An abstract base class for multi index limiters. ">
<polygon fill="#ffffff" stroke="#000000" points="1.1108,-55.5 1.1108,-83.5 125.48,-83.5 125.48,-55.5 1.1108,-55.5"/>
<text text-anchor="start" x="9.1108" y="-71.5" font-family="FreeSans.ttf" font-size="10.00" fill="#000000">muq::Utilities::MultiIndex</text>
<text text-anchor="middle" x="63.2954" y="-61.5" font-family="FreeSans.ttf" font-size="10.00" fill="#000000">Limiter</text>
</a>
</g>
</g>
<!-- Node3&#45;&gt;Node2 -->
<g id="edge1" class="edge">
<title>Node3&#45;&gt;Node2</title>
<path fill="none" stroke="#191970" d="M63.2954,-45.2151C63.2954,-35.8253 63.2954,-25.6598 63.2954,-18.5842"/>
<polygon fill="#191970" stroke="#191970" points="59.7955,-45.2808 63.2954,-55.2808 66.7955,-45.2809 59.7955,-45.2808"/>
</g>
</g>
</svg>
