<?xml version="1.0" encoding="UTF-8" standalone="no"?>
<!DOCTYPE svg PUBLIC "-//W3C//DTD SVG 1.1//EN"
 "http://www.w3.org/Graphics/SVG/1.1/DTD/svg11.dtd">
<!-- Generated by graphviz version 2.40.1 (20161225.0304)
 -->
<!-- Title: muq::Approximation::GaussQuadrature Pages: 1 -->
<svg width="113pt" height="102pt"
 viewBox="0.00 0.00 112.93 102.00" xmlns="http://www.w3.org/2000/svg" xmlns:xlink="http://www.w3.org/1999/xlink">
<g id="graph0" class="graph" transform="scale(1 1) rotate(0) translate(4 98)">
<title>muq::Approximation::GaussQuadrature</title>
<polygon fill="#ffffff" stroke="transparent" points="-4,4 -4,-98 108.9307,-98 108.9307,4 -4,4"/>
<!-- Node2 -->
<g id="node1" class="node">
<title>Node2</title>
<polygon fill="#bfbfbf" stroke="#000000" points="0,-.5 0,-28.5 104.9307,-28.5 104.9307,-.5 0,-.5"/>
<text text-anchor="start" x="8" y="-16.5" font-family="FreeSans.ttf" font-size="10.00" fill="#000000">muq::Approximation</text>
<text text-anchor="middle" x="52.4653" y="-6.5" font-family="FreeSans.ttf" font-size="10.00" fill="#000000">::GaussQuadrature</text>
</g>
<!-- Node3 -->
<g id="node2" class="node">
<title>Node3</title>
<g id="a_node2"><a xlink:href="classmuq_1_1Approximation_1_1Quadrature.html" target="_top" xlink:title="Base class for multivariate quadrature rules. &#160;An abstract class for computing nodes and weights of g...">
<polygon fill="#ffffff" stroke="#000000" points="0,-65.5 0,-93.5 104.9307,-93.5 104.9307,-65.5 0,-65.5"/>
<text text-anchor="start" x="8" y="-81.5" font-family="FreeSans.ttf" font-size="10.00" fill="#000000">muq::Approximation</text>
<text text-anchor="middle" x="52.4653" y="-71.5" font-family="FreeSans.ttf" font-size="10.00" fill="#000000">::Quadrature</text>
</a>
</g>
</g>
<!-- Node3&#45;&gt;Node2 -->
<g id="edge1" class="edge">
<title>Node3&#45;&gt;Node2</title>
<path fill="none" stroke="#191970" d="M52.4653,-55.1081C52.4653,-46.1539 52.4653,-36.3227 52.4653,-28.5765"/>
<polygon fill="#191970" stroke="#191970" points="48.9654,-55.3959 52.4653,-65.396 55.9654,-55.396 48.9654,-55.3959"/>
</g>
</g>
</svg>
