<?xml version="1.0" encoding="UTF-8" standalone="no"?>
<!DOCTYPE svg PUBLIC "-//W3C//DTD SVG 1.1//EN"
 "http://www.w3.org/Graphics/SVG/1.1/DTD/svg11.dtd">
<!-- Generated by graphviz version 2.40.1 (20161225.0304)
 -->
<!-- Title: muq::Modeling::ConstantPiece Pages: 1 -->
<svg width="160pt" height="82pt"
 viewBox="0.00 0.00 160.19 82.00" xmlns="http://www.w3.org/2000/svg" xmlns:xlink="http://www.w3.org/1999/xlink">
<g id="graph0" class="graph" transform="scale(1 1) rotate(0) translate(4 78)">
<title>muq::Modeling::ConstantPiece</title>
<polygon fill="#ffffff" stroke="transparent" points="-4,4 -4,-78 156.1865,-78 156.1865,4 -4,4"/>
<!-- Node0 -->
<g id="node1" class="node">
<title>Node0</title>
<polygon fill="#bfbfbf" stroke="#000000" points="0,-.5 0,-18.5 152.1865,-18.5 152.1865,-.5 0,-.5"/>
<text text-anchor="middle" x="76.0933" y="-6.5" font-family="FreeSans.ttf" font-size="10.00" fill="#000000">muq::Modeling::ConstantPiece</text>
</g>
<!-- Node1 -->
<g id="node2" class="node">
<title>Node1</title>
<g id="a_node2"><a xlink:href="classmuq_1_1Modeling_1_1WorkPiece.html" target="_top" xlink:title="Base class for MUQ&#39;s modelling envronment. ">
<polygon fill="#ffffff" stroke="#000000" points="8.4351,-55.5 8.4351,-73.5 143.7515,-73.5 143.7515,-55.5 8.4351,-55.5"/>
<text text-anchor="middle" x="76.0933" y="-61.5" font-family="FreeSans.ttf" font-size="10.00" fill="#000000">muq::Modeling::WorkPiece</text>
</a>
</g>
</g>
<!-- Node1&#45;&gt;Node0 -->
<g id="edge1" class="edge">
<title>Node1&#45;&gt;Node0</title>
<path fill="none" stroke="#191970" d="M76.0933,-45.383C76.0933,-36.3738 76.0933,-26.0373 76.0933,-18.7795"/>
<polygon fill="#191970" stroke="#191970" points="72.5934,-45.4178 76.0933,-55.4179 79.5934,-45.4179 72.5934,-45.4178"/>
</g>
</g>
</svg>
