<?xml version="1.0" encoding="UTF-8" standalone="no"?>
<!DOCTYPE svg PUBLIC "-//W3C//DTD SVG 1.1//EN"
 "http://www.w3.org/Graphics/SVG/1.1/DTD/svg11.dtd">
<!-- Generated by graphviz version 2.40.1 (20161225.0304)
 -->
<!-- Title: muq::Utilities::OrLimiter Pages: 1 -->
<svg width="132pt" height="92pt"
 viewBox="0.00 0.00 132.37 92.00" xmlns="http://www.w3.org/2000/svg" xmlns:xlink="http://www.w3.org/1999/xlink">
<g id="graph0" class="graph" transform="scale(1 1) rotate(0) translate(4 88)">
<title>muq::Utilities::OrLimiter</title>
<polygon fill="#ffffff" stroke="transparent" points="-4,4 -4,-88 128.3691,-88 128.3691,4 -4,4"/>
<!-- Node0 -->
<g id="node1" class="node">
<title>Node0</title>
<polygon fill="#bfbfbf" stroke="#000000" points="2.2314,-.5 2.2314,-18.5 122.1377,-18.5 122.1377,-.5 2.2314,-.5"/>
<text text-anchor="middle" x="62.1846" y="-6.5" font-family="FreeSans.ttf" font-size="10.00" fill="#000000">muq::Utilities::OrLimiter</text>
</g>
<!-- Node1 -->
<g id="node2" class="node">
<title>Node1</title>
<g id="a_node2"><a xlink:href="classmuq_1_1Utilities_1_1MultiIndexLimiter.html" target="_top" xlink:title="An abstract base class for multi index limiters. ">
<polygon fill="#ffffff" stroke="#000000" points="0,-55.5 0,-83.5 124.3691,-83.5 124.3691,-55.5 0,-55.5"/>
<text text-anchor="start" x="8" y="-71.5" font-family="FreeSans.ttf" font-size="10.00" fill="#000000">muq::Utilities::MultiIndex</text>
<text text-anchor="middle" x="62.1846" y="-61.5" font-family="FreeSans.ttf" font-size="10.00" fill="#000000">Limiter</text>
</a>
</g>
</g>
<!-- Node1&#45;&gt;Node0 -->
<g id="edge1" class="edge">
<title>Node1&#45;&gt;Node0</title>
<path fill="none" stroke="#191970" d="M62.1846,-45.2151C62.1846,-35.8253 62.1846,-25.6598 62.1846,-18.5842"/>
<polygon fill="#191970" stroke="#191970" points="58.6847,-45.2808 62.1846,-55.2808 65.6847,-45.2809 58.6847,-45.2808"/>
</g>
</g>
</svg>
