<?xml version="1.0" encoding="UTF-8" standalone="no"?>
<!DOCTYPE svg PUBLIC "-//W3C//DTD SVG 1.1//EN"
 "http://www.w3.org/Graphics/SVG/1.1/DTD/svg11.dtd">
<!-- Generated by graphviz version 2.40.1 (20161225.0304)
 -->
<!-- Title: muq::Approximation::AdaptiveSmolyakPCE Pages: 1 -->
<svg width="306pt" height="57pt"
 viewBox="0.00 0.00 306.39 57.00" xmlns="http://www.w3.org/2000/svg" xmlns:xlink="http://www.w3.org/1999/xlink">
<g id="graph0" class="graph" transform="scale(1 1) rotate(0) translate(4 53)">
<title>muq::Approximation::AdaptiveSmolyakPCE</title>
<polygon fill="#ffffff" stroke="transparent" points="-4,4 -4,-53 302.3906,-53 302.3906,4 -4,4"/>
<!-- Node0 -->
<g id="node1" class="node">
<title>Node0</title>
<polygon fill="#bfbfbf" stroke="#000000" points="179.0117,-10.5 179.0117,-38.5 298.3906,-38.5 298.3906,-10.5 179.0117,-10.5"/>
<text text-anchor="start" x="187.0117" y="-26.5" font-family="FreeSans.ttf" font-size="10.00" fill="#000000">muq::Approximation</text>
<text text-anchor="middle" x="238.7012" y="-16.5" font-family="FreeSans.ttf" font-size="10.00" fill="#000000">::AdaptiveSmolyakPCE</text>
</g>
<!-- Node1 -->
<g id="node2" class="node">
<title>Node1</title>
<g id="a_node2"><a xlink:href="classmuq_1_1Approximation_1_1SmolyakEstimator.html" target="_top" xlink:title="muq::Approximation\l::SmolyakEstimator\&lt;\l std::shared_ptr\&lt; Polynomial\lChaosExpansion \&gt; \&gt;">
<polygon fill="#ffffff" stroke="#000000" points="0,-.5 0,-48.5 143.0117,-48.5 143.0117,-.5 0,-.5"/>
<text text-anchor="start" x="8" y="-36.5" font-family="FreeSans.ttf" font-size="10.00" fill="#000000">muq::Approximation</text>
<text text-anchor="start" x="8" y="-26.5" font-family="FreeSans.ttf" font-size="10.00" fill="#000000">::SmolyakEstimator&lt;</text>
<text text-anchor="start" x="8" y="-16.5" font-family="FreeSans.ttf" font-size="10.00" fill="#000000"> std::shared_ptr&lt; Polynomial</text>
<text text-anchor="middle" x="71.5059" y="-6.5" font-family="FreeSans.ttf" font-size="10.00" fill="#000000">ChaosExpansion &gt; &gt;</text>
</a>
</g>
</g>
<!-- Node1&#45;&gt;Node0 -->
<g id="edge1" class="edge">
<title>Node1&#45;&gt;Node0</title>
<path fill="none" stroke="#191970" d="M153.4433,-24.5C162.0417,-24.5 170.6635,-24.5 178.9448,-24.5"/>
<polygon fill="#191970" stroke="#191970" points="153.3821,-21.0001 143.382,-24.5 153.382,-28.0001 153.3821,-21.0001"/>
</g>
</g>
</svg>
