<?xml version="1.0" encoding="UTF-8" standalone="no"?>
<!DOCTYPE svg PUBLIC "-//W3C//DTD SVG 1.1//EN"
 "http://www.w3.org/Graphics/SVG/1.1/DTD/svg11.dtd">
<!-- Generated by graphviz version 2.40.1 (20161225.0304)
 -->
<!-- Title: muq::Approximation::SeparableKarhunenLoeve Pages: 1 -->
<svg width="146pt" height="122pt"
 viewBox="0.00 0.00 145.76 122.00" xmlns="http://www.w3.org/2000/svg" xmlns:xlink="http://www.w3.org/1999/xlink">
<g id="graph0" class="graph" transform="scale(1 1) rotate(0) translate(4 118)">
<title>muq::Approximation::SeparableKarhunenLoeve</title>
<polygon fill="#ffffff" stroke="transparent" points="-4,4 -4,-118 141.7627,-118 141.7627,4 -4,4"/>
<!-- Node1 -->
<g id="node1" class="node">
<title>Node1</title>
<polygon fill="#bfbfbf" stroke="#000000" points="0,-.5 0,-28.5 137.7627,-28.5 137.7627,-.5 0,-.5"/>
<text text-anchor="start" x="8" y="-16.5" font-family="FreeSans.ttf" font-size="10.00" fill="#000000">muq::Approximation</text>
<text text-anchor="middle" x="68.8813" y="-6.5" font-family="FreeSans.ttf" font-size="10.00" fill="#000000">::SeparableKarhunenLoeve</text>
</g>
<!-- Node2 -->
<g id="node2" class="node">
<title>Node2</title>
<polygon fill="#ffffff" stroke="#bfbfbf" points="2.7808,-75.5 2.7808,-113.5 134.9819,-113.5 134.9819,-75.5 2.7808,-75.5"/>
<text text-anchor="start" x="10.7808" y="-101.5" font-family="FreeSans.ttf" font-size="10.00" fill="#000000">std::vector&lt; std::shared</text>
<text text-anchor="start" x="10.7808" y="-91.5" font-family="FreeSans.ttf" font-size="10.00" fill="#000000">_ptr&lt; muq::Approximation</text>
<text text-anchor="middle" x="68.8813" y="-81.5" font-family="FreeSans.ttf" font-size="10.00" fill="#000000">::KarhunenLoeveBase &gt; &gt;</text>
</g>
<!-- Node2&#45;&gt;Node1 -->
<g id="edge1" class="edge">
<title>Node2&#45;&gt;Node1</title>
<path fill="none" stroke="#9a32cd" stroke-dasharray="5,2" d="M68.8813,-64.7707C68.8813,-52.4196 68.8813,-38.6672 68.8813,-28.6728"/>
<polygon fill="#9a32cd" stroke="#9a32cd" points="65.3814,-65.1342 68.8813,-75.1342 72.3814,-65.1343 65.3814,-65.1342"/>
<text text-anchor="middle" x="97.5093" y="-49" font-family="FreeSans.ttf" font-size="10.00" fill="#000000"> components</text>
</g>
</g>
</svg>
