<?xml version="1.0" encoding="UTF-8" standalone="no"?>
<!DOCTYPE svg PUBLIC "-//W3C//DTD SVG 1.1//EN"
 "http://www.w3.org/Graphics/SVG/1.1/DTD/svg11.dtd">
<!-- Generated by graphviz version 2.40.1 (20161225.0304)
 -->
<!-- Title: muq::Modeling::ConcatenateOperator Pages: 1 -->
<svg width="1260pt" height="178pt"
 viewBox="0.00 0.00 1259.73 178.00" xmlns="http://www.w3.org/2000/svg" xmlns:xlink="http://www.w3.org/1999/xlink">
<g id="graph0" class="graph" transform="scale(1 1) rotate(0) translate(4 174)">
<title>muq::Modeling::ConcatenateOperator</title>
<polygon fill="#ffffff" stroke="transparent" points="-4,4 -4,-174 1255.7334,-174 1255.7334,4 -4,4"/>
<!-- Node4 -->
<g id="node1" class="node">
<title>Node4</title>
<polygon fill="#bfbfbf" stroke="#000000" points="1107.877,-22.5 1107.877,-50.5 1251.7334,-50.5 1251.7334,-22.5 1107.877,-22.5"/>
<text text-anchor="start" x="1115.877" y="-38.5" font-family="FreeSans.ttf" font-size="10.00" fill="#000000">muq::Modeling::Concatenate</text>
<text text-anchor="middle" x="1179.8052" y="-28.5" font-family="FreeSans.ttf" font-size="10.00" fill="#000000">Operator</text>
</g>
<!-- Node5 -->
<g id="node2" class="node">
<title>Node5</title>
<g id="a_node2"><a xlink:href="classmuq_1_1Modeling_1_1LinearOperator.html" target="_top" xlink:title="Generic linear operator base class. ">
<polygon fill="#ffffff" stroke="#000000" points="877.0244,-57.5 877.0244,-75.5 1031.4326,-75.5 1031.4326,-57.5 877.0244,-57.5"/>
<text text-anchor="middle" x="954.2285" y="-63.5" font-family="FreeSans.ttf" font-size="10.00" fill="#000000">muq::Modeling::LinearOperator</text>
</a>
</g>
</g>
<!-- Node5&#45;&gt;Node4 -->
<g id="edge1" class="edge">
<title>Node5&#45;&gt;Node4</title>
<path fill="none" stroke="#191970" d="M1031.9315,-56.1661C1056.555,-52.8914 1083.6562,-49.2871 1107.8572,-46.0685"/>
<polygon fill="#191970" stroke="#191970" points="1031.3602,-52.7112 1021.909,-57.499 1032.2831,-59.6501 1031.3602,-52.7112"/>
</g>
<!-- Node6 -->
<g id="node3" class="node">
<title>Node6</title>
<g id="a_node3"><a xlink:href="classmuq_1_1Modeling_1_1ModPiece.html" target="_top" xlink:title="Provides an abstract interface for defining vector&#45;valued model components. ">
<polygon fill="#ffffff" stroke="#000000" points="686.8662,-57.5 686.8662,-75.5 818.4814,-75.5 818.4814,-57.5 686.8662,-57.5"/>
<text text-anchor="middle" x="752.6738" y="-63.5" font-family="FreeSans.ttf" font-size="10.00" fill="#000000">muq::Modeling::ModPiece</text>
</a>
</g>
</g>
<!-- Node6&#45;&gt;Node5 -->
<g id="edge2" class="edge">
<title>Node6&#45;&gt;Node5</title>
<path fill="none" stroke="#191970" d="M828.8534,-66.5C844.562,-66.5 861.1197,-66.5 876.8696,-66.5"/>
<polygon fill="#191970" stroke="#191970" points="828.6704,-63.0001 818.6704,-66.5 828.6703,-70.0001 828.6704,-63.0001"/>
</g>
<!-- Node7 -->
<g id="node4" class="node">
<title>Node7</title>
<g id="a_node4"><a xlink:href="classmuq_1_1Modeling_1_1WorkPiece.html" target="_top" xlink:title="Base class for MUQ&#39;s modelling envronment. ">
<polygon fill="#ffffff" stroke="#000000" points="466.624,-82.5 466.624,-100.5 601.9404,-100.5 601.9404,-82.5 466.624,-82.5"/>
<text text-anchor="middle" x="534.2822" y="-88.5" font-family="FreeSans.ttf" font-size="10.00" fill="#000000">muq::Modeling::WorkPiece</text>
</a>
</g>
</g>
<!-- Node7&#45;&gt;Node6 -->
<g id="edge3" class="edge">
<title>Node7&#45;&gt;Node6</title>
<path fill="none" stroke="#191970" d="M612.1239,-82.5892C636.517,-79.7968 663.1911,-76.7434 686.6839,-74.0541"/>
<polygon fill="#191970" stroke="#191970" points="611.7226,-79.1122 602.1856,-83.7269 612.5188,-86.0668 611.7226,-79.1122"/>
</g>
<!-- Node8 -->
<g id="node5" class="node">
<title>Node8</title>
<polygon fill="#ffffff" stroke="#bfbfbf" points="269.7998,-141.5 269.7998,-169.5 373.3584,-169.5 373.3584,-141.5 269.7998,-141.5"/>
<text text-anchor="start" x="277.7998" y="-157.5" font-family="FreeSans.ttf" font-size="10.00" fill="#000000">std::map&lt; unsigned</text>
<text text-anchor="middle" x="321.5791" y="-147.5" font-family="FreeSans.ttf" font-size="10.00" fill="#000000"> int, int &gt;</text>
</g>
<!-- Node8&#45;&gt;Node7 -->
<g id="edge4" class="edge">
<title>Node8&#45;&gt;Node7</title>
<path fill="none" stroke="#9a32cd" stroke-dasharray="5,2" d="M383.4409,-143.5054C404.3394,-138.8926 427.6759,-133.1217 448.624,-126.5 471.7537,-119.1887 497.3994,-108.3254 514.5459,-100.6441"/>
<polygon fill="#9a32cd" stroke="#9a32cd" points="382.4337,-140.1422 373.3986,-145.6755 383.9123,-146.9843 382.4337,-140.1422"/>
<text text-anchor="middle" x="419.9912" y="-142.5" font-family="FreeSans.ttf" font-size="10.00" fill="#000000"> inputSizes</text>
</g>
<!-- Node9 -->
<g id="node6" class="node">
<title>Node9</title>
<g id="a_node6"><a xlink:title="STL class. ">
<polygon fill="#ffffff" stroke="#bfbfbf" points="131.0957,-77.5 131.0957,-95.5 190.4453,-95.5 190.4453,-77.5 131.0957,-77.5"/>
<text text-anchor="middle" x="160.7705" y="-83.5" font-family="FreeSans.ttf" font-size="10.00" fill="#000000">std::string</text>
</a>
</g>
</g>
<!-- Node9&#45;&gt;Node7 -->
<g id="edge5" class="edge">
<title>Node9&#45;&gt;Node7</title>
<path fill="none" stroke="#9a32cd" stroke-dasharray="5,2" d="M200.6507,-90.8798C203.2869,-91.1084 205.9031,-91.3182 208.4453,-91.5 314.9648,-99.1156 341.9213,-102.8526 448.624,-98.5 454.4383,-98.2628 460.469,-97.9355 466.5154,-97.5509"/>
<polygon fill="#9a32cd" stroke="#9a32cd" points="200.7825,-87.3769 190.4986,-89.925 200.1269,-94.3461 200.7825,-87.3769"/>
<text text-anchor="middle" x="321.5791" y="-101.5" font-family="FreeSans.ttf" font-size="10.00" fill="#000000"> name</text>
</g>
<!-- Node12 -->
<g id="node9" class="node">
<title>Node12</title>
<polygon fill="#ffffff" stroke="#bfbfbf" points="269.7998,-47.5 269.7998,-75.5 373.3584,-75.5 373.3584,-47.5 269.7998,-47.5"/>
<text text-anchor="start" x="277.7998" y="-63.5" font-family="FreeSans.ttf" font-size="10.00" fill="#000000">std::map&lt; unsigned</text>
<text text-anchor="middle" x="321.5791" y="-53.5" font-family="FreeSans.ttf" font-size="10.00" fill="#000000"> int, std::string &gt;</text>
</g>
<!-- Node9&#45;&gt;Node12 -->
<g id="edge9" class="edge">
<title>Node9&#45;&gt;Node12</title>
<path fill="none" stroke="#9a32cd" stroke-dasharray="5,2" d="M200.7498,-80.2846C221.6025,-77.0428 247.3585,-73.0387 269.7265,-69.5612"/>
<polygon fill="#9a32cd" stroke="#9a32cd" points="199.9841,-76.8616 190.6405,-81.8563 201.0595,-83.7785 199.9841,-76.8616"/>
<text text-anchor="middle" x="230.1226" y="-79.5" font-family="FreeSans.ttf" font-size="10.00" fill="#000000"> elements</text>
</g>
<!-- Node10 -->
<g id="node7" class="node">
<title>Node10</title>
<g id="a_node7"><a xlink:title="STL class. ">
<polygon fill="#ffffff" stroke="#bfbfbf" points="0,-72.5 0,-100.5 94.0957,-100.5 94.0957,-72.5 0,-72.5"/>
<text text-anchor="start" x="8" y="-88.5" font-family="FreeSans.ttf" font-size="10.00" fill="#000000">std::basic_string&lt;</text>
<text text-anchor="middle" x="47.0479" y="-78.5" font-family="FreeSans.ttf" font-size="10.00" fill="#000000"> char &gt;</text>
</a>
</g>
</g>
<!-- Node10&#45;&gt;Node9 -->
<g id="edge6" class="edge">
<title>Node10&#45;&gt;Node9</title>
<path fill="none" stroke="#191970" d="M104.2966,-86.5C113.5577,-86.5 122.8051,-86.5 131.056,-86.5"/>
<polygon fill="#191970" stroke="#191970" points="104.2886,-83.0001 94.2885,-86.5 104.2885,-90.0001 104.2886,-83.0001"/>
</g>
<!-- Node11 -->
<g id="node8" class="node">
<title>Node11</title>
<polygon fill="#ffffff" stroke="#bfbfbf" points="273.9746,-.5 273.9746,-28.5 369.1836,-28.5 369.1836,-.5 273.9746,-.5"/>
<text text-anchor="start" x="281.9746" y="-16.5" font-family="FreeSans.ttf" font-size="10.00" fill="#000000">std::vector&lt; boost</text>
<text text-anchor="middle" x="321.5791" y="-6.5" font-family="FreeSans.ttf" font-size="10.00" fill="#000000">::any &gt;</text>
</g>
<!-- Node11&#45;&gt;Node7 -->
<g id="edge7" class="edge">
<title>Node11&#45;&gt;Node7</title>
<path fill="none" stroke="#9a32cd" stroke-dasharray="5,2" d="M379.1637,-28.6602C401.7034,-35.5436 427.2291,-45.0647 448.624,-57.5 457.8781,-62.8787 457.1967,-68.4312 466.624,-73.5 473.3685,-77.1263 480.8909,-80.0579 488.4,-82.4171"/>
<polygon fill="#9a32cd" stroke="#9a32cd" points="379.958,-25.2455 369.3765,-25.7767 377.9797,-31.9602 379.958,-25.2455"/>
<text text-anchor="middle" x="419.9912" y="-59.5" font-family="FreeSans.ttf" font-size="10.00" fill="#000000"> outputs</text>
</g>
<!-- Node12&#45;&gt;Node7 -->
<g id="edge8" class="edge">
<title>Node12&#45;&gt;Node7</title>
<path fill="none" stroke="#9a32cd" stroke-dasharray="5,2" d="M383.4814,-69.5611C404.2022,-72.3186 427.4205,-75.4726 448.624,-78.5 457.4094,-79.7544 466.6951,-81.121 475.7838,-82.4816"/>
<polygon fill="#9a32cd" stroke="#9a32cd" points="383.9031,-66.0865 373.5298,-68.2416 382.9829,-73.0257 383.9031,-66.0865"/>
<text text-anchor="middle" x="419.9912" y="-90.5" font-family="FreeSans.ttf" font-size="10.00" fill="#000000"> outputTypes</text>
<text text-anchor="middle" x="419.9912" y="-80.5" font-family="FreeSans.ttf" font-size="10.00" fill="#000000">inputTypes</text>
</g>
<!-- Node13 -->
<g id="node10" class="node">
<title>Node13</title>
<polygon fill="#ffffff" stroke="#bfbfbf" points="486.1211,-35.5 486.1211,-63.5 582.4434,-63.5 582.4434,-35.5 486.1211,-35.5"/>
<text text-anchor="start" x="494.1211" y="-51.5" font-family="FreeSans.ttf" font-size="10.00" fill="#000000">std::vector&lt; Eigen</text>
<text text-anchor="middle" x="534.2822" y="-41.5" font-family="FreeSans.ttf" font-size="10.00" fill="#000000">::VectorXd &gt;</text>
</g>
<!-- Node13&#45;&gt;Node6 -->
<g id="edge10" class="edge">
<title>Node13&#45;&gt;Node6</title>
<path fill="none" stroke="#9a32cd" stroke-dasharray="5,2" d="M592.8671,-49.6614C616.512,-50.138 644.0274,-51.2133 668.8662,-53.5 679.2762,-54.4583 690.3583,-55.8851 700.9391,-57.4466"/>
<polygon fill="#9a32cd" stroke="#9a32cd" points="592.7037,-46.1582 582.6455,-49.4872 592.5844,-53.1572 592.7037,-46.1582"/>
<text text-anchor="middle" x="644.4033" y="-65.5" font-family="FreeSans.ttf" font-size="10.00" fill="#000000"> outputs</text>
<text text-anchor="middle" x="644.4033" y="-55.5" font-family="FreeSans.ttf" font-size="10.00" fill="#000000">cacheInput</text>
</g>
<!-- Node14 -->
<g id="node11" class="node">
<title>Node14</title>
<polygon fill="#ffffff" stroke="#bfbfbf" points="855.4814,-10.5 855.4814,-38.5 1052.9756,-38.5 1052.9756,-10.5 855.4814,-10.5"/>
<text text-anchor="start" x="863.4814" y="-26.5" font-family="FreeSans.ttf" font-size="10.00" fill="#000000">std::vector&lt; std::shared</text>
<text text-anchor="middle" x="954.2285" y="-16.5" font-family="FreeSans.ttf" font-size="10.00" fill="#000000">_ptr&lt; muq::Modeling::LinearOperator &gt; &gt;</text>
</g>
<!-- Node14&#45;&gt;Node4 -->
<g id="edge11" class="edge">
<title>Node14&#45;&gt;Node4</title>
<path fill="none" stroke="#9a32cd" stroke-dasharray="5,2" d="M1063.5301,-30.3145C1078.533,-31.1126 1093.6182,-31.9151 1107.7226,-32.6654"/>
<polygon fill="#9a32cd" stroke="#9a32cd" points="1063.3416,-26.7996 1053.1697,-29.7634 1062.9696,-33.7897 1063.3416,-26.7996"/>
<text text-anchor="middle" x="1080.4263" y="-34.5" font-family="FreeSans.ttf" font-size="10.00" fill="#000000"> ops</text>
</g>
</g>
</svg>
