<?xml version="1.0" encoding="UTF-8" standalone="no"?>
<!DOCTYPE svg PUBLIC "-//W3C//DTD SVG 1.1//EN"
 "http://www.w3.org/Graphics/SVG/1.1/DTD/svg11.dtd">
<!-- Generated by graphviz version 2.40.1 (20161225.0304)
 -->
<!-- Title: muq::Modeling::GeneralizedEigenSolver Pages: 1 -->
<svg width="288pt" height="102pt"
 viewBox="0.00 0.00 288.05 102.00" xmlns="http://www.w3.org/2000/svg" xmlns:xlink="http://www.w3.org/1999/xlink">
<g id="graph0" class="graph" transform="scale(1 1) rotate(0) translate(4 98)">
<title>muq::Modeling::GeneralizedEigenSolver</title>
<polygon fill="#ffffff" stroke="transparent" points="-4,4 -4,-98 284.0537,-98 284.0537,4 -4,4"/>
<!-- Node0 -->
<g id="node1" class="node">
<title>Node0</title>
<polygon fill="#bfbfbf" stroke="#000000" points="67.8794,-65.5 67.8794,-93.5 208.9478,-93.5 208.9478,-65.5 67.8794,-65.5"/>
<text text-anchor="start" x="75.8794" y="-81.5" font-family="FreeSans.ttf" font-size="10.00" fill="#000000">muq::Modeling::Generalized</text>
<text text-anchor="middle" x="138.4136" y="-71.5" font-family="FreeSans.ttf" font-size="10.00" fill="#000000">EigenSolver</text>
</g>
<!-- Node1 -->
<g id="node2" class="node">
<title>Node1</title>
<g id="a_node2"><a xlink:href="classmuq_1_1Modeling_1_1LOBPCG.html" target="_top" xlink:title="The Locally Optimal Block Preconditioned Conjugate Gradient Method (LOBPCG) method for matrix&#45;free co...">
<polygon fill="#ffffff" stroke="#000000" points="0,-5.5 0,-23.5 128.8271,-23.5 128.8271,-5.5 0,-5.5"/>
<text text-anchor="middle" x="64.4136" y="-11.5" font-family="FreeSans.ttf" font-size="10.00" fill="#000000">muq::Modeling::LOBPCG</text>
</a>
</g>
</g>
<!-- Node0&#45;&gt;Node1 -->
<g id="edge1" class="edge">
<title>Node0&#45;&gt;Node1</title>
<path fill="none" stroke="#191970" d="M114.7954,-58.7543C101.3036,-46.9034 85.0684,-32.6427 74.7443,-23.5743"/>
<polygon fill="#191970" stroke="#191970" points="112.5337,-61.4261 122.3567,-65.396 117.1533,-56.1669 112.5337,-61.4261"/>
</g>
<!-- Node2 -->
<g id="node3" class="node">
<title>Node2</title>
<g id="a_node3"><a xlink:href="classmuq_1_1Modeling_1_1StochasticEigenSolver.html" target="_top" xlink:title="Two&#45;pass stochastic algorithm for computing generalized eigenvalues from matrix products. ">
<polygon fill="#ffffff" stroke="#000000" points="146.7734,-.5 146.7734,-28.5 280.0537,-28.5 280.0537,-.5 146.7734,-.5"/>
<text text-anchor="start" x="154.7734" y="-16.5" font-family="FreeSans.ttf" font-size="10.00" fill="#000000">muq::Modeling::Stochastic</text>
<text text-anchor="middle" x="213.4136" y="-6.5" font-family="FreeSans.ttf" font-size="10.00" fill="#000000">EigenSolver</text>
</a>
</g>
</g>
<!-- Node0&#45;&gt;Node2 -->
<g id="edge2" class="edge">
<title>Node0&#45;&gt;Node2</title>
<path fill="none" stroke="#191970" d="M162.5315,-58.5978C173.8562,-48.7831 187.0549,-37.3442 197.1715,-28.5765"/>
<polygon fill="#191970" stroke="#191970" points="159.9521,-56.2017 154.6875,-65.396 164.5366,-61.4915 159.9521,-56.2017"/>
</g>
</g>
</svg>
