<?xml version="1.0" encoding="UTF-8" standalone="no"?>
<!DOCTYPE svg PUBLIC "-//W3C//DTD SVG 1.1//EN"
 "http://www.w3.org/Graphics/SVG/1.1/DTD/svg11.dtd">
<!-- Generated by graphviz version 2.40.1 (20161225.0304)
 -->
<!-- Title: muq::Modeling::LinearOperator Pages: 1 -->
<svg width="708pt" height="830pt"
 viewBox="0.00 0.00 708.41 830.00" xmlns="http://www.w3.org/2000/svg" xmlns:xlink="http://www.w3.org/1999/xlink">
<g id="graph0" class="graph" transform="scale(1 1) rotate(0) translate(4 826)">
<title>muq::Modeling::LinearOperator</title>
<polygon fill="#ffffff" stroke="transparent" points="-4,4 -4,-826 704.4082,-826 704.4082,4 -4,4"/>
<!-- Node0 -->
<g id="node1" class="node">
<title>Node0</title>
<polygon fill="#bfbfbf" stroke="#000000" points="338.9316,-399.5 338.9316,-417.5 493.3398,-417.5 493.3398,-399.5 338.9316,-399.5"/>
<text text-anchor="middle" x="416.1357" y="-405.5" font-family="FreeSans.ttf" font-size="10.00" fill="#000000">muq::Modeling::LinearOperator</text>
</g>
<!-- Node3 -->
<g id="node4" class="node">
<title>Node3</title>
<g id="a_node4"><a xlink:href="classmuq_1_1Modeling_1_1BlockDiagonalOperator.html" target="_top" xlink:title="Defines a block diagonal linear operator in terms of other linear operators. ">
<polygon fill="#ffffff" stroke="#000000" points="539.3374,-793.5 539.3374,-821.5 690.4106,-821.5 690.4106,-793.5 539.3374,-793.5"/>
<text text-anchor="start" x="547.3374" y="-809.5" font-family="FreeSans.ttf" font-size="10.00" fill="#000000">muq::Modeling::BlockDiagonal</text>
<text text-anchor="middle" x="614.874" y="-799.5" font-family="FreeSans.ttf" font-size="10.00" fill="#000000">Operator</text>
</a>
</g>
</g>
<!-- Node0&#45;&gt;Node3 -->
<g id="edge3" class="edge">
<title>Node0&#45;&gt;Node3</title>
<path fill="none" stroke="#191970" d="M419.3751,-427.596C431.4725,-496.7547 476.052,-732.7747 529.3398,-784.5 532.8707,-787.9273 536.8553,-790.8572 541.125,-793.3604"/>
<polygon fill="#191970" stroke="#191970" points="422.8098,-426.9172 417.6609,-417.6577 415.9117,-428.1072 422.8098,-426.9172"/>
</g>
<!-- Node4 -->
<g id="node5" class="node">
<title>Node4</title>
<g id="a_node5"><a xlink:href="classmuq_1_1Modeling_1_1BlockRowOperator.html" target="_top" xlink:title="Defines a block row matrix in terms of other linear operators. ">
<polygon fill="#ffffff" stroke="#000000" points="529.3398,-756.5 529.3398,-774.5 700.4082,-774.5 700.4082,-756.5 529.3398,-756.5"/>
<text text-anchor="middle" x="614.874" y="-762.5" font-family="FreeSans.ttf" font-size="10.00" fill="#000000">muq::Modeling::BlockRowOperator</text>
</a>
</g>
</g>
<!-- Node0&#45;&gt;Node4 -->
<g id="edge4" class="edge">
<title>Node0&#45;&gt;Node4</title>
<path fill="none" stroke="#191970" d="M419.9809,-427.8768C433.304,-493.09 479.415,-703.0044 529.3398,-747.5 533.3049,-751.0338 537.7845,-753.9378 542.5639,-756.3181"/>
<polygon fill="#191970" stroke="#191970" points="423.3491,-426.8735 417.9419,-417.7623 416.4872,-428.2568 423.3491,-426.8735"/>
</g>
<!-- Node5 -->
<g id="node6" class="node">
<title>Node5</title>
<g id="a_node6"><a xlink:href="classmuq_1_1Modeling_1_1CompanionMatrix.html" target="_top" xlink:title="Implments a companion matrix as a linear operator. ">
<polygon fill="#ffffff" stroke="#000000" points="545.729,-709.5 545.729,-737.5 684.019,-737.5 684.019,-709.5 545.729,-709.5"/>
<text text-anchor="start" x="553.729" y="-725.5" font-family="FreeSans.ttf" font-size="10.00" fill="#000000">muq::Modeling::Companion</text>
<text text-anchor="middle" x="614.874" y="-715.5" font-family="FreeSans.ttf" font-size="10.00" fill="#000000">Matrix</text>
</a>
</g>
</g>
<!-- Node0&#45;&gt;Node5 -->
<g id="edge5" class="edge">
<title>Node0&#45;&gt;Node5</title>
<path fill="none" stroke="#191970" d="M417.7621,-427.9889C423.202,-480.3459 445.4793,-625.1767 529.3398,-700.5 534.1447,-704.8157 539.6752,-708.3343 545.5639,-711.2013"/>
<polygon fill="#191970" stroke="#191970" points="421.2215,-427.3934 416.7974,-417.7665 414.2525,-428.0512 421.2215,-427.3934"/>
</g>
<!-- Node6 -->
<g id="node7" class="node">
<title>Node6</title>
<g id="a_node7"><a xlink:href="classmuq_1_1Modeling_1_1ConcatenateOperator.html" target="_top" xlink:title="Vertical or horizontal concatenation of other linear operators. ">
<polygon fill="#ffffff" stroke="#000000" points="542.9458,-662.5 542.9458,-690.5 686.8022,-690.5 686.8022,-662.5 542.9458,-662.5"/>
<text text-anchor="start" x="550.9458" y="-678.5" font-family="FreeSans.ttf" font-size="10.00" fill="#000000">muq::Modeling::Concatenate</text>
<text text-anchor="middle" x="614.874" y="-668.5" font-family="FreeSans.ttf" font-size="10.00" fill="#000000">Operator</text>
</a>
</g>
</g>
<!-- Node0&#45;&gt;Node6 -->
<g id="edge6" class="edge">
<title>Node0&#45;&gt;Node6</title>
<path fill="none" stroke="#191970" d="M419.3,-427.6077C427.9744,-473.7803 456.5232,-592.1272 529.3398,-653.5 533.4551,-656.9685 538.0439,-659.9185 542.8999,-662.427"/>
<polygon fill="#191970" stroke="#191970" points="422.7407,-426.965 417.546,-417.731 415.8485,-428.189 422.7407,-426.965"/>
</g>
<!-- Node7 -->
<g id="node8" class="node">
<title>Node7</title>
<g id="a_node8"><a xlink:href="classmuq_1_1Modeling_1_1DiagonalOperator.html" target="_top" xlink:title="muq::Modeling::DiagonalOperator">
<polygon fill="#ffffff" stroke="#000000" points="531.8325,-625.5 531.8325,-643.5 697.9155,-643.5 697.9155,-625.5 531.8325,-625.5"/>
<text text-anchor="middle" x="614.874" y="-631.5" font-family="FreeSans.ttf" font-size="10.00" fill="#000000">muq::Modeling::DiagonalOperator</text>
</a>
</g>
</g>
<!-- Node0&#45;&gt;Node7 -->
<g id="edge7" class="edge">
<title>Node0&#45;&gt;Node7</title>
<path fill="none" stroke="#191970" d="M420.7497,-427.7183C431.782,-469.281 463.7856,-567.7025 529.3398,-616.5 534.2089,-620.1245 539.6446,-623.0557 545.3511,-625.4219"/>
<polygon fill="#191970" stroke="#191970" points="424.0858,-426.6347 418.2344,-417.8023 417.3007,-428.3559 424.0858,-426.6347"/>
</g>
<!-- Node8 -->
<g id="node9" class="node">
<title>Node8</title>
<polygon fill="#ffffff" stroke="#bfbfbf" points="544.6133,-578.5 544.6133,-606.5 685.1348,-606.5 685.1348,-578.5 544.6133,-578.5"/>
<text text-anchor="start" x="552.6133" y="-594.5" font-family="FreeSans.ttf" font-size="10.00" fill="#000000">muq::Modeling::EigenLinear</text>
<text text-anchor="middle" x="614.874" y="-584.5" font-family="FreeSans.ttf" font-size="10.00" fill="#000000">Operator&lt; EigenType &gt;</text>
</g>
<!-- Node0&#45;&gt;Node8 -->
<g id="edge8" class="edge">
<title>Node0&#45;&gt;Node8</title>
<path fill="none" stroke="#191970" d="M423.9284,-427.0173C439.0819,-460.7206 475.7979,-532.0524 529.3398,-569.5 534.2542,-572.9372 539.6564,-575.8609 545.2837,-578.3478"/>
<polygon fill="#191970" stroke="#191970" points="427.1325,-425.6086 419.9231,-417.8449 420.7174,-428.4099 427.1325,-425.6086"/>
</g>
<!-- Node9 -->
<g id="node10" class="node">
<title>Node9</title>
<g id="a_node10"><a xlink:href="classmuq_1_1Modeling_1_1GaussianOperator.html" target="_top" xlink:title="Creates a linear operator for the action of the covariance or precision matrix of a Gaussian distribu...">
<polygon fill="#ffffff" stroke="#000000" points="530.4458,-541.5 530.4458,-559.5 699.3022,-559.5 699.3022,-541.5 530.4458,-541.5"/>
<text text-anchor="middle" x="614.874" y="-547.5" font-family="FreeSans.ttf" font-size="10.00" fill="#000000">muq::Modeling::GaussianOperator</text>
</a>
</g>
</g>
<!-- Node0&#45;&gt;Node9 -->
<g id="edge9" class="edge">
<title>Node0&#45;&gt;Node9</title>
<path fill="none" stroke="#191970" d="M427.0922,-426.3717C444.921,-453.8265 482.9285,-505.9791 529.3398,-532.5 535.7959,-536.1892 542.9141,-539.1255 550.2045,-541.4621"/>
<polygon fill="#191970" stroke="#191970" points="429.954,-424.3489 421.6467,-417.7731 424.0401,-428.0941 429.954,-424.3489"/>
</g>
<!-- Node10 -->
<g id="node11" class="node">
<title>Node10</title>
<g id="a_node11"><a xlink:href="classmuq_1_1Modeling_1_1GaussNewtonOperator.html" target="_top" xlink:title="Creates a linear operator for the action of a Gauss&#45;Newton Hessian approximation on a vector...">
<polygon fill="#ffffff" stroke="#000000" points="539.8965,-494.5 539.8965,-522.5 689.8516,-522.5 689.8516,-494.5 539.8965,-494.5"/>
<text text-anchor="start" x="547.8965" y="-510.5" font-family="FreeSans.ttf" font-size="10.00" fill="#000000">muq::Modeling::GaussNewton</text>
<text text-anchor="middle" x="614.874" y="-500.5" font-family="FreeSans.ttf" font-size="10.00" fill="#000000">Operator</text>
</a>
</g>
</g>
<!-- Node0&#45;&gt;Node10 -->
<g id="edge10" class="edge">
<title>Node0&#45;&gt;Node10</title>
<path fill="none" stroke="#191970" d="M434.9304,-424.225C456.473,-441.5211 493.4507,-469.0407 529.3398,-485.5 536.7478,-488.8974 544.7546,-491.8739 552.7947,-494.4582"/>
<polygon fill="#191970" stroke="#191970" points="436.9096,-421.3227 426.9483,-417.7138 432.4849,-426.7469 436.9096,-421.3227"/>
</g>
<!-- Node11 -->
<g id="node12" class="node">
<title>Node11</title>
<g id="a_node12"><a xlink:href="classmuq_1_1Modeling_1_1HessianOperator.html" target="_top" xlink:title="Creates a linear operator for the action of the Hessian of a ModPiece on a vector. Useful for computing the Hessian spectrum with iteratives solvers like LOBPCG. &#160;GaussNewtonOperator. ">
<polygon fill="#ffffff" stroke="#000000" points="533.5049,-457.5 533.5049,-475.5 696.2432,-475.5 696.2432,-457.5 533.5049,-457.5"/>
<text text-anchor="middle" x="614.874" y="-463.5" font-family="FreeSans.ttf" font-size="10.00" fill="#000000">muq::Modeling::HessianOperator</text>
</a>
</g>
</g>
<!-- Node0&#45;&gt;Node11 -->
<g id="edge11" class="edge">
<title>Node0&#45;&gt;Node11</title>
<path fill="none" stroke="#191970" d="M448.2197,-421.1151C470.6876,-429.6326 501.543,-440.7012 529.3398,-448.5 541.1746,-451.8204 554.0832,-454.8417 566.2014,-457.4206"/>
<polygon fill="#191970" stroke="#191970" points="449.4236,-417.8284 438.8333,-417.5203 446.9201,-424.3654 449.4236,-417.8284"/>
</g>
<!-- Node12 -->
<g id="node13" class="node">
<title>Node12</title>
<g id="a_node13"><a xlink:href="classmuq_1_1Modeling_1_1IdentityOperator.html" target="_top" xlink:title="muq::Modeling::IdentityOperator">
<polygon fill="#ffffff" stroke="#000000" points="535.4482,-420.5 535.4482,-438.5 694.2998,-438.5 694.2998,-420.5 535.4482,-420.5"/>
<text text-anchor="middle" x="614.874" y="-426.5" font-family="FreeSans.ttf" font-size="10.00" fill="#000000">muq::Modeling::IdentityOperator</text>
</a>
</g>
</g>
<!-- Node0&#45;&gt;Node12 -->
<g id="edge12" class="edge">
<title>Node0&#45;&gt;Node12</title>
<path fill="none" stroke="#191970" d="M503.6076,-417.7428C514.1807,-418.8601 524.9361,-419.9966 535.3857,-421.1007"/>
<polygon fill="#191970" stroke="#191970" points="503.8547,-414.2496 493.5422,-416.6793 503.119,-421.2108 503.8547,-414.2496"/>
</g>
<!-- Node13 -->
<g id="node14" class="node">
<title>Node13</title>
<g id="a_node14"><a xlink:href="classmuq_1_1Modeling_1_1KroneckerProductOperator.html" target="_top" xlink:title="Defines the Kronecker product of two other linear operators. ">
<polygon fill="#ffffff" stroke="#000000" points="548.5122,-373.5 548.5122,-401.5 681.2358,-401.5 681.2358,-373.5 548.5122,-373.5"/>
<text text-anchor="start" x="556.5122" y="-389.5" font-family="FreeSans.ttf" font-size="10.00" fill="#000000">muq::Modeling::Kronecker</text>
<text text-anchor="middle" x="614.874" y="-379.5" font-family="FreeSans.ttf" font-size="10.00" fill="#000000">ProductOperator</text>
</a>
</g>
</g>
<!-- Node0&#45;&gt;Node13 -->
<g id="edge13" class="edge">
<title>Node0&#45;&gt;Node13</title>
<path fill="none" stroke="#191970" d="M503.81,-399.2358C518.7482,-397.6573 534.0439,-396.041 548.3214,-394.5324"/>
<polygon fill="#191970" stroke="#191970" points="503.119,-395.7892 493.5422,-400.3207 503.8547,-402.7504 503.119,-395.7892"/>
</g>
<!-- Node14 -->
<g id="node15" class="node">
<title>Node14</title>
<g id="a_node15"><a xlink:href="classmuq_1_1Modeling_1_1ProductOperator.html" target="_top" xlink:title="The product of two linear operators, . ">
<polygon fill="#ffffff" stroke="#000000" points="534.3374,-336.5 534.3374,-354.5 695.4106,-354.5 695.4106,-336.5 534.3374,-336.5"/>
<text text-anchor="middle" x="614.874" y="-342.5" font-family="FreeSans.ttf" font-size="10.00" fill="#000000">muq::Modeling::ProductOperator</text>
</a>
</g>
</g>
<!-- Node0&#45;&gt;Node14 -->
<g id="edge14" class="edge">
<title>Node0&#45;&gt;Node14</title>
<path fill="none" stroke="#191970" d="M445.1547,-395.3687C467.7392,-385.5419 500.0599,-372.3297 529.3398,-363.5 540.6722,-360.0826 553.0395,-357.0767 564.7589,-354.5487"/>
<polygon fill="#191970" stroke="#191970" points="443.551,-392.2504 435.8094,-399.4836 446.372,-398.6569 443.551,-392.2504"/>
</g>
<!-- Node15 -->
<g id="node16" class="node">
<title>Node15</title>
<g id="a_node16"><a xlink:href="classmuq_1_1Modeling_1_1SliceOperator.html" target="_top" xlink:title="Defines a &quot;slice&quot; or &quot;range&quot; of an input vector. ">
<polygon fill="#ffffff" stroke="#000000" points="540.7314,-299.5 540.7314,-317.5 689.0166,-317.5 689.0166,-299.5 540.7314,-299.5"/>
<text text-anchor="middle" x="614.874" y="-305.5" font-family="FreeSans.ttf" font-size="10.00" fill="#000000">muq::Modeling::SliceOperator</text>
</a>
</g>
</g>
<!-- Node0&#45;&gt;Node15 -->
<g id="edge15" class="edge">
<title>Node0&#45;&gt;Node15</title>
<path fill="none" stroke="#191970" d="M432.9677,-392.7408C453.9087,-374.0288 491.5374,-343.2525 529.3398,-326.5 537.664,-322.8111 546.7848,-319.8625 555.8715,-317.51"/>
<polygon fill="#191970" stroke="#191970" points="430.5881,-390.1739 425.5491,-399.4937 435.3002,-395.3504 430.5881,-390.1739"/>
</g>
<!-- Node16 -->
<g id="node17" class="node">
<title>Node16</title>
<g id="a_node17"><a xlink:href="classmuq_1_1Modeling_1_1SparseLinearOperator.html" target="_top" xlink:title="Wraps a sparse Eigen matrix into a linear operator. ">
<polygon fill="#ffffff" stroke="#000000" points="541.5591,-252.5 541.5591,-280.5 688.189,-280.5 688.189,-252.5 541.5591,-252.5"/>
<text text-anchor="start" x="549.5591" y="-268.5" font-family="FreeSans.ttf" font-size="10.00" fill="#000000">muq::Modeling::SparseLinear</text>
<text text-anchor="middle" x="614.874" y="-258.5" font-family="FreeSans.ttf" font-size="10.00" fill="#000000">Operator</text>
</a>
</g>
</g>
<!-- Node0&#45;&gt;Node16 -->
<g id="edge16" class="edge">
<title>Node0&#45;&gt;Node16</title>
<path fill="none" stroke="#191970" d="M427.9585,-390.9335C446.4676,-364.8142 484.8116,-315.9813 529.3398,-289.5 535.1551,-286.0416 541.4982,-283.0926 548.0158,-280.58"/>
<polygon fill="#191970" stroke="#191970" points="424.8795,-389.2319 422.062,-399.4453 430.6337,-393.2181 424.8795,-389.2319"/>
</g>
<!-- Node17 -->
<g id="node18" class="node">
<title>Node17</title>
<g id="a_node18"><a xlink:href="classmuq_1_1Modeling_1_1SumOperator.html" target="_top" xlink:title="muq::Modeling::SumOperator">
<polygon fill="#ffffff" stroke="#000000" points="541.2881,-215.5 541.2881,-233.5 688.46,-233.5 688.46,-215.5 541.2881,-215.5"/>
<text text-anchor="middle" x="614.874" y="-221.5" font-family="FreeSans.ttf" font-size="10.00" fill="#000000">muq::Modeling::SumOperator</text>
</a>
</g>
</g>
<!-- Node0&#45;&gt;Node17 -->
<g id="edge17" class="edge">
<title>Node0&#45;&gt;Node17</title>
<path fill="none" stroke="#191970" d="M423.3598,-389.616C437.7869,-354.5994 473.6456,-279.7784 529.3398,-242.5 534.7625,-238.8704 540.7766,-235.9523 547.0306,-233.6091"/>
<polygon fill="#191970" stroke="#191970" points="420.0232,-388.5345 419.5723,-399.1197 426.5258,-391.1261 420.0232,-388.5345"/>
</g>
<!-- Node18 -->
<g id="node19" class="node">
<title>Node18</title>
<g id="a_node19"><a xlink:href="classmuq_1_1Modeling_1_1ZeroOperator.html" target="_top" xlink:title="muq::Modeling::ZeroOperator">
<polygon fill="#ffffff" stroke="#000000" points="541.2881,-178.5 541.2881,-196.5 688.46,-196.5 688.46,-178.5 541.2881,-178.5"/>
<text text-anchor="middle" x="614.874" y="-184.5" font-family="FreeSans.ttf" font-size="10.00" fill="#000000">muq::Modeling::ZeroOperator</text>
</a>
</g>
</g>
<!-- Node0&#45;&gt;Node18 -->
<g id="edge18" class="edge">
<title>Node0&#45;&gt;Node18</title>
<path fill="none" stroke="#191970" d="M420.8947,-389.7346C432.2142,-349.1528 464.7525,-253.0636 529.3398,-205.5 534.2275,-201.9006 539.676,-198.9866 545.3907,-196.6316"/>
<polygon fill="#191970" stroke="#191970" points="417.5077,-388.8522 418.3079,-399.4167 424.2705,-390.659 417.5077,-388.8522"/>
</g>
<!-- Node19 -->
<g id="node20" class="node">
<title>Node19</title>
<g id="a_node20"><a xlink:href="classmuq_1_1SamplingAlgorithms_1_1AverageHessian.html" target="_top" xlink:title="muq::SamplingAlgorithms\l::AverageHessian">
<polygon fill="#ffffff" stroke="#000000" points="549.9063,-131.5 549.9063,-159.5 679.8418,-159.5 679.8418,-131.5 549.9063,-131.5"/>
<text text-anchor="start" x="557.9063" y="-147.5" font-family="FreeSans.ttf" font-size="10.00" fill="#000000">muq::SamplingAlgorithms</text>
<text text-anchor="middle" x="614.874" y="-137.5" font-family="FreeSans.ttf" font-size="10.00" fill="#000000">::AverageHessian</text>
</a>
</g>
</g>
<!-- Node0&#45;&gt;Node19 -->
<g id="edge19" class="edge">
<title>Node0&#45;&gt;Node19</title>
<path fill="none" stroke="#191970" d="M419.4825,-389.4865C428.5035,-344.0367 457.6595,-228.4322 529.3398,-168.5 535.3563,-163.4696 542.3703,-159.5307 549.7455,-156.448"/>
<polygon fill="#191970" stroke="#191970" points="416.0166,-388.979 417.6092,-399.4534 422.8962,-390.272 416.0166,-388.979"/>
</g>
<!-- Node20 -->
<g id="node21" class="node">
<title>Node20</title>
<g id="a_node21"><a xlink:href="classmuq_1_1SamplingAlgorithms_1_1CSProjector.html" target="_top" xlink:title="muq::SamplingAlgorithms\l::CSProjector">
<polygon fill="#ffffff" stroke="#000000" points="549.9063,-84.5 549.9063,-112.5 679.8418,-112.5 679.8418,-84.5 549.9063,-84.5"/>
<text text-anchor="start" x="557.9063" y="-100.5" font-family="FreeSans.ttf" font-size="10.00" fill="#000000">muq::SamplingAlgorithms</text>
<text text-anchor="middle" x="614.874" y="-90.5" font-family="FreeSans.ttf" font-size="10.00" fill="#000000">::CSProjector</text>
</a>
</g>
</g>
<!-- Node0&#45;&gt;Node20 -->
<g id="edge20" class="edge">
<title>Node0&#45;&gt;Node20</title>
<path fill="none" stroke="#191970" d="M417.8738,-389.3369C423.5937,-337.8567 446.5092,-195.461 529.3398,-121.5 535.3043,-116.1742 542.3748,-112.0631 549.8559,-108.8929"/>
<polygon fill="#191970" stroke="#191970" points="414.3814,-389.0857 416.8526,-399.3883 421.3456,-389.7933 414.3814,-389.0857"/>
</g>
<!-- Node21 -->
<g id="node22" class="node">
<title>Node21</title>
<g id="a_node22"><a xlink:href="classmuq_1_1SamplingAlgorithms_1_1LIS2Full.html" target="_top" xlink:title="muq::SamplingAlgorithms\l::LIS2Full">
<polygon fill="#ffffff" stroke="#000000" points="549.9063,-37.5 549.9063,-65.5 679.8418,-65.5 679.8418,-37.5 549.9063,-37.5"/>
<text text-anchor="start" x="557.9063" y="-53.5" font-family="FreeSans.ttf" font-size="10.00" fill="#000000">muq::SamplingAlgorithms</text>
<text text-anchor="middle" x="614.874" y="-43.5" font-family="FreeSans.ttf" font-size="10.00" fill="#000000">::LIS2Full</text>
</a>
</g>
</g>
<!-- Node0&#45;&gt;Node21 -->
<g id="edge21" class="edge">
<title>Node0&#45;&gt;Node21</title>
<path fill="none" stroke="#191970" d="M420.1151,-389.5066C433.8703,-325.5692 481.2074,-119.642 529.3398,-74.5 535.1722,-69.03 542.1643,-64.8332 549.6044,-61.618"/>
<polygon fill="#191970" stroke="#191970" points="416.6631,-388.9129 418.0077,-399.4221 423.5102,-390.3682 416.6631,-388.9129"/>
</g>
<!-- Node22 -->
<g id="node23" class="node">
<title>Node22</title>
<polygon fill="#ffffff" stroke="#bfbfbf" points="554.0688,-.5 554.0688,-18.5 675.6792,-18.5 675.6792,-.5 554.0688,-.5"/>
<text text-anchor="middle" x="614.874" y="-6.5" font-family="FreeSans.ttf" font-size="10.00" fill="#000000">PeriodicKernel_F_block</text>
</g>
<!-- Node0&#45;&gt;Node22 -->
<g id="edge22" class="edge">
<title>Node0&#45;&gt;Node22</title>
<path fill="none" stroke="#191970" d="M419.2431,-389.0525C430.8815,-318.6348 474.0681,-78.4463 529.3398,-27.5 536.2578,-21.1234 544.8419,-16.7797 553.8793,-13.8582"/>
<polygon fill="#191970" stroke="#191970" points="415.748,-388.7402 417.596,-399.1726 422.657,-389.8647 415.748,-388.7402"/>
</g>
<!-- Node1 -->
<g id="node2" class="node">
<title>Node1</title>
<g id="a_node2"><a xlink:href="classmuq_1_1Modeling_1_1ModPiece.html" target="_top" xlink:title="Provides an abstract interface for defining vector&#45;valued model components. ">
<polygon fill="#ffffff" stroke="#000000" points="171.3164,-399.5 171.3164,-417.5 302.9316,-417.5 302.9316,-399.5 171.3164,-399.5"/>
<text text-anchor="middle" x="237.124" y="-405.5" font-family="FreeSans.ttf" font-size="10.00" fill="#000000">muq::Modeling::ModPiece</text>
</a>
</g>
</g>
<!-- Node1&#45;&gt;Node0 -->
<g id="edge1" class="edge">
<title>Node1&#45;&gt;Node0</title>
<path fill="none" stroke="#191970" d="M313.2569,-408.5C321.7342,-408.5 330.3752,-408.5 338.8665,-408.5"/>
<polygon fill="#191970" stroke="#191970" points="313.0188,-405.0001 303.0187,-408.5 313.0187,-412.0001 313.0188,-405.0001"/>
</g>
<!-- Node2 -->
<g id="node3" class="node">
<title>Node2</title>
<g id="a_node3"><a xlink:href="classmuq_1_1Modeling_1_1WorkPiece.html" target="_top" xlink:title="Base class for MUQ&#39;s modelling envronment. ">
<polygon fill="#ffffff" stroke="#000000" points="0,-399.5 0,-417.5 135.3164,-417.5 135.3164,-399.5 0,-399.5"/>
<text text-anchor="middle" x="67.6582" y="-405.5" font-family="FreeSans.ttf" font-size="10.00" fill="#000000">muq::Modeling::WorkPiece</text>
</a>
</g>
</g>
<!-- Node2&#45;&gt;Node1 -->
<g id="edge2" class="edge">
<title>Node2&#45;&gt;Node1</title>
<path fill="none" stroke="#191970" d="M145.84,-408.5C154.2809,-408.5 162.809,-408.5 171.0866,-408.5"/>
<polygon fill="#191970" stroke="#191970" points="145.61,-405.0001 135.61,-408.5 145.6099,-412.0001 145.61,-405.0001"/>
</g>
</g>
</svg>
