<?xml version="1.0" encoding="UTF-8" standalone="no"?>
<!DOCTYPE svg PUBLIC "-//W3C//DTD SVG 1.1//EN"
 "http://www.w3.org/Graphics/SVG/1.1/DTD/svg11.dtd">
<!-- Generated by graphviz version 2.40.1 (20161225.0304)
 -->
<!-- Title: muq::Approximation::ClenshawCurtisQuadrature Pages: 1 -->
<svg width="150pt" height="102pt"
 viewBox="0.00 0.00 150.17 102.00" xmlns="http://www.w3.org/2000/svg" xmlns:xlink="http://www.w3.org/1999/xlink">
<g id="graph0" class="graph" transform="scale(1 1) rotate(0) translate(4 98)">
<title>muq::Approximation::ClenshawCurtisQuadrature</title>
<polygon fill="#ffffff" stroke="transparent" points="-4,4 -4,-98 146.167,-98 146.167,4 -4,4"/>
<!-- Node0 -->
<g id="node1" class="node">
<title>Node0</title>
<polygon fill="#bfbfbf" stroke="#000000" points="0,-.5 0,-28.5 142.167,-28.5 142.167,-.5 0,-.5"/>
<text text-anchor="start" x="8" y="-16.5" font-family="FreeSans.ttf" font-size="10.00" fill="#000000">muq::Approximation</text>
<text text-anchor="middle" x="71.0835" y="-6.5" font-family="FreeSans.ttf" font-size="10.00" fill="#000000">::ClenshawCurtisQuadrature</text>
</g>
<!-- Node1 -->
<g id="node2" class="node">
<title>Node1</title>
<g id="a_node2"><a xlink:href="classmuq_1_1Approximation_1_1Quadrature.html" target="_top" xlink:title="Base class for multivariate quadrature rules. &#160;An abstract class for computing nodes and weights of g...">
<polygon fill="#ffffff" stroke="#000000" points="18.6182,-65.5 18.6182,-93.5 123.5488,-93.5 123.5488,-65.5 18.6182,-65.5"/>
<text text-anchor="start" x="26.6182" y="-81.5" font-family="FreeSans.ttf" font-size="10.00" fill="#000000">muq::Approximation</text>
<text text-anchor="middle" x="71.0835" y="-71.5" font-family="FreeSans.ttf" font-size="10.00" fill="#000000">::Quadrature</text>
</a>
</g>
</g>
<!-- Node1&#45;&gt;Node0 -->
<g id="edge1" class="edge">
<title>Node1&#45;&gt;Node0</title>
<path fill="none" stroke="#191970" d="M71.0835,-55.1081C71.0835,-46.1539 71.0835,-36.3227 71.0835,-28.5765"/>
<polygon fill="#191970" stroke="#191970" points="67.5836,-55.3959 71.0835,-65.396 74.5836,-55.396 67.5836,-55.3959"/>
</g>
</g>
</svg>
