<?xml version="1.0" encoding="UTF-8" standalone="no"?>
<!DOCTYPE svg PUBLIC "-//W3C//DTD SVG 1.1//EN"
 "http://www.w3.org/Graphics/SVG/1.1/DTD/svg11.dtd">
<!-- Generated by graphviz version 2.40.1 (20161225.0304)
 -->
<!-- Title: muq::Modeling::DensityBase Pages: 1 -->
<svg width="308pt" height="202pt"
 viewBox="0.00 0.00 308.06 202.00" xmlns="http://www.w3.org/2000/svg" xmlns:xlink="http://www.w3.org/1999/xlink">
<g id="graph0" class="graph" transform="scale(1 1) rotate(0) translate(4 198)">
<title>muq::Modeling::DensityBase</title>
<polygon fill="#ffffff" stroke="transparent" points="-4,4 -4,-198 304.061,-198 304.061,4 -4,4"/>
<!-- Node0 -->
<g id="node1" class="node">
<title>Node0</title>
<polygon fill="#bfbfbf" stroke="#000000" points="72.9409,-55.5 72.9409,-73.5 216.2261,-73.5 216.2261,-55.5 72.9409,-55.5"/>
<text text-anchor="middle" x="144.5835" y="-61.5" font-family="FreeSans.ttf" font-size="10.00" fill="#000000">muq::Modeling::DensityBase</text>
</g>
<!-- Node5 -->
<g id="node6" class="node">
<title>Node5</title>
<g id="a_node6"><a xlink:href="classmuq_1_1Modeling_1_1Density.html" target="_top" xlink:title="muq::Modeling::Density">
<polygon fill="#ffffff" stroke="#000000" points="6.3374,-.5 6.3374,-18.5 126.8296,-18.5 126.8296,-.5 6.3374,-.5"/>
<text text-anchor="middle" x="66.5835" y="-6.5" font-family="FreeSans.ttf" font-size="10.00" fill="#000000">muq::Modeling::Density</text>
</a>
</g>
</g>
<!-- Node0&#45;&gt;Node5 -->
<g id="edge5" class="edge">
<title>Node0&#45;&gt;Node5</title>
<path fill="none" stroke="#191970" d="M123.1576,-49.392C109.1604,-39.5222 91.3444,-26.9596 79.4827,-18.5956"/>
<polygon fill="#191970" stroke="#191970" points="121.5138,-52.5155 131.7034,-55.4179 125.5477,-46.7947 121.5138,-52.5155"/>
</g>
<!-- Node6 -->
<g id="node7" class="node">
<title>Node6</title>
<g id="a_node7"><a xlink:href="classmuq_1_1Modeling_1_1DensityProduct.html" target="_top" xlink:title="muq::Modeling::DensityProduct">
<polygon fill="#ffffff" stroke="#000000" points="145.106,-.5 145.106,-18.5 300.061,-18.5 300.061,-.5 145.106,-.5"/>
<text text-anchor="middle" x="222.5835" y="-6.5" font-family="FreeSans.ttf" font-size="10.00" fill="#000000">muq::Modeling::DensityProduct</text>
</a>
</g>
</g>
<!-- Node0&#45;&gt;Node6 -->
<g id="edge6" class="edge">
<title>Node0&#45;&gt;Node6</title>
<path fill="none" stroke="#191970" d="M166.0094,-49.392C180.0066,-39.5222 197.8226,-26.9596 209.6842,-18.5956"/>
<polygon fill="#191970" stroke="#191970" points="163.6192,-46.7947 157.4636,-55.4179 167.6532,-52.5155 163.6192,-46.7947"/>
</g>
<!-- Node1 -->
<g id="node2" class="node">
<title>Node1</title>
<g id="a_node2"><a xlink:href="classmuq_1_1Modeling_1_1Distribution.html" target="_top" xlink:title="muq::Modeling::Distribution">
<polygon fill="#ffffff" stroke="#000000" points="0,-110.5 0,-128.5 137.167,-128.5 137.167,-110.5 0,-110.5"/>
<text text-anchor="middle" x="68.5835" y="-116.5" font-family="FreeSans.ttf" font-size="10.00" fill="#000000">muq::Modeling::Distribution</text>
</a>
</g>
</g>
<!-- Node1&#45;&gt;Node0 -->
<g id="edge1" class="edge">
<title>Node1&#45;&gt;Node0</title>
<path fill="none" stroke="#191970" d="M89.46,-104.392C103.0983,-94.5222 120.4575,-81.9596 132.015,-73.5956"/>
<polygon fill="#191970" stroke="#191970" points="87.1826,-101.7197 81.1334,-110.4179 91.2865,-107.3906 87.1826,-101.7197"/>
</g>
<!-- Node2 -->
<g id="node3" class="node">
<title>Node2</title>
<polygon fill="#ffffff" stroke="#bfbfbf" points="3.6133,-165.5 3.6133,-193.5 133.5537,-193.5 133.5537,-165.5 3.6133,-165.5"/>
<text text-anchor="start" x="11.6133" y="-181.5" font-family="FreeSans.ttf" font-size="10.00" fill="#000000">std::enable_shared</text>
<text text-anchor="middle" x="68.5835" y="-171.5" font-family="FreeSans.ttf" font-size="10.00" fill="#000000">_from_this&lt; Distribution &gt;</text>
</g>
<!-- Node2&#45;&gt;Node1 -->
<g id="edge2" class="edge">
<title>Node2&#45;&gt;Node1</title>
<path fill="none" stroke="#191970" d="M68.5835,-155.2151C68.5835,-145.8253 68.5835,-135.6598 68.5835,-128.5842"/>
<polygon fill="#191970" stroke="#191970" points="65.0836,-155.2808 68.5835,-165.2808 72.0836,-155.2809 65.0836,-155.2808"/>
</g>
<!-- Node3 -->
<g id="node4" class="node">
<title>Node3</title>
<g id="a_node4"><a xlink:href="classmuq_1_1Modeling_1_1ModPiece.html" target="_top" xlink:title="Provides an abstract interface for defining vector&#45;valued model components. ">
<polygon fill="#ffffff" stroke="#000000" points="154.7759,-110.5 154.7759,-128.5 286.3911,-128.5 286.3911,-110.5 154.7759,-110.5"/>
<text text-anchor="middle" x="220.5835" y="-116.5" font-family="FreeSans.ttf" font-size="10.00" fill="#000000">muq::Modeling::ModPiece</text>
</a>
</g>
</g>
<!-- Node3&#45;&gt;Node0 -->
<g id="edge3" class="edge">
<title>Node3&#45;&gt;Node0</title>
<path fill="none" stroke="#191970" d="M199.707,-104.392C186.0687,-94.5222 168.7095,-81.9596 157.152,-73.5956"/>
<polygon fill="#191970" stroke="#191970" points="197.8805,-107.3906 208.0336,-110.4179 201.9844,-101.7197 197.8805,-107.3906"/>
</g>
<!-- Node4 -->
<g id="node5" class="node">
<title>Node4</title>
<g id="a_node5"><a xlink:href="classmuq_1_1Modeling_1_1WorkPiece.html" target="_top" xlink:title="Base class for MUQ&#39;s modelling envronment. ">
<polygon fill="#ffffff" stroke="#000000" points="152.9253,-170.5 152.9253,-188.5 288.2417,-188.5 288.2417,-170.5 152.9253,-170.5"/>
<text text-anchor="middle" x="220.5835" y="-176.5" font-family="FreeSans.ttf" font-size="10.00" fill="#000000">muq::Modeling::WorkPiece</text>
</a>
</g>
</g>
<!-- Node4&#45;&gt;Node3 -->
<g id="edge4" class="edge">
<title>Node4&#45;&gt;Node3</title>
<path fill="none" stroke="#191970" d="M220.5835,-160.3734C220.5835,-149.7812 220.5835,-137.0976 220.5835,-128.6985"/>
<polygon fill="#191970" stroke="#191970" points="217.0836,-160.3873 220.5835,-170.3873 224.0836,-160.3873 217.0836,-160.3873"/>
</g>
</g>
</svg>
