<?xml version="1.0" encoding="UTF-8" standalone="no"?>
<!DOCTYPE svg PUBLIC "-//W3C//DTD SVG 1.1//EN"
 "http://www.w3.org/Graphics/SVG/1.1/DTD/svg11.dtd">
<!-- Generated by graphviz version 2.40.1 (20161225.0304)
 -->
<!-- Title: muq::Modeling::GaussNewtonOperator Pages: 1 -->
<svg width="1255pt" height="178pt"
 viewBox="0.00 0.00 1254.99 178.00" xmlns="http://www.w3.org/2000/svg" xmlns:xlink="http://www.w3.org/1999/xlink">
<g id="graph0" class="graph" transform="scale(1 1) rotate(0) translate(4 174)">
<title>muq::Modeling::GaussNewtonOperator</title>
<polygon fill="#ffffff" stroke="transparent" points="-4,4 -4,-174 1250.9922,-174 1250.9922,4 -4,4"/>
<!-- Node4 -->
<g id="node1" class="node">
<title>Node4</title>
<polygon fill="#bfbfbf" stroke="#000000" points="1097.0371,-23.5 1097.0371,-51.5 1246.9922,-51.5 1246.9922,-23.5 1097.0371,-23.5"/>
<text text-anchor="start" x="1105.0371" y="-39.5" font-family="FreeSans.ttf" font-size="10.00" fill="#000000">muq::Modeling::GaussNewton</text>
<text text-anchor="middle" x="1172.0146" y="-29.5" font-family="FreeSans.ttf" font-size="10.00" fill="#000000">Operator</text>
</g>
<!-- Node5 -->
<g id="node2" class="node">
<title>Node5</title>
<g id="a_node2"><a xlink:href="classmuq_1_1Modeling_1_1LinearOperator.html" target="_top" xlink:title="Generic linear operator base class. ">
<polygon fill="#ffffff" stroke="#000000" points="905.6289,-51.5 905.6289,-69.5 1060.0371,-69.5 1060.0371,-51.5 905.6289,-51.5"/>
<text text-anchor="middle" x="982.833" y="-57.5" font-family="FreeSans.ttf" font-size="10.00" fill="#000000">muq::Modeling::LinearOperator</text>
</a>
</g>
</g>
<!-- Node5&#45;&gt;Node4 -->
<g id="edge1" class="edge">
<title>Node5&#45;&gt;Node4</title>
<path fill="none" stroke="#191970" d="M1067.2376,-50.2384C1077.0734,-49.0426 1087.0578,-47.8287 1096.7588,-46.6493"/>
<polygon fill="#191970" stroke="#191970" points="1066.5641,-46.7944 1057.0596,-51.4758 1067.409,-53.7433 1066.5641,-46.7944"/>
</g>
<!-- Node6 -->
<g id="node3" class="node">
<title>Node6</title>
<g id="a_node3"><a xlink:href="classmuq_1_1Modeling_1_1ModPiece.html" target="_top" xlink:title="Provides an abstract interface for defining vector&#45;valued model components. ">
<polygon fill="#ffffff" stroke="#000000" points="686.8662,-51.5 686.8662,-69.5 818.4814,-69.5 818.4814,-51.5 686.8662,-51.5"/>
<text text-anchor="middle" x="752.6738" y="-57.5" font-family="FreeSans.ttf" font-size="10.00" fill="#000000">muq::Modeling::ModPiece</text>
</a>
</g>
</g>
<!-- Node6&#45;&gt;Node5 -->
<g id="edge2" class="edge">
<title>Node6&#45;&gt;Node5</title>
<path fill="none" stroke="#191970" d="M828.6554,-60.5C853.3232,-60.5 880.7112,-60.5 905.4779,-60.5"/>
<polygon fill="#191970" stroke="#191970" points="828.6282,-57.0001 818.6282,-60.5 828.6282,-64.0001 828.6282,-57.0001"/>
</g>
<!-- Node7 -->
<g id="node4" class="node">
<title>Node7</title>
<g id="a_node4"><a xlink:href="classmuq_1_1Modeling_1_1WorkPiece.html" target="_top" xlink:title="Base class for MUQ&#39;s modelling envronment. ">
<polygon fill="#ffffff" stroke="#000000" points="466.624,-81.5 466.624,-99.5 601.9404,-99.5 601.9404,-81.5 466.624,-81.5"/>
<text text-anchor="middle" x="534.2822" y="-87.5" font-family="FreeSans.ttf" font-size="10.00" fill="#000000">muq::Modeling::WorkPiece</text>
</a>
</g>
</g>
<!-- Node7&#45;&gt;Node6 -->
<g id="edge3" class="edge">
<title>Node7&#45;&gt;Node6</title>
<path fill="none" stroke="#191970" d="M612.3134,-81.8562C630.8708,-79.6255 650.5883,-77.1117 668.8662,-74.5 679.2345,-73.0185 690.2981,-71.2819 700.8737,-69.5457"/>
<polygon fill="#191970" stroke="#191970" points="611.6568,-78.4095 602.1397,-83.0651 612.4829,-85.3606 611.6568,-78.4095"/>
</g>
<!-- Node8 -->
<g id="node5" class="node">
<title>Node8</title>
<polygon fill="#ffffff" stroke="#bfbfbf" points="269.7998,-141.5 269.7998,-169.5 373.3584,-169.5 373.3584,-141.5 269.7998,-141.5"/>
<text text-anchor="start" x="277.7998" y="-157.5" font-family="FreeSans.ttf" font-size="10.00" fill="#000000">std::map&lt; unsigned</text>
<text text-anchor="middle" x="321.5791" y="-147.5" font-family="FreeSans.ttf" font-size="10.00" fill="#000000"> int, int &gt;</text>
</g>
<!-- Node8&#45;&gt;Node7 -->
<g id="edge4" class="edge">
<title>Node8&#45;&gt;Node7</title>
<path fill="none" stroke="#9a32cd" stroke-dasharray="5,2" d="M383.4793,-143.626C404.3807,-139.0221 427.7091,-133.2259 448.624,-126.5 472.1197,-118.9441 498.1272,-107.5609 515.2516,-99.6242"/>
<polygon fill="#9a32cd" stroke="#9a32cd" points="382.4738,-140.2622 373.4348,-145.7891 383.9476,-147.1053 382.4738,-140.2622"/>
<text text-anchor="middle" x="419.9912" y="-142.5" font-family="FreeSans.ttf" font-size="10.00" fill="#000000"> inputSizes</text>
</g>
<!-- Node9 -->
<g id="node6" class="node">
<title>Node9</title>
<g id="a_node6"><a xlink:title="STL class. ">
<polygon fill="#ffffff" stroke="#bfbfbf" points="131.0957,-77.5 131.0957,-95.5 190.4453,-95.5 190.4453,-77.5 131.0957,-77.5"/>
<text text-anchor="middle" x="160.7705" y="-83.5" font-family="FreeSans.ttf" font-size="10.00" fill="#000000">std::string</text>
</a>
</g>
</g>
<!-- Node9&#45;&gt;Node7 -->
<g id="edge5" class="edge">
<title>Node9&#45;&gt;Node7</title>
<path fill="none" stroke="#9a32cd" stroke-dasharray="5,2" d="M200.6507,-90.8798C203.2869,-91.1084 205.9031,-91.3182 208.4453,-91.5 314.9648,-99.1156 341.9483,-103.4706 448.624,-98.5 454.4427,-98.2289 460.4765,-97.8547 466.5249,-97.4151"/>
<polygon fill="#9a32cd" stroke="#9a32cd" points="200.7825,-87.3769 190.4986,-89.925 200.1269,-94.3461 200.7825,-87.3769"/>
<text text-anchor="middle" x="321.5791" y="-102.5" font-family="FreeSans.ttf" font-size="10.00" fill="#000000"> name</text>
</g>
<!-- Node12 -->
<g id="node9" class="node">
<title>Node12</title>
<polygon fill="#ffffff" stroke="#bfbfbf" points="269.7998,-47.5 269.7998,-75.5 373.3584,-75.5 373.3584,-47.5 269.7998,-47.5"/>
<text text-anchor="start" x="277.7998" y="-63.5" font-family="FreeSans.ttf" font-size="10.00" fill="#000000">std::map&lt; unsigned</text>
<text text-anchor="middle" x="321.5791" y="-53.5" font-family="FreeSans.ttf" font-size="10.00" fill="#000000"> int, std::string &gt;</text>
</g>
<!-- Node9&#45;&gt;Node12 -->
<g id="edge9" class="edge">
<title>Node9&#45;&gt;Node12</title>
<path fill="none" stroke="#9a32cd" stroke-dasharray="5,2" d="M200.7498,-80.2846C221.6025,-77.0428 247.3585,-73.0387 269.7265,-69.5612"/>
<polygon fill="#9a32cd" stroke="#9a32cd" points="199.9841,-76.8616 190.6405,-81.8563 201.0595,-83.7785 199.9841,-76.8616"/>
<text text-anchor="middle" x="230.1226" y="-79.5" font-family="FreeSans.ttf" font-size="10.00" fill="#000000"> elements</text>
</g>
<!-- Node10 -->
<g id="node7" class="node">
<title>Node10</title>
<g id="a_node7"><a xlink:title="STL class. ">
<polygon fill="#ffffff" stroke="#bfbfbf" points="0,-72.5 0,-100.5 94.0957,-100.5 94.0957,-72.5 0,-72.5"/>
<text text-anchor="start" x="8" y="-88.5" font-family="FreeSans.ttf" font-size="10.00" fill="#000000">std::basic_string&lt;</text>
<text text-anchor="middle" x="47.0479" y="-78.5" font-family="FreeSans.ttf" font-size="10.00" fill="#000000"> char &gt;</text>
</a>
</g>
</g>
<!-- Node10&#45;&gt;Node9 -->
<g id="edge6" class="edge">
<title>Node10&#45;&gt;Node9</title>
<path fill="none" stroke="#191970" d="M104.2966,-86.5C113.5577,-86.5 122.8051,-86.5 131.056,-86.5"/>
<polygon fill="#191970" stroke="#191970" points="104.2886,-83.0001 94.2885,-86.5 104.2885,-90.0001 104.2886,-83.0001"/>
</g>
<!-- Node11 -->
<g id="node8" class="node">
<title>Node11</title>
<polygon fill="#ffffff" stroke="#bfbfbf" points="273.9746,-.5 273.9746,-28.5 369.1836,-28.5 369.1836,-.5 273.9746,-.5"/>
<text text-anchor="start" x="281.9746" y="-16.5" font-family="FreeSans.ttf" font-size="10.00" fill="#000000">std::vector&lt; boost</text>
<text text-anchor="middle" x="321.5791" y="-6.5" font-family="FreeSans.ttf" font-size="10.00" fill="#000000">::any &gt;</text>
</g>
<!-- Node11&#45;&gt;Node7 -->
<g id="edge7" class="edge">
<title>Node11&#45;&gt;Node7</title>
<path fill="none" stroke="#9a32cd" stroke-dasharray="5,2" d="M375.943,-31.6979C398.5285,-39.0432 424.9454,-47.895 448.624,-56.5 470.579,-64.4786 495.3525,-74.4153 512.5886,-81.4816"/>
<polygon fill="#9a32cd" stroke="#9a32cd" points="376.7811,-28.2905 366.1892,-28.5417 374.6259,-34.9505 376.7811,-28.2905"/>
<text text-anchor="middle" x="419.9912" y="-58.5" font-family="FreeSans.ttf" font-size="10.00" fill="#000000"> outputs</text>
</g>
<!-- Node12&#45;&gt;Node7 -->
<g id="edge8" class="edge">
<title>Node12&#45;&gt;Node7</title>
<path fill="none" stroke="#9a32cd" stroke-dasharray="5,2" d="M383.4616,-69.7027C404.1811,-72.4699 427.4036,-75.5939 448.624,-78.5 455.6165,-79.4576 462.9286,-80.4681 470.2074,-81.4797"/>
<polygon fill="#9a32cd" stroke="#9a32cd" points="383.886,-66.2284 373.5111,-68.3755 382.9605,-73.167 383.886,-66.2284"/>
<text text-anchor="middle" x="419.9912" y="-90.5" font-family="FreeSans.ttf" font-size="10.00" fill="#000000"> outputTypes</text>
<text text-anchor="middle" x="419.9912" y="-80.5" font-family="FreeSans.ttf" font-size="10.00" fill="#000000">inputTypes</text>
</g>
<!-- Node13 -->
<g id="node10" class="node">
<title>Node13</title>
<polygon fill="#ffffff" stroke="#bfbfbf" points="486.1211,-21.5 486.1211,-49.5 582.4434,-49.5 582.4434,-21.5 486.1211,-21.5"/>
<text text-anchor="start" x="494.1211" y="-37.5" font-family="FreeSans.ttf" font-size="10.00" fill="#000000">std::vector&lt; Eigen</text>
<text text-anchor="middle" x="534.2822" y="-27.5" font-family="FreeSans.ttf" font-size="10.00" fill="#000000">::VectorXd &gt;</text>
</g>
<!-- Node13&#45;&gt;Node4 -->
<g id="edge11" class="edge">
<title>Node13&#45;&gt;Node4</title>
<path fill="none" stroke="#9a32cd" stroke-dasharray="5,2" d="M592.9639,-35.6538C663.0719,-35.8403 783.9127,-36.1709 887.6289,-36.5 958.602,-36.7252 1039.5382,-37.0128 1096.8701,-37.2217"/>
<polygon fill="#9a32cd" stroke="#9a32cd" points="592.5865,-32.1528 582.5772,-35.6262 592.5678,-39.1528 592.5865,-32.1528"/>
<text text-anchor="middle" x="862.0552" y="-48.5" font-family="FreeSans.ttf" font-size="10.00" fill="#000000"> inputs</text>
<text text-anchor="middle" x="862.0552" y="-38.5" font-family="FreeSans.ttf" font-size="10.00" fill="#000000">noiseInputs</text>
</g>
<!-- Node13&#45;&gt;Node6 -->
<g id="edge10" class="edge">
<title>Node13&#45;&gt;Node6</title>
<path fill="none" stroke="#9a32cd" stroke-dasharray="5,2" d="M592.4736,-42.1614C621.5131,-45.4856 656.7598,-49.5204 686.7905,-52.9581"/>
<polygon fill="#9a32cd" stroke="#9a32cd" points="592.8128,-38.6774 582.4796,-41.0173 592.0166,-45.632 592.8128,-38.6774"/>
<text text-anchor="middle" x="644.4033" y="-62.5" font-family="FreeSans.ttf" font-size="10.00" fill="#000000"> outputs</text>
<text text-anchor="middle" x="644.4033" y="-52.5" font-family="FreeSans.ttf" font-size="10.00" fill="#000000">cacheInput</text>
</g>
</g>
</svg>
