<?xml version="1.0" encoding="UTF-8" standalone="no"?>
<!DOCTYPE svg PUBLIC "-//W3C//DTD SVG 1.1//EN"
 "http://www.w3.org/Graphics/SVG/1.1/DTD/svg11.dtd">
<!-- Generated by graphviz version 2.40.1 (20161225.0304)
 -->
<!-- Title: muq::Modeling::Gaussian Pages: 1 -->
<svg width="160pt" height="202pt"
 viewBox="0.00 0.00 160.19 202.00" xmlns="http://www.w3.org/2000/svg" xmlns:xlink="http://www.w3.org/1999/xlink">
<g id="graph0" class="graph" transform="scale(1 1) rotate(0) translate(4 198)">
<title>muq::Modeling::Gaussian</title>
<polygon fill="#ffffff" stroke="transparent" points="-4,4 -4,-198 156.1865,-198 156.1865,4 -4,4"/>
<!-- Node4 -->
<g id="node1" class="node">
<title>Node4</title>
<polygon fill="#bfbfbf" stroke="#000000" points="11.3965,-.5 11.3965,-18.5 140.79,-18.5 140.79,-.5 11.3965,-.5"/>
<text text-anchor="middle" x="76.0933" y="-6.5" font-family="FreeSans.ttf" font-size="10.00" fill="#000000">muq::Modeling::Gaussian</text>
</g>
<!-- Node5 -->
<g id="node2" class="node">
<title>Node5</title>
<g id="a_node2"><a xlink:href="classmuq_1_1Modeling_1_1GaussianBase.html" target="_top" xlink:title="Defines an abstract Gaussian class.Gaussian. ">
<polygon fill="#ffffff" stroke="#000000" points="0,-55.5 0,-73.5 152.1865,-73.5 152.1865,-55.5 0,-55.5"/>
<text text-anchor="middle" x="76.0933" y="-61.5" font-family="FreeSans.ttf" font-size="10.00" fill="#000000">muq::Modeling::GaussianBase</text>
</a>
</g>
</g>
<!-- Node5&#45;&gt;Node4 -->
<g id="edge1" class="edge">
<title>Node5&#45;&gt;Node4</title>
<path fill="none" stroke="#191970" d="M76.0933,-45.383C76.0933,-36.3738 76.0933,-26.0373 76.0933,-18.7795"/>
<polygon fill="#191970" stroke="#191970" points="72.5934,-45.4178 76.0933,-55.4179 79.5934,-45.4179 72.5934,-45.4178"/>
</g>
<!-- Node6 -->
<g id="node3" class="node">
<title>Node6</title>
<g id="a_node3"><a xlink:href="classmuq_1_1Modeling_1_1Distribution.html" target="_top" xlink:title="muq::Modeling::Distribution">
<polygon fill="#ffffff" stroke="#000000" points="7.5098,-110.5 7.5098,-128.5 144.6768,-128.5 144.6768,-110.5 7.5098,-110.5"/>
<text text-anchor="middle" x="76.0933" y="-116.5" font-family="FreeSans.ttf" font-size="10.00" fill="#000000">muq::Modeling::Distribution</text>
</a>
</g>
</g>
<!-- Node6&#45;&gt;Node5 -->
<g id="edge2" class="edge">
<title>Node6&#45;&gt;Node5</title>
<path fill="none" stroke="#191970" d="M76.0933,-100.383C76.0933,-91.3738 76.0933,-81.0373 76.0933,-73.7795"/>
<polygon fill="#191970" stroke="#191970" points="72.5934,-100.4178 76.0933,-110.4179 79.5934,-100.4179 72.5934,-100.4178"/>
</g>
<!-- Node7 -->
<g id="node4" class="node">
<title>Node7</title>
<polygon fill="#ffffff" stroke="#bfbfbf" points="11.123,-165.5 11.123,-193.5 141.0635,-193.5 141.0635,-165.5 11.123,-165.5"/>
<text text-anchor="start" x="19.123" y="-181.5" font-family="FreeSans.ttf" font-size="10.00" fill="#000000">std::enable_shared</text>
<text text-anchor="middle" x="76.0933" y="-171.5" font-family="FreeSans.ttf" font-size="10.00" fill="#000000">_from_this&lt; Distribution &gt;</text>
</g>
<!-- Node7&#45;&gt;Node6 -->
<g id="edge3" class="edge">
<title>Node7&#45;&gt;Node6</title>
<path fill="none" stroke="#191970" d="M76.0933,-155.2151C76.0933,-145.8253 76.0933,-135.6598 76.0933,-128.5842"/>
<polygon fill="#191970" stroke="#191970" points="72.5934,-155.2808 76.0933,-165.2808 79.5934,-155.2809 72.5934,-155.2808"/>
</g>
</g>
</svg>
