<?xml version="1.0" encoding="UTF-8" standalone="no"?>
<!DOCTYPE svg PUBLIC "-//W3C//DTD SVG 1.1//EN"
 "http://www.w3.org/Graphics/SVG/1.1/DTD/svg11.dtd">
<!-- Generated by graphviz version 2.40.1 (20161225.0304)
 -->
<!-- Title: muq::Modeling::AffineOperator Pages: 1 -->
<svg width="1016pt" height="178pt"
 viewBox="0.00 0.00 1015.66 178.00" xmlns="http://www.w3.org/2000/svg" xmlns:xlink="http://www.w3.org/1999/xlink">
<g id="graph0" class="graph" transform="scale(1 1) rotate(0) translate(4 174)">
<title>muq::Modeling::AffineOperator</title>
<polygon fill="#ffffff" stroke="transparent" points="-4,4 -4,-174 1011.6631,-174 1011.6631,4 -4,4"/>
<!-- Node3 -->
<g id="node1" class="node">
<title>Node3</title>
<polygon fill="#bfbfbf" stroke="#000000" points="855.4814,-60.5 855.4814,-78.5 1007.6631,-78.5 1007.6631,-60.5 855.4814,-60.5"/>
<text text-anchor="middle" x="931.5723" y="-66.5" font-family="FreeSans.ttf" font-size="10.00" fill="#000000">muq::Modeling::AffineOperator</text>
</g>
<!-- Node4 -->
<g id="node2" class="node">
<title>Node4</title>
<g id="a_node2"><a xlink:href="classmuq_1_1Modeling_1_1ModPiece.html" target="_top" xlink:title="Provides an abstract interface for defining vector&#45;valued model components. ">
<polygon fill="#ffffff" stroke="#000000" points="686.8662,-60.5 686.8662,-78.5 818.4814,-78.5 818.4814,-60.5 686.8662,-60.5"/>
<text text-anchor="middle" x="752.6738" y="-66.5" font-family="FreeSans.ttf" font-size="10.00" fill="#000000">muq::Modeling::ModPiece</text>
</a>
</g>
</g>
<!-- Node4&#45;&gt;Node3 -->
<g id="edge1" class="edge">
<title>Node4&#45;&gt;Node3</title>
<path fill="none" stroke="#191970" d="M828.737,-69.5C837.5214,-69.5 846.4819,-69.5 855.2695,-69.5"/>
<polygon fill="#191970" stroke="#191970" points="828.5269,-66.0001 818.5269,-69.5 828.5268,-73.0001 828.5269,-66.0001"/>
</g>
<!-- Node5 -->
<g id="node3" class="node">
<title>Node5</title>
<g id="a_node3"><a xlink:href="classmuq_1_1Modeling_1_1WorkPiece.html" target="_top" xlink:title="Base class for MUQ&#39;s modelling envronment. ">
<polygon fill="#ffffff" stroke="#000000" points="466.624,-85.5 466.624,-103.5 601.9404,-103.5 601.9404,-85.5 466.624,-85.5"/>
<text text-anchor="middle" x="534.2822" y="-91.5" font-family="FreeSans.ttf" font-size="10.00" fill="#000000">muq::Modeling::WorkPiece</text>
</a>
</g>
</g>
<!-- Node5&#45;&gt;Node4 -->
<g id="edge2" class="edge">
<title>Node5&#45;&gt;Node4</title>
<path fill="none" stroke="#191970" d="M612.1239,-85.5892C636.517,-82.7968 663.1911,-79.7434 686.6839,-77.0541"/>
<polygon fill="#191970" stroke="#191970" points="611.7226,-82.1122 602.1856,-86.7269 612.5188,-89.0668 611.7226,-82.1122"/>
</g>
<!-- Node6 -->
<g id="node4" class="node">
<title>Node6</title>
<polygon fill="#ffffff" stroke="#bfbfbf" points="269.7998,-141.5 269.7998,-169.5 373.3584,-169.5 373.3584,-141.5 269.7998,-141.5"/>
<text text-anchor="start" x="277.7998" y="-157.5" font-family="FreeSans.ttf" font-size="10.00" fill="#000000">std::map&lt; unsigned</text>
<text text-anchor="middle" x="321.5791" y="-147.5" font-family="FreeSans.ttf" font-size="10.00" fill="#000000"> int, int &gt;</text>
</g>
<!-- Node6&#45;&gt;Node5 -->
<g id="edge3" class="edge">
<title>Node6&#45;&gt;Node5</title>
<path fill="none" stroke="#9a32cd" stroke-dasharray="5,2" d="M383.6049,-143.0752C404.4243,-138.4464 427.6709,-132.7749 448.624,-126.5 470.6753,-119.8963 495.2271,-110.5072 512.3725,-103.6067"/>
<polygon fill="#9a32cd" stroke="#9a32cd" points="382.6222,-139.7073 373.6001,-145.2619 384.1169,-146.5459 382.6222,-139.7073"/>
<text text-anchor="middle" x="419.9912" y="-142.5" font-family="FreeSans.ttf" font-size="10.00" fill="#000000"> inputSizes</text>
</g>
<!-- Node7 -->
<g id="node5" class="node">
<title>Node7</title>
<g id="a_node5"><a xlink:title="STL class. ">
<polygon fill="#ffffff" stroke="#bfbfbf" points="131.0957,-77.5 131.0957,-95.5 190.4453,-95.5 190.4453,-77.5 131.0957,-77.5"/>
<text text-anchor="middle" x="160.7705" y="-83.5" font-family="FreeSans.ttf" font-size="10.00" fill="#000000">std::string</text>
</a>
</g>
</g>
<!-- Node7&#45;&gt;Node5 -->
<g id="edge4" class="edge">
<title>Node7&#45;&gt;Node5</title>
<path fill="none" stroke="#9a32cd" stroke-dasharray="5,2" d="M200.64,-91.7942C203.2787,-92.0592 205.8985,-92.2984 208.4453,-92.5 314.8917,-100.926 341.8737,-100.9911 448.624,-98.5 454.4285,-98.3645 460.4525,-98.1775 466.4943,-97.9578"/>
<polygon fill="#9a32cd" stroke="#9a32cd" points="200.8063,-88.2913 190.4819,-90.6697 200.0361,-95.2488 200.8063,-88.2913"/>
<text text-anchor="middle" x="321.5791" y="-102.5" font-family="FreeSans.ttf" font-size="10.00" fill="#000000"> name</text>
</g>
<!-- Node10 -->
<g id="node8" class="node">
<title>Node10</title>
<polygon fill="#ffffff" stroke="#bfbfbf" points="269.7998,-47.5 269.7998,-75.5 373.3584,-75.5 373.3584,-47.5 269.7998,-47.5"/>
<text text-anchor="start" x="277.7998" y="-63.5" font-family="FreeSans.ttf" font-size="10.00" fill="#000000">std::map&lt; unsigned</text>
<text text-anchor="middle" x="321.5791" y="-53.5" font-family="FreeSans.ttf" font-size="10.00" fill="#000000"> int, std::string &gt;</text>
</g>
<!-- Node7&#45;&gt;Node10 -->
<g id="edge8" class="edge">
<title>Node7&#45;&gt;Node10</title>
<path fill="none" stroke="#9a32cd" stroke-dasharray="5,2" d="M200.7498,-80.2846C221.6025,-77.0428 247.3585,-73.0387 269.7265,-69.5612"/>
<polygon fill="#9a32cd" stroke="#9a32cd" points="199.9841,-76.8616 190.6405,-81.8563 201.0595,-83.7785 199.9841,-76.8616"/>
<text text-anchor="middle" x="230.1226" y="-80.5" font-family="FreeSans.ttf" font-size="10.00" fill="#000000"> elements</text>
</g>
<!-- Node8 -->
<g id="node6" class="node">
<title>Node8</title>
<g id="a_node6"><a xlink:title="STL class. ">
<polygon fill="#ffffff" stroke="#bfbfbf" points="0,-72.5 0,-100.5 94.0957,-100.5 94.0957,-72.5 0,-72.5"/>
<text text-anchor="start" x="8" y="-88.5" font-family="FreeSans.ttf" font-size="10.00" fill="#000000">std::basic_string&lt;</text>
<text text-anchor="middle" x="47.0479" y="-78.5" font-family="FreeSans.ttf" font-size="10.00" fill="#000000"> char &gt;</text>
</a>
</g>
</g>
<!-- Node8&#45;&gt;Node7 -->
<g id="edge5" class="edge">
<title>Node8&#45;&gt;Node7</title>
<path fill="none" stroke="#191970" d="M104.2966,-86.5C113.5577,-86.5 122.8051,-86.5 131.056,-86.5"/>
<polygon fill="#191970" stroke="#191970" points="104.2886,-83.0001 94.2885,-86.5 104.2885,-90.0001 104.2886,-83.0001"/>
</g>
<!-- Node9 -->
<g id="node7" class="node">
<title>Node9</title>
<polygon fill="#ffffff" stroke="#bfbfbf" points="273.9746,-.5 273.9746,-28.5 369.1836,-28.5 369.1836,-.5 273.9746,-.5"/>
<text text-anchor="start" x="281.9746" y="-16.5" font-family="FreeSans.ttf" font-size="10.00" fill="#000000">std::vector&lt; boost</text>
<text text-anchor="middle" x="321.5791" y="-6.5" font-family="FreeSans.ttf" font-size="10.00" fill="#000000">::any &gt;</text>
</g>
<!-- Node9&#45;&gt;Node5 -->
<g id="edge6" class="edge">
<title>Node9&#45;&gt;Node5</title>
<path fill="none" stroke="#9a32cd" stroke-dasharray="5,2" d="M379.1778,-27.0516C401.9356,-33.6242 427.6134,-43.1556 448.624,-56.5 458.4432,-62.7364 456.6655,-69.4886 466.624,-75.5 473.4133,-79.5983 481.1168,-82.8404 488.8324,-85.3968"/>
<polygon fill="#9a32cd" stroke="#9a32cd" points="379.8616,-23.6096 369.291,-24.3253 378.0008,-30.3577 379.8616,-23.6096"/>
<text text-anchor="middle" x="419.9912" y="-58.5" font-family="FreeSans.ttf" font-size="10.00" fill="#000000"> outputs</text>
</g>
<!-- Node10&#45;&gt;Node5 -->
<g id="edge7" class="edge">
<title>Node10&#45;&gt;Node5</title>
<path fill="none" stroke="#9a32cd" stroke-dasharray="5,2" d="M383.5452,-69.14C404.2704,-71.8687 427.4751,-75.1122 448.624,-78.5 461.4707,-80.5579 475.3529,-83.0388 488.125,-85.4263"/>
<polygon fill="#9a32cd" stroke="#9a32cd" points="383.9584,-65.6643 373.5901,-67.8434 383.0543,-72.6057 383.9584,-65.6643"/>
<text text-anchor="middle" x="419.9912" y="-90.5" font-family="FreeSans.ttf" font-size="10.00" fill="#000000"> outputTypes</text>
<text text-anchor="middle" x="419.9912" y="-80.5" font-family="FreeSans.ttf" font-size="10.00" fill="#000000">inputTypes</text>
</g>
<!-- Node11 -->
<g id="node9" class="node">
<title>Node11</title>
<polygon fill="#ffffff" stroke="#bfbfbf" points="486.1211,-38.5 486.1211,-66.5 582.4434,-66.5 582.4434,-38.5 486.1211,-38.5"/>
<text text-anchor="start" x="494.1211" y="-54.5" font-family="FreeSans.ttf" font-size="10.00" fill="#000000">std::vector&lt; Eigen</text>
<text text-anchor="middle" x="534.2822" y="-44.5" font-family="FreeSans.ttf" font-size="10.00" fill="#000000">::VectorXd &gt;</text>
</g>
<!-- Node11&#45;&gt;Node4 -->
<g id="edge9" class="edge">
<title>Node11&#45;&gt;Node4</title>
<path fill="none" stroke="#9a32cd" stroke-dasharray="5,2" d="M592.8671,-52.6614C616.512,-53.138 644.0274,-54.2133 668.8662,-56.5 679.2762,-57.4583 690.3583,-58.8851 700.9391,-60.4466"/>
<polygon fill="#9a32cd" stroke="#9a32cd" points="592.7037,-49.1582 582.6455,-52.4872 592.5844,-56.1572 592.7037,-49.1582"/>
<text text-anchor="middle" x="644.4033" y="-68.5" font-family="FreeSans.ttf" font-size="10.00" fill="#000000"> outputs</text>
<text text-anchor="middle" x="644.4033" y="-58.5" font-family="FreeSans.ttf" font-size="10.00" fill="#000000">cacheInput</text>
</g>
</g>
</svg>
