<?xml version="1.0" encoding="UTF-8" standalone="no"?>
<!DOCTYPE svg PUBLIC "-//W3C//DTD SVG 1.1//EN"
 "http://www.w3.org/Graphics/SVG/1.1/DTD/svg11.dtd">
<!-- Generated by graphviz version 2.40.1 (20161225.0304)
 -->
<!-- Title: muq::Modeling::ModGraphPiece Pages: 1 -->
<svg width="167pt" height="137pt"
 viewBox="0.00 0.00 167.41 137.00" xmlns="http://www.w3.org/2000/svg" xmlns:xlink="http://www.w3.org/1999/xlink">
<g id="graph0" class="graph" transform="scale(1 1) rotate(0) translate(4 133)">
<title>muq::Modeling::ModGraphPiece</title>
<polygon fill="#ffffff" stroke="transparent" points="-4,4 -4,-133 163.4082,-133 163.4082,4 -4,4"/>
<!-- Node0 -->
<g id="node1" class="node">
<title>Node0</title>
<polygon fill="#bfbfbf" stroke="#000000" points="0,-.5 0,-18.5 159.4082,-18.5 159.4082,-.5 0,-.5"/>
<text text-anchor="middle" x="79.7041" y="-6.5" font-family="FreeSans.ttf" font-size="10.00" fill="#000000">muq::Modeling::ModGraphPiece</text>
</g>
<!-- Node1 -->
<g id="node2" class="node">
<title>Node1</title>
<g id="a_node2"><a xlink:href="classmuq_1_1Modeling_1_1ModPiece.html" target="_top" xlink:title="Provides an abstract interface for defining vector&#45;valued model components. ">
<polygon fill="#ffffff" stroke="#000000" points="13.8965,-55.5 13.8965,-73.5 145.5117,-73.5 145.5117,-55.5 13.8965,-55.5"/>
<text text-anchor="middle" x="79.7041" y="-61.5" font-family="FreeSans.ttf" font-size="10.00" fill="#000000">muq::Modeling::ModPiece</text>
</a>
</g>
</g>
<!-- Node1&#45;&gt;Node0 -->
<g id="edge1" class="edge">
<title>Node1&#45;&gt;Node0</title>
<path fill="none" stroke="#191970" d="M79.7041,-45.383C79.7041,-36.3738 79.7041,-26.0373 79.7041,-18.7795"/>
<polygon fill="#191970" stroke="#191970" points="76.2042,-45.4178 79.7041,-55.4179 83.2042,-45.4179 76.2042,-45.4178"/>
</g>
<!-- Node2 -->
<g id="node3" class="node">
<title>Node2</title>
<g id="a_node3"><a xlink:href="classmuq_1_1Modeling_1_1WorkPiece.html" target="_top" xlink:title="Base class for MUQ&#39;s modelling envronment. ">
<polygon fill="#ffffff" stroke="#000000" points="12.0459,-110.5 12.0459,-128.5 147.3623,-128.5 147.3623,-110.5 12.0459,-110.5"/>
<text text-anchor="middle" x="79.7041" y="-116.5" font-family="FreeSans.ttf" font-size="10.00" fill="#000000">muq::Modeling::WorkPiece</text>
</a>
</g>
</g>
<!-- Node2&#45;&gt;Node1 -->
<g id="edge2" class="edge">
<title>Node2&#45;&gt;Node1</title>
<path fill="none" stroke="#191970" d="M79.7041,-100.383C79.7041,-91.3738 79.7041,-81.0373 79.7041,-73.7795"/>
<polygon fill="#191970" stroke="#191970" points="76.2042,-100.4178 79.7041,-110.4179 83.2042,-100.4179 76.2042,-100.4178"/>
</g>
</g>
</svg>
