digraph "muq::Approximation::KarhunenLoeveBase"
{
  edge [fontname="FreeSans.ttf",fontsize="10",labelfontname="FreeSans.ttf",labelfontsize="10"];
  node [fontname="FreeSans.ttf",fontsize="10",shape=record];
  Node0 [label="muq::Approximation\l::KarhunenLoeveBase",height=0.2,width=0.4,color="black", fillcolor="grey75", style="filled", fontcolor="black"];
  Node0 -> Node1 [dir="back",color="midnightblue",fontsize="10",style="solid",fontname="FreeSans.ttf"];
  Node1 [label="muq::Approximation\l::KarhunenLoeveExpansion",height=0.2,width=0.4,color="black", fillcolor="white", style="filled",URL="$classmuq_1_1Approximation_1_1KarhunenLoeveExpansion.html",tooltip="Used to compute and evaluate the Karhunen-Loeve decomposition of a zero mean Gaussian process..."];
}
