digraph "muq::Approximation::BasisExpansion"
{
  edge [fontname="FreeSans.ttf",fontsize="10",labelfontname="FreeSans.ttf",labelfontsize="10"];
  node [fontname="FreeSans.ttf",fontsize="10",shape=record];
  rankdir="LR";
  Node4 [label="muq::Approximation\l::BasisExpansion",height=0.2,width=0.4,color="black", fillcolor="grey75", style="filled", fontcolor="black"];
  Node5 -> Node4 [dir="back",color="midnightblue",fontsize="10",style="solid",fontname="FreeSans.ttf"];
  Node5 [label="muq::Modeling::ModPiece",height=0.2,width=0.4,color="black", fillcolor="white", style="filled",URL="$classmuq_1_1Modeling_1_1ModPiece.html",tooltip="Provides an abstract interface for defining vector-valued model components. "];
  Node6 -> Node5 [dir="back",color="midnightblue",fontsize="10",style="solid",fontname="FreeSans.ttf"];
  Node6 [label="muq::Modeling::WorkPiece",height=0.2,width=0.4,color="black", fillcolor="white", style="filled",URL="$classmuq_1_1Modeling_1_1WorkPiece.html",tooltip="Base class for MUQ&#39;s modelling envronment. "];
  Node7 -> Node6 [dir="back",color="darkorchid3",fontsize="10",style="dashed",label=" inputSizes" ,fontname="FreeSans.ttf"];
  Node7 [label="std::map\< unsigned\l int, int \>",height=0.2,width=0.4,color="grey75", fillcolor="white", style="filled"];
  Node8 -> Node6 [dir="back",color="darkorchid3",fontsize="10",style="dashed",label=" name" ,fontname="FreeSans.ttf"];
  Node8 [label="std::string",height=0.2,width=0.4,color="grey75", fillcolor="white", style="filled",tooltip="STL class. "];
  Node9 -> Node8 [dir="back",color="midnightblue",fontsize="10",style="solid",fontname="FreeSans.ttf"];
  Node9 [label="std::basic_string\<\l char \>",height=0.2,width=0.4,color="grey75", fillcolor="white", style="filled",tooltip="STL class. "];
  Node10 -> Node6 [dir="back",color="darkorchid3",fontsize="10",style="dashed",label=" outputs" ,fontname="FreeSans.ttf"];
  Node10 [label="std::vector\< boost\l::any \>",height=0.2,width=0.4,color="grey75", fillcolor="white", style="filled"];
  Node11 -> Node6 [dir="back",color="darkorchid3",fontsize="10",style="dashed",label=" outputTypes\ninputTypes" ,fontname="FreeSans.ttf"];
  Node11 [label="std::map\< unsigned\l int, std::string \>",height=0.2,width=0.4,color="grey75", fillcolor="white", style="filled"];
  Node8 -> Node11 [dir="back",color="darkorchid3",fontsize="10",style="dashed",label=" elements" ,fontname="FreeSans.ttf"];
  Node12 -> Node5 [dir="back",color="darkorchid3",fontsize="10",style="dashed",label=" outputs\ncacheInput" ,fontname="FreeSans.ttf"];
  Node12 [label="std::vector\< Eigen\l::VectorXd \>",height=0.2,width=0.4,color="grey75", fillcolor="white", style="filled"];
  Node13 -> Node4 [dir="back",color="darkorchid3",fontsize="10",style="dashed",label=" basisComps" ,fontname="FreeSans.ttf"];
  Node13 [label="std::vector\< std::shared\l_ptr\< muq::Approximation\l::IndexedScalarBasis \> \>",height=0.2,width=0.4,color="grey75", fillcolor="white", style="filled"];
}
