digraph "muq::Utilities::MultiIndexSet"
{
  edge [fontname="FreeSans.ttf",fontsize="10",labelfontname="FreeSans.ttf",labelfontsize="10"];
  node [fontname="FreeSans.ttf",fontsize="10",shape=record];
  rankdir="LR";
  Node1 [label="muq::Utilities::MultiIndexSet",height=0.2,width=0.4,color="black", fillcolor="grey75", style="filled", fontcolor="black"];
  Node2 -> Node1 [dir="back",color="darkorchid3",fontsize="10",style="dashed",label=" inEdges\noutEdges" ,fontname="FreeSans.ttf"];
  Node2 [label="std::vector\< std::set\l\< int \> \>",height=0.2,width=0.4,color="grey75", fillcolor="white", style="filled"];
  Node3 -> Node2 [dir="back",color="darkorchid3",fontsize="10",style="dashed",label=" elements" ,fontname="FreeSans.ttf"];
  Node3 [label="std::set\< int \>",height=0.2,width=0.4,color="grey75", fillcolor="white", style="filled"];
  Node4 -> Node1 [dir="back",color="darkorchid3",fontsize="10",style="dashed",label=" active2global" ,fontname="FreeSans.ttf"];
  Node4 [label="std::vector\< unsigned \>",height=0.2,width=0.4,color="grey75", fillcolor="white", style="filled"];
  Node5 -> Node1 [dir="back",color="darkorchid3",fontsize="10",style="dashed",label=" multi2global" ,fontname="FreeSans.ttf"];
  Node5 [label="std::map\< std::shared\l_ptr\< MultiIndex \>, unsigned\l int, MultiPtrComp \>",height=0.2,width=0.4,color="grey75", fillcolor="white", style="filled"];
  Node6 -> Node1 [dir="back",color="darkorchid3",fontsize="10",style="dashed",label=" allMultis" ,fontname="FreeSans.ttf"];
  Node6 [label="std::vector\< std::shared\l_ptr\< MultiIndex \> \>",height=0.2,width=0.4,color="grey75", fillcolor="white", style="filled"];
  Node7 -> Node1 [dir="back",color="darkorchid3",fontsize="10",style="dashed",label=" global2active" ,fontname="FreeSans.ttf"];
  Node7 [label="std::vector\< int \>",height=0.2,width=0.4,color="grey75", fillcolor="white", style="filled"];
}
