digraph "muq::SamplingAlgorithms::DRKernel"
{
  edge [fontname="FreeSans.ttf",fontsize="10",labelfontname="FreeSans.ttf",labelfontsize="10"];
  node [fontname="FreeSans.ttf",fontsize="10",shape=record];
  rankdir="LR";
  Node2 [label="muq::SamplingAlgorithms\l::DRKernel",height=0.2,width=0.4,color="black", fillcolor="grey75", style="filled", fontcolor="black"];
  Node3 -> Node2 [dir="back",color="midnightblue",fontsize="10",style="solid",fontname="FreeSans.ttf"];
  Node3 [label="muq::SamplingAlgorithms\l::TransitionKernel",height=0.2,width=0.4,color="black", fillcolor="white", style="filled",URL="$classmuq_1_1SamplingAlgorithms_1_1TransitionKernel.html",tooltip="Defines the transition kernel used by an MCMC algorithm. "];
  Node4 -> Node2 [dir="back",color="darkorchid3",fontsize="10",style="dashed",label=" uniqueProps" ,fontname="FreeSans.ttf"];
  Node4 [label="std::set\< std::shared\l_ptr\< muq::SamplingAlgorithms\l::MCMCProposal \> \>",height=0.2,width=0.4,color="grey75", fillcolor="white", style="filled"];
  Node5 -> Node2 [dir="back",color="darkorchid3",fontsize="10",style="dashed",label=" proposals" ,fontname="FreeSans.ttf"];
  Node5 [label="std::vector\< std::shared\l_ptr\< muq::SamplingAlgorithms\l::MCMCProposal \> \>",height=0.2,width=0.4,color="grey75", fillcolor="white", style="filled"];
  Node6 -> Node2 [dir="back",color="darkorchid3",fontsize="10",style="dashed",label=" propScales" ,fontname="FreeSans.ttf"];
  Node6 [label="std::vector\< double \>",height=0.2,width=0.4,color="grey75", fillcolor="white", style="filled"];
}
