digraph "muq::Approximation::SumKernel"
{
  edge [fontname="FreeSans.ttf",fontsize="10",labelfontname="FreeSans.ttf",labelfontsize="10"];
  node [fontname="FreeSans.ttf",fontsize="10",shape=record];
  Node0 [label="muq::Approximation\l::SumKernel",height=0.2,width=0.4,color="black", fillcolor="grey75", style="filled", fontcolor="black"];
  Node1 -> Node0 [dir="back",color="midnightblue",fontsize="10",style="solid",fontname="FreeSans.ttf"];
  Node1 [label="muq::Approximation\l::KernelBase",height=0.2,width=0.4,color="black", fillcolor="white", style="filled",URL="$classmuq_1_1Approximation_1_1KernelBase.html",tooltip="Base class for all covariance kernels. "];
  Node2 -> Node1 [dir="back",color="midnightblue",fontsize="10",style="solid",fontname="FreeSans.ttf"];
  Node2 [label="std::enable_shared\l_from_this\< muq::Approximation\l::KernelBase \>",height=0.2,width=0.4,color="grey75", fillcolor="white", style="filled"];
}
