digraph "pymuqModeling.PDEModPiece.PDEModPiece"
{
  edge [fontname="FreeSans.ttf",fontsize="10",labelfontname="FreeSans.ttf",labelfontsize="10"];
  node [fontname="FreeSans.ttf",fontsize="10",shape=record];
  Node0 [label="pymuqModeling.PDEModPiece.\lPDEModPiece",height=0.2,width=0.4,color="black", fillcolor="grey75", style="filled", fontcolor="black"];
  Node1 -> Node0 [dir="back",color="midnightblue",fontsize="10",style="solid",fontname="FreeSans.ttf"];
  Node1 [label="mm::PyModPiece",height=0.2,width=0.4,color="grey75", fillcolor="white", style="filled"];
}
