digraph "muq::Approximation::GaussPattersonQuadrature"
{
  edge [fontname="FreeSans.ttf",fontsize="10",labelfontname="FreeSans.ttf",labelfontsize="10"];
  node [fontname="FreeSans.ttf",fontsize="10",shape=record];
  Node0 [label="muq::Approximation\l::GaussPattersonQuadrature",height=0.2,width=0.4,color="black", fillcolor="grey75", style="filled", fontcolor="black"];
  Node1 -> Node0 [dir="back",color="midnightblue",fontsize="10",style="solid",fontname="FreeSans.ttf"];
  Node1 [label="muq::Approximation\l::Quadrature",height=0.2,width=0.4,color="black", fillcolor="white", style="filled",URL="$classmuq_1_1Approximation_1_1Quadrature.html",tooltip="Base class for multivariate quadrature rules.  An abstract class for computing nodes and weights of g..."];
}
