digraph "muq::Approximation::ObservationInformation"
{
  edge [fontname="FreeSans.ttf",fontsize="10",labelfontname="FreeSans.ttf",labelfontsize="10"];
  node [fontname="FreeSans.ttf",fontsize="10",shape=record];
  Node3 [label="muq::Approximation\l::ObservationInformation",height=0.2,width=0.4,color="black", fillcolor="grey75", style="filled", fontcolor="black"];
  Node4 -> Node3 [dir="back",color="midnightblue",fontsize="10",style="solid",fontname="FreeSans.ttf"];
  Node4 [label="std::enable_shared\l_from_this\< ObservationInformation \>",height=0.2,width=0.4,color="grey75", fillcolor="white", style="filled"];
}
