digraph "muq::Approximation::WhiteNoiseKernel"
{
  edge [fontname="FreeSans.ttf",fontsize="10",labelfontname="FreeSans.ttf",labelfontsize="10"];
  node [fontname="FreeSans.ttf",fontsize="10",shape=record];
  rankdir="LR";
  Node4 [label="muq::Approximation\l::WhiteNoiseKernel",height=0.2,width=0.4,color="black", fillcolor="grey75", style="filled", fontcolor="black"];
  Node5 -> Node4 [dir="back",color="midnightblue",fontsize="10",style="solid",fontname="FreeSans.ttf"];
  Node5 [label="muq::Approximation\l::KernelImpl\< WhiteNoiseKernel \>",height=0.2,width=0.4,color="black", fillcolor="white", style="filled",URL="$classmuq_1_1Approximation_1_1KernelImpl.html"];
  Node6 -> Node5 [dir="back",color="midnightblue",fontsize="10",style="solid",fontname="FreeSans.ttf"];
  Node6 [label="muq::Approximation\l::KernelBase",height=0.2,width=0.4,color="black", fillcolor="white", style="filled",URL="$classmuq_1_1Approximation_1_1KernelBase.html",tooltip="Base class for all covariance kernels. "];
  Node7 -> Node6 [dir="back",color="midnightblue",fontsize="10",style="solid",fontname="FreeSans.ttf"];
  Node7 [label="std::enable_shared\l_from_this\< muq::Approximation\l::KernelBase \>",height=0.2,width=0.4,color="grey75", fillcolor="white", style="filled"];
  Node8 -> Node6 [dir="back",color="darkorchid3",fontsize="10",style="dashed",label=" dimInds" ,fontname="FreeSans.ttf"];
  Node8 [label="std::vector\< unsigned\l int \>",height=0.2,width=0.4,color="grey75", fillcolor="white", style="filled"];
}
