digraph "muq::Modeling::WorkPiece"
{
  edge [fontname="FreeSans.ttf",fontsize="10",labelfontname="FreeSans.ttf",labelfontsize="10"];
  node [fontname="FreeSans.ttf",fontsize="10",shape=record];
  rankdir="LR";
  Node71 [label="muq::Modeling::WorkPiece",height=0.2,width=0.4,color="black", fillcolor="grey75", style="filled", fontcolor="black"];
  Node72 -> Node71 [dir="back",color="darkorchid3",fontsize="10",style="dashed",label=" inputSizes" ,fontname="FreeSans.ttf"];
  Node72 [label="std::map\< unsigned\l int, int \>",height=0.2,width=0.4,color="grey75", fillcolor="white", style="filled"];
  Node73 -> Node71 [dir="back",color="darkorchid3",fontsize="10",style="dashed",label=" name" ,fontname="FreeSans.ttf"];
  Node73 [label="std::string",height=0.2,width=0.4,color="grey75", fillcolor="white", style="filled",tooltip="STL class. "];
  Node74 -> Node73 [dir="back",color="midnightblue",fontsize="10",style="solid",fontname="FreeSans.ttf"];
  Node74 [label="std::basic_string\<\l char \>",height=0.2,width=0.4,color="grey75", fillcolor="white", style="filled",tooltip="STL class. "];
  Node75 -> Node71 [dir="back",color="darkorchid3",fontsize="10",style="dashed",label=" outputs" ,fontname="FreeSans.ttf"];
  Node75 [label="std::vector\< boost\l::any \>",height=0.2,width=0.4,color="grey75", fillcolor="white", style="filled"];
  Node76 -> Node71 [dir="back",color="darkorchid3",fontsize="10",style="dashed",label=" outputTypes\ninputTypes" ,fontname="FreeSans.ttf"];
  Node76 [label="std::map\< unsigned\l int, std::string \>",height=0.2,width=0.4,color="grey75", fillcolor="white", style="filled"];
  Node73 -> Node76 [dir="back",color="darkorchid3",fontsize="10",style="dashed",label=" elements" ,fontname="FreeSans.ttf"];
}
