digraph "muq::SamplingAlgorithms::MHProposal"
{
  edge [fontname="FreeSans.ttf",fontsize="10",labelfontname="FreeSans.ttf",labelfontsize="10"];
  node [fontname="FreeSans.ttf",fontsize="10",shape=record];
  Node3 [label="muq::SamplingAlgorithms\l::MHProposal",height=0.2,width=0.4,color="black", fillcolor="grey75", style="filled", fontcolor="black"];
  Node4 -> Node3 [dir="back",color="midnightblue",fontsize="10",style="solid",fontname="FreeSans.ttf"];
  Node4 [label="muq::SamplingAlgorithms\l::MCMCProposal",height=0.2,width=0.4,color="black", fillcolor="white", style="filled",URL="$classmuq_1_1SamplingAlgorithms_1_1MCMCProposal.html"];
  Node5 -> Node4 [dir="back",color="midnightblue",fontsize="10",style="solid",fontname="FreeSans.ttf"];
  Node5 [label="std::enable_shared\l_from_this\< MCMCProposal \>",height=0.2,width=0.4,color="grey75", fillcolor="white", style="filled"];
}
