digraph "muq::SamplingAlgorithms::MIInterpolation"
{
  edge [fontname="FreeSans.ttf",fontsize="10",labelfontname="FreeSans.ttf",labelfontsize="10"];
  node [fontname="FreeSans.ttf",fontsize="10",shape=record];
  Node0 [label="muq::SamplingAlgorithms\l::MIInterpolation",height=0.2,width=0.4,color="black", fillcolor="grey75", style="filled", fontcolor="black"];
  Node0 -> Node1 [dir="back",color="midnightblue",fontsize="10",style="solid",fontname="FreeSans.ttf"];
  Node1 [label="muq::SamplingAlgorithms\l::ConcatenatingInterpolation",height=0.2,width=0.4,color="black", fillcolor="white", style="filled",URL="$classmuq_1_1SamplingAlgorithms_1_1ConcatenatingInterpolation.html",tooltip="A simple implementation concatenating coarse and fine sample vectors. "];
  Node0 -> Node2 [dir="back",color="midnightblue",fontsize="10",style="solid",fontname="FreeSans.ttf"];
  Node2 [label="PyConcatenatingInterpolation",height=0.2,width=0.4,color="grey75", fillcolor="white", style="filled"];
}
