digraph "muq::SamplingAlgorithms::ConcatenatingInterpolation"
{
  edge [fontname="FreeSans.ttf",fontsize="10",labelfontname="FreeSans.ttf",labelfontsize="10"];
  node [fontname="FreeSans.ttf",fontsize="10",shape=record];
  Node0 [label="muq::SamplingAlgorithms\l::ConcatenatingInterpolation",height=0.2,width=0.4,color="black", fillcolor="grey75", style="filled", fontcolor="black"];
  Node1 -> Node0 [dir="back",color="midnightblue",fontsize="10",style="solid",fontname="FreeSans.ttf"];
  Node1 [label="muq::SamplingAlgorithms\l::MIInterpolation",height=0.2,width=0.4,color="black", fillcolor="white", style="filled",URL="$classmuq_1_1SamplingAlgorithms_1_1MIInterpolation.html",tooltip="Interpolation interface combining coarse and fine samples. "];
}
