digraph "muq::SamplingAlgorithms::MonteCarlo"
{
  edge [fontname="FreeSans.ttf",fontsize="10",labelfontname="FreeSans.ttf",labelfontsize="10"];
  node [fontname="FreeSans.ttf",fontsize="10",shape=record];
  Node2 [label="muq::SamplingAlgorithms\l::MonteCarlo",height=0.2,width=0.4,color="black", fillcolor="grey75", style="filled", fontcolor="black"];
  Node3 -> Node2 [dir="back",color="midnightblue",fontsize="10",style="solid",fontname="FreeSans.ttf"];
  Node3 [label="muq::SamplingAlgorithms\l::SamplingAlgorithm",height=0.2,width=0.4,color="black", fillcolor="white", style="filled",URL="$classmuq_1_1SamplingAlgorithms_1_1SamplingAlgorithm.html"];
}
