digraph "muq::Modeling::ModGraphPiece"
{
  edge [fontname="FreeSans.ttf",fontsize="10",labelfontname="FreeSans.ttf",labelfontsize="10"];
  node [fontname="FreeSans.ttf",fontsize="10",shape=record];
  rankdir="LR";
  Node3 [label="muq::Modeling::ModGraphPiece",height=0.2,width=0.4,color="black", fillcolor="grey75", style="filled", fontcolor="black"];
  Node4 -> Node3 [dir="back",color="midnightblue",fontsize="10",style="solid",fontname="FreeSans.ttf"];
  Node4 [label="muq::Modeling::ModPiece",height=0.2,width=0.4,color="black", fillcolor="white", style="filled",URL="$classmuq_1_1Modeling_1_1ModPiece.html",tooltip="Provides an abstract interface for defining vector-valued model components. "];
  Node5 -> Node4 [dir="back",color="midnightblue",fontsize="10",style="solid",fontname="FreeSans.ttf"];
  Node5 [label="muq::Modeling::WorkPiece",height=0.2,width=0.4,color="black", fillcolor="white", style="filled",URL="$classmuq_1_1Modeling_1_1WorkPiece.html",tooltip="Base class for MUQ&#39;s modelling envronment. "];
  Node6 -> Node5 [dir="back",color="darkorchid3",fontsize="10",style="dashed",label=" inputSizes" ,fontname="FreeSans.ttf"];
  Node6 [label="std::map\< unsigned\l int, int \>",height=0.2,width=0.4,color="grey75", fillcolor="white", style="filled"];
  Node7 -> Node5 [dir="back",color="darkorchid3",fontsize="10",style="dashed",label=" name" ,fontname="FreeSans.ttf"];
  Node7 [label="std::string",height=0.2,width=0.4,color="grey75", fillcolor="white", style="filled",tooltip="STL class. "];
  Node8 -> Node7 [dir="back",color="midnightblue",fontsize="10",style="solid",fontname="FreeSans.ttf"];
  Node8 [label="std::basic_string\<\l char \>",height=0.2,width=0.4,color="grey75", fillcolor="white", style="filled",tooltip="STL class. "];
  Node9 -> Node5 [dir="back",color="darkorchid3",fontsize="10",style="dashed",label=" outputs" ,fontname="FreeSans.ttf"];
  Node9 [label="std::vector\< boost\l::any \>",height=0.2,width=0.4,color="grey75", fillcolor="white", style="filled"];
  Node10 -> Node5 [dir="back",color="darkorchid3",fontsize="10",style="dashed",label=" outputTypes\ninputTypes" ,fontname="FreeSans.ttf"];
  Node10 [label="std::map\< unsigned\l int, std::string \>",height=0.2,width=0.4,color="grey75", fillcolor="white", style="filled"];
  Node7 -> Node10 [dir="back",color="darkorchid3",fontsize="10",style="dashed",label=" elements" ,fontname="FreeSans.ttf"];
  Node11 -> Node4 [dir="back",color="darkorchid3",fontsize="10",style="dashed",label=" outputs\ncacheInput" ,fontname="FreeSans.ttf"];
  Node11 [label="std::vector\< Eigen\l::VectorXd \>",height=0.2,width=0.4,color="grey75", fillcolor="white", style="filled"];
  Node12 -> Node3 [dir="back",color="darkorchid3",fontsize="10",style="dashed",label=" adjointRunOrders" ,fontname="FreeSans.ttf"];
  Node12 [label="std::vector\< std::deque\l\< boost::graph_traits\l\< Graph \>::vertex_descriptor \> \>",height=0.2,width=0.4,color="grey75", fillcolor="white", style="filled"];
  Node13 -> Node12 [dir="back",color="darkorchid3",fontsize="10",style="dashed",label=" elements" ,fontname="FreeSans.ttf"];
  Node13 [label="std::deque\< boost::\lgraph_traits\< Graph\l \>::vertex_descriptor \>",height=0.2,width=0.4,color="grey75", fillcolor="white", style="filled"];
  Node14 -> Node3 [dir="back",color="darkorchid3",fontsize="10",style="dashed",label=" hessianPieces" ,fontname="FreeSans.ttf"];
  Node14 [label="std::map\< std::tuple\l\< unsigned int, unsigned\l int, unsigned int \>, std\l::shared_ptr\< muq::Modeling\l::ModGraphPiece \> \>",height=0.2,width=0.4,color="grey75", fillcolor="white", style="filled"];
  Node13 -> Node3 [dir="back",color="darkorchid3",fontsize="10",style="dashed",label=" runOrder" ,fontname="FreeSans.ttf"];
  Node15 -> Node3 [dir="back",color="darkorchid3",fontsize="10",style="dashed",label=" gradientPieces\njacobianPieces" ,fontname="FreeSans.ttf"];
  Node15 [label="std::map\< std::pair\l\< unsigned int, unsigned\l int \>, std::shared_ptr\l\< muq::Modeling::ModGraphPiece \> \>",height=0.2,width=0.4,color="grey75", fillcolor="white", style="filled"];
  Node16 -> Node3 [dir="back",color="darkorchid3",fontsize="10",style="dashed",label=" constantPieces" ,fontname="FreeSans.ttf"];
  Node16 [label="std::vector\< std::shared\l_ptr\< muq::Modeling::ConstantVector \> \>",height=0.2,width=0.4,color="grey75", fillcolor="white", style="filled"];
  Node17 -> Node3 [dir="back",color="darkorchid3",fontsize="10",style="dashed",label=" valMap" ,fontname="FreeSans.ttf"];
  Node17 [label="std::unordered_map\l\< unsigned int, ref\l_vector\< Eigen::VectorXd \> \>",height=0.2,width=0.4,color="grey75", fillcolor="white", style="filled"];
  Node18 -> Node3 [dir="back",color="darkorchid3",fontsize="10",style="dashed",label=" filtered_graphs" ,fontname="FreeSans.ttf"];
  Node18 [label="std::vector\< std::shared\l_ptr\< FilteredGraph \> \>",height=0.2,width=0.4,color="grey75", fillcolor="white", style="filled"];
}
