digraph "muq::Utilities::OrLimiter"
{
  edge [fontname="FreeSans.ttf",fontsize="10",labelfontname="FreeSans.ttf",labelfontsize="10"];
  node [fontname="FreeSans.ttf",fontsize="10",shape=record];
  Node0 [label="muq::Utilities::OrLimiter",height=0.2,width=0.4,color="black", fillcolor="grey75", style="filled", fontcolor="black"];
  Node1 -> Node0 [dir="back",color="midnightblue",fontsize="10",style="solid",fontname="FreeSans.ttf"];
  Node1 [label="muq::Utilities::MultiIndex\lLimiter",height=0.2,width=0.4,color="black", fillcolor="white", style="filled",URL="$classmuq_1_1Utilities_1_1MultiIndexLimiter.html",tooltip="An abstract base class for multi index limiters. "];
}
