digraph "muq::SamplingAlgorithms::InfMALAProposal"
{
  edge [fontname="FreeSans.ttf",fontsize="10",labelfontname="FreeSans.ttf",labelfontsize="10"];
  node [fontname="FreeSans.ttf",fontsize="10",shape=record];
  Node0 [label="muq::SamplingAlgorithms\l::InfMALAProposal",height=0.2,width=0.4,color="black", fillcolor="grey75", style="filled", fontcolor="black"];
  Node1 -> Node0 [dir="back",color="midnightblue",fontsize="10",style="solid",fontname="FreeSans.ttf"];
  Node1 [label="muq::SamplingAlgorithms\l::CrankNicolsonProposal",height=0.2,width=0.4,color="black", fillcolor="white", style="filled",URL="$classmuq_1_1SamplingAlgorithms_1_1CrankNicolsonProposal.html",tooltip="An implement of the dimension-independent pCN proposal. "];
  Node2 -> Node1 [dir="back",color="midnightblue",fontsize="10",style="solid",fontname="FreeSans.ttf"];
  Node2 [label="muq::SamplingAlgorithms\l::MCMCProposal",height=0.2,width=0.4,color="black", fillcolor="white", style="filled",URL="$classmuq_1_1SamplingAlgorithms_1_1MCMCProposal.html"];
  Node3 -> Node2 [dir="back",color="midnightblue",fontsize="10",style="solid",fontname="FreeSans.ttf"];
  Node3 [label="std::enable_shared\l_from_this\< MCMCProposal \>",height=0.2,width=0.4,color="grey75", fillcolor="white", style="filled"];
}
