digraph "muq::SamplingAlgorithms::MarkovChain"
{
  edge [fontname="FreeSans.ttf",fontsize="10",labelfontname="FreeSans.ttf",labelfontsize="10"];
  node [fontname="FreeSans.ttf",fontsize="10",shape=record];
  rankdir="LR";
  Node2 [label="muq::SamplingAlgorithms\l::MarkovChain",height=0.2,width=0.4,color="black", fillcolor="grey75", style="filled", fontcolor="black"];
  Node3 -> Node2 [dir="back",color="midnightblue",fontsize="10",style="solid",fontname="FreeSans.ttf"];
  Node3 [label="muq::SamplingAlgorithms\l::SampleCollection",height=0.2,width=0.4,color="black", fillcolor="white", style="filled",URL="$classmuq_1_1SamplingAlgorithms_1_1SampleCollection.html",tooltip="A class to hold and analyze a collection of SamplingState objects. "];
  Node4 -> Node3 [dir="back",color="darkorchid3",fontsize="10",style="dashed",label=" samples" ,fontname="FreeSans.ttf"];
  Node4 [label="std::vector\< std::shared\l_ptr\< muq::SamplingAlgorithms\l::SamplingState \> \>",height=0.2,width=0.4,color="grey75", fillcolor="white", style="filled"];
  Node5 -> Node2 [dir="back",color="darkorchid3",fontsize="10",style="dashed",label=" meta" ,fontname="FreeSans.ttf"];
  Node5 [label="std::vector\< std::unordered\l_map\< std::string, boost\l::any \> \>",height=0.2,width=0.4,color="grey75", fillcolor="white", style="filled"];
  Node6 -> Node5 [dir="back",color="darkorchid3",fontsize="10",style="dashed",label=" elements" ,fontname="FreeSans.ttf"];
  Node6 [label="std::unordered_map\l\< std::string, boost\l::any \>",height=0.2,width=0.4,color="grey75", fillcolor="white", style="filled"];
  Node7 -> Node6 [dir="back",color="darkorchid3",fontsize="10",style="dashed",label=" keys" ,fontname="FreeSans.ttf"];
  Node7 [label="std::string",height=0.2,width=0.4,color="grey75", fillcolor="white", style="filled",tooltip="STL class. "];
  Node8 -> Node7 [dir="back",color="midnightblue",fontsize="10",style="solid",fontname="FreeSans.ttf"];
  Node8 [label="std::basic_string\<\l char \>",height=0.2,width=0.4,color="grey75", fillcolor="white", style="filled",tooltip="STL class. "];
}
