digraph "muq::Modeling::LinearOperator"
{
  edge [fontname="FreeSans.ttf",fontsize="10",labelfontname="FreeSans.ttf",labelfontsize="10"];
  node [fontname="FreeSans.ttf",fontsize="10",shape=record];
  rankdir="LR";
  Node23 [label="muq::Modeling::LinearOperator",height=0.2,width=0.4,color="black", fillcolor="grey75", style="filled", fontcolor="black"];
  Node24 -> Node23 [dir="back",color="midnightblue",fontsize="10",style="solid",fontname="FreeSans.ttf"];
  Node24 [label="muq::Modeling::ModPiece",height=0.2,width=0.4,color="black", fillcolor="white", style="filled",URL="$classmuq_1_1Modeling_1_1ModPiece.html",tooltip="Provides an abstract interface for defining vector-valued model components. "];
  Node25 -> Node24 [dir="back",color="midnightblue",fontsize="10",style="solid",fontname="FreeSans.ttf"];
  Node25 [label="muq::Modeling::WorkPiece",height=0.2,width=0.4,color="black", fillcolor="white", style="filled",URL="$classmuq_1_1Modeling_1_1WorkPiece.html",tooltip="Base class for MUQ&#39;s modelling envronment. "];
  Node26 -> Node25 [dir="back",color="darkorchid3",fontsize="10",style="dashed",label=" inputSizes" ,fontname="FreeSans.ttf"];
  Node26 [label="std::map\< unsigned\l int, int \>",height=0.2,width=0.4,color="grey75", fillcolor="white", style="filled"];
  Node27 -> Node25 [dir="back",color="darkorchid3",fontsize="10",style="dashed",label=" name" ,fontname="FreeSans.ttf"];
  Node27 [label="std::string",height=0.2,width=0.4,color="grey75", fillcolor="white", style="filled",tooltip="STL class. "];
  Node28 -> Node27 [dir="back",color="midnightblue",fontsize="10",style="solid",fontname="FreeSans.ttf"];
  Node28 [label="std::basic_string\<\l char \>",height=0.2,width=0.4,color="grey75", fillcolor="white", style="filled",tooltip="STL class. "];
  Node29 -> Node25 [dir="back",color="darkorchid3",fontsize="10",style="dashed",label=" outputs" ,fontname="FreeSans.ttf"];
  Node29 [label="std::vector\< boost\l::any \>",height=0.2,width=0.4,color="grey75", fillcolor="white", style="filled"];
  Node30 -> Node25 [dir="back",color="darkorchid3",fontsize="10",style="dashed",label=" outputTypes\ninputTypes" ,fontname="FreeSans.ttf"];
  Node30 [label="std::map\< unsigned\l int, std::string \>",height=0.2,width=0.4,color="grey75", fillcolor="white", style="filled"];
  Node27 -> Node30 [dir="back",color="darkorchid3",fontsize="10",style="dashed",label=" elements" ,fontname="FreeSans.ttf"];
  Node31 -> Node24 [dir="back",color="darkorchid3",fontsize="10",style="dashed",label=" outputs\ncacheInput" ,fontname="FreeSans.ttf"];
  Node31 [label="std::vector\< Eigen\l::VectorXd \>",height=0.2,width=0.4,color="grey75", fillcolor="white", style="filled"];
}
