digraph "muq::Utilities::AttributeList"
{
  edge [fontname="FreeSans.ttf",fontsize="10",labelfontname="FreeSans.ttf",labelfontsize="10"];
  node [fontname="FreeSans.ttf",fontsize="10",shape=record];
  Node1 [label="muq::Utilities::AttributeList",height=0.2,width=0.4,color="black", fillcolor="grey75", style="filled", fontcolor="black"];
  Node2 -> Node1 [dir="back",color="darkorchid3",fontsize="10",style="dashed",label=" path" ,fontname="FreeSans.ttf"];
  Node2 [label="std::string",height=0.2,width=0.4,color="grey75", fillcolor="white", style="filled",tooltip="STL class. "];
  Node3 -> Node2 [dir="back",color="midnightblue",fontsize="10",style="solid",fontname="FreeSans.ttf"];
  Node3 [label="std::basic_string\<\l char \>",height=0.2,width=0.4,color="grey75", fillcolor="white", style="filled",tooltip="STL class. "];
  Node4 -> Node1 [dir="back",color="darkorchid3",fontsize="10",style="dashed",label=" attributes" ,fontname="FreeSans.ttf"];
  Node4 [label="std::map\< std::string,\l muq::Utilities::Attribute \>",height=0.2,width=0.4,color="grey75", fillcolor="white", style="filled"];
  Node2 -> Node4 [dir="back",color="darkorchid3",fontsize="10",style="dashed",label=" keys" ,fontname="FreeSans.ttf"];
  Node5 -> Node4 [dir="back",color="darkorchid3",fontsize="10",style="dashed",label=" elements" ,fontname="FreeSans.ttf"];
  Node5 [label="muq::Utilities::Attribute",height=0.2,width=0.4,color="black", fillcolor="white", style="filled",URL="$classmuq_1_1Utilities_1_1Attribute.html"];
  Node2 -> Node5 [dir="back",color="darkorchid3",fontsize="10",style="dashed",label=" path\nname" ,fontname="FreeSans.ttf"];
}
