digraph "muq::Approximation::Legendre"
{
  edge [fontname="FreeSans.ttf",fontsize="10",labelfontname="FreeSans.ttf",labelfontsize="10"];
  node [fontname="FreeSans.ttf",fontsize="10",shape=record];
  rankdir="LR";
  Node4 [label="muq::Approximation\l::Legendre",height=0.2,width=0.4,color="black", fillcolor="grey75", style="filled", fontcolor="black"];
  Node5 -> Node4 [dir="back",color="midnightblue",fontsize="10",style="solid",fontname="FreeSans.ttf"];
  Node5 [label="muq::Approximation\l::OrthogonalPolynomial",height=0.2,width=0.4,color="black", fillcolor="white", style="filled",URL="$classmuq_1_1Approximation_1_1OrthogonalPolynomial.html",tooltip="A 1D orthogonal polynomial. "];
  Node6 -> Node5 [dir="back",color="midnightblue",fontsize="10",style="solid",fontname="FreeSans.ttf"];
  Node6 [label="muq::Approximation\l::IndexedScalarBasis",height=0.2,width=0.4,color="black", fillcolor="white", style="filled",URL="$classmuq_1_1Approximation_1_1IndexedScalarBasis.html"];
  Node7 -> Node6 [dir="back",color="midnightblue",fontsize="10",style="solid",fontname="FreeSans.ttf"];
  Node7 [label="muq::Modeling::WorkPiece",height=0.2,width=0.4,color="black", fillcolor="white", style="filled",URL="$classmuq_1_1Modeling_1_1WorkPiece.html",tooltip="Base class for MUQ&#39;s modelling envronment. "];
  Node8 -> Node7 [dir="back",color="darkorchid3",fontsize="10",style="dashed",label=" inputSizes" ,fontname="FreeSans.ttf"];
  Node8 [label="std::map\< unsigned\l int, int \>",height=0.2,width=0.4,color="grey75", fillcolor="white", style="filled"];
  Node9 -> Node7 [dir="back",color="darkorchid3",fontsize="10",style="dashed",label=" name" ,fontname="FreeSans.ttf"];
  Node9 [label="std::string",height=0.2,width=0.4,color="grey75", fillcolor="white", style="filled",tooltip="STL class. "];
  Node10 -> Node9 [dir="back",color="midnightblue",fontsize="10",style="solid",fontname="FreeSans.ttf"];
  Node10 [label="std::basic_string\<\l char \>",height=0.2,width=0.4,color="grey75", fillcolor="white", style="filled",tooltip="STL class. "];
  Node11 -> Node7 [dir="back",color="darkorchid3",fontsize="10",style="dashed",label=" outputs" ,fontname="FreeSans.ttf"];
  Node11 [label="std::vector\< boost\l::any \>",height=0.2,width=0.4,color="grey75", fillcolor="white", style="filled"];
  Node12 -> Node7 [dir="back",color="darkorchid3",fontsize="10",style="dashed",label=" outputTypes\ninputTypes" ,fontname="FreeSans.ttf"];
  Node12 [label="std::map\< unsigned\l int, std::string \>",height=0.2,width=0.4,color="grey75", fillcolor="white", style="filled"];
  Node9 -> Node12 [dir="back",color="darkorchid3",fontsize="10",style="dashed",label=" elements" ,fontname="FreeSans.ttf"];
}
