digraph "MIMCMC"
{
  edge [fontname="FreeSans.ttf",fontsize="10",labelfontname="FreeSans.ttf",labelfontsize="10"];
  node [fontname="FreeSans.ttf",fontsize="10",shape=record];
  rankdir=LR;
  Node0 [label="MIMCMC",height=0.2,width=0.4,color="black", fillcolor="grey75", style="filled", fontcolor="black"];
  Node1 [label="MCMC",height=0.2,width=0.4,color="black", fillcolor="white", style="filled",URL="$group__MCMC.html"];
  Node1->Node0 [shape=plaintext, dir="back", style="solid"];
}
