digraph "muq::Approximation::SmolyakEstimator&lt; EstimateType &gt;::SmolyTerm"
{
  edge [fontname="FreeSans.ttf",fontsize="10",labelfontname="FreeSans.ttf",labelfontsize="10"];
  node [fontname="FreeSans.ttf",fontsize="10",shape=record];
  Node1 [label="muq::Approximation\l::SmolyakEstimator\<\l EstimateType \>::SmolyTerm",height=0.2,width=0.4,color="black", fillcolor="grey75", style="filled", fontcolor="black"];
  Node2 -> Node1 [dir="back",color="darkorchid3",fontsize="10",style="dashed",label=" evalInds" ,fontname="FreeSans.ttf"];
  Node2 [label="std::vector\< unsigned\l int \>",height=0.2,width=0.4,color="grey75", fillcolor="white", style="filled"];
}
