digraph "muq::Approximation::GaussQuadrature"
{
 // LATEX_PDF_SIZE
  edge [fontname="FreeSans.ttf",fontsize="10",labelfontname="FreeSans.ttf",labelfontsize="10"];
  node [fontname="FreeSans.ttf",fontsize="10",shape=record];
  Node1 [label="muq::Approximation\l::GaussQuadrature",height=0.2,width=0.4,color="black", fillcolor="grey75", style="filled", fontcolor="black",tooltip="Class for computing Gauss Quadrature rules from an orthogonal polynomial family."];
  Node2 -> Node1 [dir="back",color="midnightblue",fontsize="10",style="solid",fontname="FreeSans.ttf"];
  Node2 [label="muq::Approximation\l::Quadrature",height=0.2,width=0.4,color="black", fillcolor="white", style="filled",URL="$classmuq_1_1Approximation_1_1Quadrature.html",tooltip="Base class for multivariate quadrature rules. @detail An abstract class for computing nodes and weigh..."];
}
