digraph "muq::Modeling::WorkPiece"
{
 // LATEX_PDF_SIZE
  edge [fontname="FreeSans.ttf",fontsize="10",labelfontname="FreeSans.ttf",labelfontsize="10"];
  node [fontname="FreeSans.ttf",fontsize="10",shape=record];
  rankdir="LR";
  Node1 [label="muq::Modeling::WorkPiece",height=0.2,width=0.4,color="black", fillcolor="grey75", style="filled", fontcolor="black",tooltip="Base class for MUQ's modelling envronment."];
  Node1 -> Node2 [dir="back",color="midnightblue",fontsize="10",style="solid",fontname="FreeSans.ttf"];
  Node2 [label="muq::Approximation\l::IndexedScalarBasis",height=0.2,width=0.4,color="black", fillcolor="white", style="filled",URL="$classmuq_1_1Approximation_1_1IndexedScalarBasis.html",tooltip=" "];
  Node2 -> Node3 [dir="back",color="midnightblue",fontsize="10",style="solid",fontname="FreeSans.ttf"];
  Node3 [label="muq::Approximation\l::HermiteFunction",height=0.2,width=0.4,color="black", fillcolor="white", style="filled",URL="$classmuq_1_1Approximation_1_1HermiteFunction.html",tooltip="A 1D hermite function based on Physicist Hermite Polynomials."];
  Node2 -> Node4 [dir="back",color="midnightblue",fontsize="10",style="solid",fontname="FreeSans.ttf"];
  Node4 [label="muq::Approximation\l::Monomial",height=0.2,width=0.4,color="black", fillcolor="white", style="filled",URL="$classmuq_1_1Approximation_1_1Monomial.html",tooltip="Family of monomial polynomials, i.e. () , , , ect. ...)"];
  Node2 -> Node5 [dir="back",color="midnightblue",fontsize="10",style="solid",fontname="FreeSans.ttf"];
  Node5 [label="muq::Approximation\l::OrthogonalPolynomial",height=0.2,width=0.4,color="black", fillcolor="white", style="filled",URL="$classmuq_1_1Approximation_1_1OrthogonalPolynomial.html",tooltip="A 1D orthogonal polynomial."];
  Node5 -> Node6 [dir="back",color="midnightblue",fontsize="10",style="solid",fontname="FreeSans.ttf"];
  Node6 [label="muq::Approximation\l::Jacobi",height=0.2,width=0.4,color="black", fillcolor="white", style="filled",URL="$classmuq_1_1Approximation_1_1Jacobi.html",tooltip="Family of Jacobi orthogonal polynomials."];
  Node5 -> Node7 [dir="back",color="midnightblue",fontsize="10",style="solid",fontname="FreeSans.ttf"];
  Node7 [label="muq::Approximation\l::Laguerre",height=0.2,width=0.4,color="black", fillcolor="white", style="filled",URL="$classmuq_1_1Approximation_1_1Laguerre.html",tooltip="Family of Laguerre orthogonal polynomials."];
  Node5 -> Node8 [dir="back",color="midnightblue",fontsize="10",style="solid",fontname="FreeSans.ttf"];
  Node8 [label="muq::Approximation\l::Legendre",height=0.2,width=0.4,color="black", fillcolor="white", style="filled",URL="$classmuq_1_1Approximation_1_1Legendre.html",tooltip="Family of Legendre orthogonal polynomials."];
  Node5 -> Node9 [dir="back",color="midnightblue",fontsize="10",style="solid",fontname="FreeSans.ttf"];
  Node9 [label="muq::Approximation\l::PhysicistHermite",height=0.2,width=0.4,color="black", fillcolor="white", style="filled",URL="$classmuq_1_1Approximation_1_1PhysicistHermite.html",tooltip=" "];
  Node5 -> Node10 [dir="back",color="midnightblue",fontsize="10",style="solid",fontname="FreeSans.ttf"];
  Node10 [label="muq::Approximation\l::ProbabilistHermite",height=0.2,width=0.4,color="black", fillcolor="white", style="filled",URL="$classmuq_1_1Approximation_1_1ProbabilistHermite.html",tooltip=" "];
  Node1 -> Node11 [dir="back",color="midnightblue",fontsize="10",style="solid",fontname="FreeSans.ttf"];
  Node11 [label="muq::Approximation\l::Regression",height=0.2,width=0.4,color="black", fillcolor="white", style="filled",URL="$classmuq_1_1Approximation_1_1Regression.html",tooltip=" "];
  Node1 -> Node12 [dir="back",color="midnightblue",fontsize="10",style="solid",fontname="FreeSans.ttf"];
  Node12 [label="muq::Modeling::ConstantPiece",height=0.2,width=0.4,color="black", fillcolor="white", style="filled",URL="$classmuq_1_1Modeling_1_1ConstantPiece.html",tooltip="A muq::Modeling::WorkPiece with no inputs and known, constant outputs."];
  Node1 -> Node13 [dir="back",color="midnightblue",fontsize="10",style="solid",fontname="FreeSans.ttf"];
  Node13 [label="muq::Modeling::FenicsPiece",height=0.2,width=0.4,color="black", fillcolor="white", style="filled",URL="$classmuq_1_1Modeling_1_1FenicsPiece.html",tooltip=" "];
  Node1 -> Node14 [dir="back",color="midnightblue",fontsize="10",style="solid",fontname="FreeSans.ttf"];
  Node14 [label="muq::Modeling::IdentityPiece",height=0.2,width=0.4,color="black", fillcolor="white", style="filled",URL="$classmuq_1_1Modeling_1_1IdentityPiece.html",tooltip="A muq::Modeling::WorkPiece that returns its inputs (identity operator)"];
  Node1 -> Node15 [dir="back",color="midnightblue",fontsize="10",style="solid",fontname="FreeSans.ttf"];
  Node15 [label="muq::Modeling::ModPiece",height=0.2,width=0.4,color="black", fillcolor="white", style="filled",URL="$classmuq_1_1Modeling_1_1ModPiece.html",tooltip="Provides an abstract interface for defining vector-valued model components."];
  Node15 -> Node16 [dir="back",color="midnightblue",fontsize="10",style="solid",fontname="FreeSans.ttf"];
  Node16 [label="FlowEquation",height=0.2,width=0.4,color="grey75", fillcolor="white", style="filled",tooltip=" "];
  Node15 -> Node16 [dir="back",color="midnightblue",fontsize="10",style="solid",fontname="FreeSans.ttf"];
  Node15 -> Node16 [dir="back",color="midnightblue",fontsize="10",style="solid",fontname="FreeSans.ttf"];
  Node15 -> Node16 [dir="back",color="midnightblue",fontsize="10",style="solid",fontname="FreeSans.ttf"];
  Node15 -> Node17 [dir="back",color="midnightblue",fontsize="10",style="solid",fontname="FreeSans.ttf"];
  Node17 [label="SimpleModel",height=0.2,width=0.4,color="grey75", fillcolor="white", style="filled",tooltip=" "];
  Node15 -> Node18 [dir="back",color="midnightblue",fontsize="10",style="solid",fontname="FreeSans.ttf"];
  Node18 [label="muq::Approximation\l::BasisExpansion",height=0.2,width=0.4,color="black", fillcolor="white", style="filled",URL="$classmuq_1_1Approximation_1_1BasisExpansion.html",tooltip="Class for defining expansions of basis functions defined by a MultiIndexSet and collection of IndexSc..."];
  Node18 -> Node19 [dir="back",color="midnightblue",fontsize="10",style="solid",fontname="FreeSans.ttf"];
  Node19 [label="muq::Approximation\l::PolynomialChaosExpansion",height=0.2,width=0.4,color="black", fillcolor="white", style="filled",URL="$classmuq_1_1Approximation_1_1PolynomialChaosExpansion.html",tooltip="A class for representing and using expansions of orthogonal multivariate polynomials."];
  Node15 -> Node20 [dir="back",color="midnightblue",fontsize="10",style="solid",fontname="FreeSans.ttf"];
  Node20 [label="muq::Approximation\l::LocalRegression",height=0.2,width=0.4,color="black", fillcolor="white", style="filled",URL="$classmuq_1_1Approximation_1_1LocalRegression.html",tooltip=" "];
  Node15 -> Node21 [dir="back",color="midnightblue",fontsize="10",style="solid",fontname="FreeSans.ttf"];
  Node21 [label="muq::Approximation\l::Regression::PoisednessConstraint",height=0.2,width=0.4,color="black", fillcolor="white", style="filled",URL="$classmuq_1_1Approximation_1_1Regression_1_1PoisednessConstraint.html",tooltip=" "];
  Node15 -> Node22 [dir="back",color="midnightblue",fontsize="10",style="solid",fontname="FreeSans.ttf"];
  Node22 [label="muq::Modeling::AffineOperator",height=0.2,width=0.4,color="black", fillcolor="white", style="filled",URL="$classmuq_1_1Modeling_1_1AffineOperator.html",tooltip="Generic affine operator which adds an offset to a linear operator. @seealso LinearOperator."];
  Node15 -> Node23 [dir="back",color="midnightblue",fontsize="10",style="solid",fontname="FreeSans.ttf"];
  Node23 [label="muq::Modeling::CombineVectors",height=0.2,width=0.4,color="black", fillcolor="white", style="filled",URL="$classmuq_1_1Modeling_1_1CombineVectors.html",tooltip=" "];
  Node15 -> Node24 [dir="back",color="midnightblue",fontsize="10",style="solid",fontname="FreeSans.ttf"];
  Node24 [label="muq::Modeling::ConstantVector",height=0.2,width=0.4,color="black", fillcolor="white", style="filled",URL="$classmuq_1_1Modeling_1_1ConstantVector.html",tooltip="A muq::Modeling::ModPiece with no inputs and a single known vector-valued output."];
  Node15 -> Node25 [dir="back",color="midnightblue",fontsize="10",style="solid",fontname="FreeSans.ttf"];
  Node25 [label="muq::Modeling::CwiseUnary\lOperator\< T1, T2, T3 \>",height=0.2,width=0.4,color="black", fillcolor="white", style="filled",URL="$classmuq_1_1Modeling_1_1CwiseUnaryOperator.html",tooltip=" "];
  Node15 -> Node26 [dir="back",color="midnightblue",fontsize="10",style="solid",fontname="FreeSans.ttf"];
  Node26 [label="muq::Modeling::DensityBase",height=0.2,width=0.4,color="red", fillcolor="white", style="filled",URL="$classmuq_1_1Modeling_1_1DensityBase.html",tooltip=" "];
  Node26 -> Node27 [dir="back",color="midnightblue",fontsize="10",style="solid",fontname="FreeSans.ttf"];
  Node27 [label="muq::Modeling::Density",height=0.2,width=0.4,color="black", fillcolor="white", style="filled",URL="$classmuq_1_1Modeling_1_1Density.html",tooltip=" "];
  Node15 -> Node29 [dir="back",color="midnightblue",fontsize="10",style="solid",fontname="FreeSans.ttf"];
  Node29 [label="muq::Modeling::FlannCache",height=0.2,width=0.4,color="black", fillcolor="white", style="filled",URL="$classmuq_1_1Modeling_1_1FlannCache.html",tooltip="Create a cache of model evaluations (input/output pairs)"];
  Node15 -> Node30 [dir="back",color="midnightblue",fontsize="10",style="solid",fontname="FreeSans.ttf"];
  Node30 [label="muq::Modeling::GradientPiece",height=0.2,width=0.4,color="black", fillcolor="white", style="filled",URL="$classmuq_1_1Modeling_1_1GradientPiece.html",tooltip=" "];
  Node15 -> Node31 [dir="back",color="midnightblue",fontsize="10",style="solid",fontname="FreeSans.ttf"];
  Node31 [label="muq::Modeling::HTTPModPiece",height=0.2,width=0.4,color="black", fillcolor="white", style="filled",URL="$classmuq_1_1Modeling_1_1HTTPModPiece.html",tooltip="A ModPiece connecting to an HTTP model."];
  Node15 -> Node32 [dir="back",color="midnightblue",fontsize="10",style="solid",fontname="FreeSans.ttf"];
  Node32 [label="muq::Modeling::JacobianPiece",height=0.2,width=0.4,color="black", fillcolor="white", style="filled",URL="$classmuq_1_1Modeling_1_1JacobianPiece.html",tooltip="A wrapper around another ModPiece that evaluates the action of the other piece's Jacobian on a vector..."];
  Node15 -> Node33 [dir="back",color="midnightblue",fontsize="10",style="solid",fontname="FreeSans.ttf"];
  Node33 [label="muq::Modeling::LinearOperator",height=0.2,width=0.4,color="red", fillcolor="white", style="filled",URL="$classmuq_1_1Modeling_1_1LinearOperator.html",tooltip="Generic linear operator base class."];
  Node15 -> Node54 [dir="back",color="midnightblue",fontsize="10",style="solid",fontname="FreeSans.ttf"];
  Node54 [label="muq::Modeling::ModGraphPiece",height=0.2,width=0.4,color="black", fillcolor="white", style="filled",URL="$classmuq_1_1Modeling_1_1ModGraphPiece.html",tooltip="A muq::Modeling::ModPiece created from a muq::Modeling::WorkGraph."];
  Node15 -> Node55 [dir="back",color="midnightblue",fontsize="10",style="solid",fontname="FreeSans.ttf"];
  Node55 [label="muq::Modeling::MultiLogistic\lLikelihood",height=0.2,width=0.4,color="black", fillcolor="white", style="filled",URL="$classmuq_1_1Modeling_1_1MultiLogisticLikelihood.html",tooltip="Class that defines the likelihood function for multinomial logistic regression."];
  Node15 -> Node56 [dir="back",color="midnightblue",fontsize="10",style="solid",fontname="FreeSans.ttf"];
  Node56 [label="muq::Modeling::ODE",height=0.2,width=0.4,color="black", fillcolor="white", style="filled",URL="$classmuq_1_1Modeling_1_1ODE.html",tooltip="A class for integrating ODEs with CVODES."];
  Node15 -> Node57 [dir="back",color="midnightblue",fontsize="10",style="solid",fontname="FreeSans.ttf"];
  Node57 [label="muq::Modeling::OneStepCache\lPiece",height=0.2,width=0.4,color="black", fillcolor="white", style="filled",URL="$classmuq_1_1Modeling_1_1OneStepCachePiece.html",tooltip=" "];
  Node15 -> Node58 [dir="back",color="midnightblue",fontsize="10",style="solid",fontname="FreeSans.ttf"];
  Node58 [label="muq::Modeling::ProductPiece",height=0.2,width=0.4,color="black", fillcolor="white", style="filled",URL="$classmuq_1_1Modeling_1_1ProductPiece.html",tooltip="Returns the components in a single vector input."];
  Node15 -> Node59 [dir="back",color="midnightblue",fontsize="10",style="solid",fontname="FreeSans.ttf"];
  Node59 [label="muq::Modeling::PyModPiece",height=0.2,width=0.4,color="red", fillcolor="white", style="filled",URL="$classmuq_1_1Modeling_1_1PyModPiece.html",tooltip=" "];
  Node15 -> Node62 [dir="back",color="midnightblue",fontsize="10",style="solid",fontname="FreeSans.ttf"];
  Node62 [label="muq::Modeling::RandomVariable",height=0.2,width=0.4,color="black", fillcolor="white", style="filled",URL="$classmuq_1_1Modeling_1_1RandomVariable.html",tooltip=" "];
  Node15 -> Node63 [dir="back",color="midnightblue",fontsize="10",style="solid",fontname="FreeSans.ttf"];
  Node63 [label="muq::Modeling::Replicate\lOperator",height=0.2,width=0.4,color="black", fillcolor="white", style="filled",URL="$classmuq_1_1Modeling_1_1ReplicateOperator.html",tooltip="A muq::Modeling::ModPiece that replicates a single input vector  times."];
  Node15 -> Node64 [dir="back",color="midnightblue",fontsize="10",style="solid",fontname="FreeSans.ttf"];
  Node64 [label="muq::Modeling::ScaleVector",height=0.2,width=0.4,color="black", fillcolor="white", style="filled",URL="$classmuq_1_1Modeling_1_1ScaleVector.html",tooltip=" "];
  Node15 -> Node65 [dir="back",color="midnightblue",fontsize="10",style="solid",fontname="FreeSans.ttf"];
  Node65 [label="muq::Modeling::SplitVector",height=0.2,width=0.4,color="black", fillcolor="white", style="filled",URL="$classmuq_1_1Modeling_1_1SplitVector.html",tooltip="Provides a mechanism for splitting a vector into multiple pieces."];
  Node15 -> Node66 [dir="back",color="midnightblue",fontsize="10",style="solid",fontname="FreeSans.ttf"];
  Node66 [label="muq::Modeling::SumPiece",height=0.2,width=0.4,color="black", fillcolor="white", style="filled",URL="$classmuq_1_1Modeling_1_1SumPiece.html",tooltip="Componentwise addition of two or more vectors."];
  Node15 -> Node67 [dir="back",color="midnightblue",fontsize="10",style="solid",fontname="FreeSans.ttf"];
  Node67 [label="muq::Optimization::\lCostFunction",height=0.2,width=0.4,color="red", fillcolor="white", style="filled",URL="$classmuq_1_1Optimization_1_1CostFunction.html",tooltip="The cost function for an optimization routine."];
  Node15 -> Node70 [dir="back",color="midnightblue",fontsize="10",style="solid",fontname="FreeSans.ttf"];
  Node70 [label="muq::Utilities::LinearOperator",height=0.2,width=0.4,color="black", fillcolor="white", style="filled",URL="$classmuq_1_1Utilities_1_1LinearOperator.html",tooltip="Generic linear operator base class."];
  Node1 -> Node71 [dir="back",color="midnightblue",fontsize="10",style="solid",fontname="FreeSans.ttf"];
  Node71 [label="muq::Modeling::WorkGraph\lPiece",height=0.2,width=0.4,color="black", fillcolor="white", style="filled",URL="$classmuq_1_1Modeling_1_1WorkGraphPiece.html",tooltip="A muq::Modeling::WorkPiece created from a muq::Modeling::WorkGraph."];
  Node1 -> Node72 [dir="back",color="midnightblue",fontsize="10",style="solid",fontname="FreeSans.ttf"];
  Node72 [label="muq::Optimization::\lOptimizer",height=0.2,width=0.4,color="black", fillcolor="white", style="filled",URL="$classmuq_1_1Optimization_1_1Optimizer.html",tooltip="Solve an optimization problem."];
  Node72 -> Node73 [dir="back",color="midnightblue",fontsize="10",style="solid",fontname="FreeSans.ttf"];
  Node73 [label="muq::Optimization::\lNLoptOptimizer",height=0.2,width=0.4,color="black", fillcolor="white", style="filled",URL="$classmuq_1_1Optimization_1_1NLoptOptimizer.html",tooltip=" "];
  Node72 -> Node74 [dir="back",color="midnightblue",fontsize="10",style="solid",fontname="FreeSans.ttf"];
  Node74 [label="muq::Optimization::\lNewtonTrust",height=0.2,width=0.4,color="black", fillcolor="white", style="filled",URL="$classmuq_1_1Optimization_1_1NewtonTrust.html",tooltip="Newton optimizer with trust region to ensure global convergence."];
}
