digraph "nlohmann::detail::is_constructible_array_type_impl&lt; BasicJsonType, ConstructibleArrayType, enable_if_t&lt; std::is_same&lt; ConstructibleArrayType, typename BasicJsonType::value_type &gt;::value &gt; &gt;"
{
 // LATEX_PDF_SIZE
  edge [fontname="FreeSans.ttf",fontsize="10",labelfontname="FreeSans.ttf",labelfontsize="10"];
  node [fontname="FreeSans.ttf",fontsize="10",shape=record];
  Node1 [label="nlohmann::detail::is\l_constructible_array\l_type_impl\< BasicJsonType,\l ConstructibleArrayType,\l enable_if_t\< std::is_same\l\< ConstructibleArrayType, typename\l BasicJsonType::value_type \>::value \> \>",height=0.2,width=0.4,color="black", fillcolor="grey75", style="filled", fontcolor="black",tooltip=" "];
  Node2 -> Node1 [dir="back",color="midnightblue",fontsize="10",style="solid",fontname="FreeSans.ttf"];
  Node2 [label="std::true_type",height=0.2,width=0.4,color="grey75", fillcolor="white", style="filled",tooltip=" "];
}
